<?xml version="1.0" standalone="no"?>
<!DOCTYPE svg PUBLIC "-//W3C//DTD SVG 1.1//EN" "http://www.w3.org/Graphics/SVG/1.1/DTD/svg11.dtd" >
<svg>
<metadata>
Created by FontForge 20110222 at Fri May 29 13:06:58 2015
 By www-data
 The digitally encoded machine readable software for producing the
 Typefaces licensed to you is copyrighted (c) 1988, 1990, 1993, 2002 Adobe Systems.
 All Rights Reserved. This software is the property of Adobe Systems
 Incorporated and its licensors, and may not be reproduced, used, 
 displayed, modified, disclosed or transferred without the express 
 written approval of Adobe.
 
 The digitally encoded machine readable outline data for producing the Typefaces 
 provided as part of your laser printer is copyrighted (c) 1981, 2002 Heidelberger Druckmaschinen AG. 
 All rights reserved. This data is the property of Heidelberger Druckmaschinen AG, 
 and may not be reproduced, used, displayed, modified, disclosed or transferred 
 without the express written approval of Heidelberger Druckmaschinen AG. 
</metadata>
<defs>
<font id="HelveticaNeueLTStd-Lt" horiz-adv-x="556" >
  <font-face 
    font-family="Helvetica Neue LT Std"
    font-weight="300"
    font-stretch="normal"
    units-per-em="1000"
    panose-1="2 11 4 3 2 2 2 2 2 4"
    ascent="714"
    descent="-286"
    x-height="516"
    cap-height="714"
    bbox="-166 -214 1050 967"
    underline-thickness="50"
    underline-position="-50"
    stemh="53"
    stemv="63"
    unicode-range="U+0020-FB02"
  />
<missing-glyph horiz-adv-x="500" 
d="M0 0v700h500v-700h-500zM250 395l170 255h-340zM280 350l170 -255v510zM80 50h340l-170 255zM50 605v-510l170 255z" />
    <glyph glyph-name="fi" unicode="fi" horiz-adv-x="444" 
d="M320 0v516h63v-516h-63zM94 0v463h-88v53h88v47c-1 89 24 151 125 151c18 0 33 -1 53 -4v-54c-17 3 -31 5 -46 5c-70 0 -68 -44 -69 -100v-45h102v-53h-102v-463h-63zM320 613v101h63v-101h-63z" />
    <glyph glyph-name="fl" unicode="fl" horiz-adv-x="444" 
d="M94 0v463h-88v53h88v47c-1 89 24 151 125 151c18 0 33 -1 53 -4v-54c-17 3 -31 5 -46 5c-70 0 -68 -44 -69 -100v-45h102v-53h-102v-463h-63zM320 0v714h63v-714h-63z" />
    <glyph glyph-name=".notdef" horiz-adv-x="500" 
d="M0 0v700h500v-700h-500zM250 395l170 255h-340zM280 350l170 -255v510zM80 50h340l-170 255zM50 605v-510l170 255z" />
    <glyph glyph-name="space" unicode=" " horiz-adv-x="278" 
 />
    <glyph glyph-name="exclam" unicode="!" horiz-adv-x="241" 
d="M102 178l-15 323v213h68v-213l-15 -323h-38zM163 0h-84v106h84v-106z" />
    <glyph glyph-name="quotedbl" unicode="&#x22;" horiz-adv-x="370" 
d="M87 471v243h63v-243h-63zM220 471v243h63v-243h-63z" />
    <glyph glyph-name="numbersign" unicode="#" 
d="M497 268v-45h-111l-31 -223h-50l31 223h-141l-31 -223h-50l31 223h-110v45h116l22 156h-110v45h116l31 222h50l-31 -222h141l31 222h50l-31 -222h105v-45h-111l-22 -156h105zM364 424h-141l-22 -156h141z" />
    <glyph glyph-name="dollar" unicode="$" 
d="M296 326v-288c85 0 168 42 168 146c0 95 -90 123 -168 142zM257 397v279c-80 0 -147 -44 -147 -149c0 -93 72 -112 147 -130zM29 228h63c1 -115 60 -178 165 -190v296c-113 25 -210 60 -210 200c0 120 94 195 210 195v78h39v-78c116 0 215 -86 212 -217h-63
c-1 100 -62 164 -149 164v-288c114 -24 231 -63 231 -203c0 -131 -114 -201 -231 -200v-85h-39v86c-156 15 -222 90 -228 242z" />
    <glyph glyph-name="percent" unicode="%" horiz-adv-x="889" 
d="M228 661c-84 0 -106 -81 -106 -145c0 -63 22 -143 106 -143s106 80 106 143c0 64 -22 145 -106 145zM228 706c113 0 159 -82 159 -189s-46 -189 -159 -189s-159 82 -159 189s46 189 159 189zM667 363c113 0 159 -82 159 -189s-46 -189 -159 -189s-159 82 -159 189
s46 189 159 189zM667 318c-84 0 -106 -81 -106 -145c0 -63 22 -143 106 -143s106 80 106 143c0 64 -22 145 -106 145zM190 -34l453 759h47l-452 -759h-48z" />
    <glyph glyph-name="ampersand" unicode="&#x26;" horiz-adv-x="611" 
d="M426 140l-178 216c-68 -37 -146 -91 -146 -177c0 -84 74 -141 155 -141c71 0 129 45 169 102zM541 0l-76 93c-52 -65 -126 -108 -210 -108c-123 0 -216 71 -216 200c0 102 95 169 175 212c-39 51 -88 103 -88 172c0 87 71 145 158 145s158 -58 158 -145
c0 -89 -69 -140 -140 -185l156 -188c17 35 21 66 21 120h63c0 -40 -9 -110 -42 -171l120 -145h-79zM284 661c-52 0 -95 -33 -95 -92c0 -50 49 -106 80 -144c50 31 110 75 110 144c0 59 -43 92 -95 92z" />
    <glyph glyph-name="quoteright" unicode="&#x2019;" horiz-adv-x="278" 
d="M99 714h84v-107c-1 -58 -28 -119 -89 -136v43c34 12 49 61 47 94h-42v106z" />
    <glyph glyph-name="parenleft" unicode="(" horiz-adv-x="241" 
d="M242 -191h-50c-89 147 -141 283 -141 457c0 170 54 328 141 463h50c-89 -142 -128 -310 -128 -486c0 -145 52 -310 128 -434z" />
    <glyph glyph-name="parenright" unicode=")" horiz-adv-x="241" 
d="M-1 729h50c89 -147 141 -283 141 -457c0 -170 -54 -328 -141 -463h-50c89 142 128 310 128 486c0 145 -52 310 -128 434z" />
    <glyph glyph-name="asterisk" unicode="*" horiz-adv-x="352" 
d="M142 556l-115 39l14 37l115 -41v123h39v-123l115 41l15 -37l-118 -39l72 -98l-32 -23l-73 100l-73 -100l-32 23z" />
    <glyph glyph-name="plus" unicode="+" horiz-adv-x="600" 
d="M274 278v225h53v-225h225v-53h-225v-225h-53v225h-225v53h225z" />
    <glyph glyph-name="comma" unicode="," horiz-adv-x="278" 
d="M97 106h84v-107c-1 -58 -28 -119 -88 -136v43c33 12 48 61 46 94h-42v106z" />
    <glyph glyph-name="hyphen" unicode="-" horiz-adv-x="370" 
d="M310 246h-250v58h250v-58z" />
    <glyph glyph-name="period" unicode="." horiz-adv-x="278" 
d="M181 0h-84v106h84v-106z" />
    <glyph glyph-name="slash" unicode="/" horiz-adv-x="333" 
d="M41 -15h-54l308 744h51z" />
    <glyph glyph-name="zero" unicode="0" 
d="M278 653c-160 0 -181 -186 -181 -307c0 -122 21 -308 181 -308s181 186 181 308c0 121 -21 307 -181 307zM278 706c204 0 244 -197 244 -360c0 -164 -40 -361 -244 -361s-244 197 -244 360c0 164 40 361 244 361z" />
    <glyph glyph-name="one" unicode="1" 
d="M97 520v45c110 4 178 6 197 135h51v-700h-63v520h-185z" />
    <glyph glyph-name="two" unicode="2" 
d="M497 58v-58h-461c5 208 218 259 337 378c38 39 58 76 58 132c0 91 -72 143 -157 143c-115 0 -160 -92 -158 -195h-63c-3 144 72 248 224 248c122 0 217 -67 217 -197c0 -117 -85 -190 -176 -249c-68 -46 -193 -108 -210 -202h389z" />
    <glyph glyph-name="three" unicode="3" 
d="M33 223h63c-4 -111 62 -185 175 -185c92 0 179 55 179 155c0 99 -75 148 -168 148h-53v53h53c65 -1 142 39 142 127c0 92 -69 132 -153 132c-105 0 -161 -73 -159 -177h-63c1 132 85 230 221 230c110 0 217 -54 217 -178c0 -76 -43 -137 -118 -155v-2
c91 -15 144 -81 144 -173c0 -137 -112 -213 -241 -213c-145 0 -249 88 -239 238z" />
    <glyph glyph-name="four" unicode="4" 
d="M30 174v61l324 465h57v-473h105v-53h-105v-174h-58v174h-323zM87 227h266v381h-2z" />
    <glyph glyph-name="five" unicode="5" 
d="M36 200h63c3 -97 76 -162 172 -162c108 0 175 89 175 191c0 103 -75 182 -179 182c-62 0 -122 -30 -156 -83h-54l68 363h350v-58h-306l-45 -232l2 -2c35 41 94 65 148 65c144 0 235 -101 235 -242c0 -137 -109 -237 -243 -237c-130 0 -227 82 -230 215z" />
    <glyph glyph-name="six" unicode="6" 
d="M290 403c-110 0 -174 -82 -174 -185c0 -99 53 -180 175 -180c100 0 168 83 168 180c0 102 -62 185 -169 185zM505 523h-63c-11 77 -65 130 -146 130c-163 0 -193 -186 -193 -313h2c33 69 107 116 186 116c140 0 231 -97 231 -234c0 -136 -99 -237 -237 -237
c-170 0 -245 99 -245 372c0 83 21 349 250 349c123 0 200 -61 215 -183z" />
    <glyph glyph-name="seven" unicode="7" 
d="M51 633v58h450v-58c-87 -91 -267 -307 -283 -633h-68c17 237 94 412 288 633h-387z" />
    <glyph glyph-name="eight" unicode="8" 
d="M278 38c98 0 178 51 178 158c0 101 -84 154 -178 152c-96 2 -178 -49 -178 -152c0 -105 80 -158 178 -158zM490 531c0 -76 -43 -133 -114 -154v-2c90 -18 143 -85 143 -179c0 -141 -110 -211 -241 -211s-241 70 -241 211c2 91 56 163 142 179v2c-73 22 -114 77 -114 154
c0 120 109 175 212 175c104 0 213 -55 213 -175zM278 401c77 -2 149 40 149 130c0 80 -65 122 -149 122c-77 0 -150 -42 -150 -122c0 -94 76 -132 150 -130z" />
    <glyph glyph-name="nine" unicode="9" 
d="M266 288c110 0 174 82 174 185c0 99 -53 180 -175 180c-100 0 -168 -83 -168 -180c0 -102 62 -185 169 -185zM51 168h63c11 -77 65 -130 146 -130c163 0 193 186 193 313h-2c-33 -69 -107 -116 -186 -116c-140 0 -231 97 -231 234c0 136 99 237 237 237
c170 0 245 -99 245 -372c0 -83 -21 -349 -250 -349c-123 0 -200 61 -215 183z" />
    <glyph glyph-name="colon" unicode=":" horiz-adv-x="278" 
d="M181 394h-84v106h84v-106zM181 0h-84v106h84v-106z" />
    <glyph glyph-name="semicolon" unicode=";" horiz-adv-x="278" 
d="M97 106h84v-107c-1 -58 -28 -119 -88 -136v43c33 12 48 61 46 94h-42v106zM181 394h-84v106h84v-106z" />
    <glyph glyph-name="less" unicode="&#x3c;" horiz-adv-x="600" 
d="M554 47v-55l-508 234v54l508 234v-55l-446 -206z" />
    <glyph glyph-name="equal" unicode="=" horiz-adv-x="600" 
d="M552 378v-53h-503v53h503zM552 181v-53h-503v53h503z" />
    <glyph glyph-name="greater" unicode="&#x3e;" horiz-adv-x="600" 
d="M46 47l446 206l-446 206v55l508 -234v-54l-508 -234v55z" />
    <glyph glyph-name="question" unicode="?" horiz-adv-x="537" 
d="M117 494h-63c1 142 82 235 227 235c111 0 203 -69 203 -185c0 -74 -36 -122 -87 -170c-85 -85 -90 -73 -93 -195h-63c-3 123 31 155 115 233c37 35 65 77 65 129c0 80 -65 135 -143 135c-109 0 -163 -79 -161 -182zM231 0v106h84v-106h-84z" />
    <glyph glyph-name="at" unicode="@" horiz-adv-x="800" 
d="M426 510c-102 0 -170 -137 -170 -231c0 -60 35 -97 83 -97c93 0 166 147 166 235c0 47 -40 93 -79 93zM614 544l-96 -288c-14 -43 -20 -83 13 -83c89 0 169 136 169 248c0 165 -130 263 -284 263c-187 0 -316 -147 -316 -331c0 -182 136 -323 318 -323
c98 0 200 50 258 133h51c-60 -110 -184 -178 -309 -178c-215 0 -371 164 -371 375c0 208 163 369 367 369c193 0 339 -127 339 -311c0 -161 -120 -290 -232 -290c-34 0 -63 23 -67 67h-2c-30 -32 -76 -66 -127 -66c-82 0 -132 66 -132 145c0 138 95 289 237 289
c44 0 84 -24 106 -84l25 65h53z" />
    <glyph glyph-name="A" unicode="A" horiz-adv-x="630" 
d="M-7 0l288 714h76l280 -714h-73l-87 222h-325l-86 -222h-73zM316 646l-143 -366h281z" />
    <glyph glyph-name="B" unicode="B" horiz-adv-x="667" 
d="M140 343v-285h234c101 -1 188 33 188 147c0 91 -69 138 -188 138h-234zM72 0v714h302c120 0 229 -42 229 -175c0 -75 -50 -144 -124 -160v-2c92 -12 151 -81 151 -174c0 -68 -24 -203 -256 -203h-302zM140 656v-255h234c109 0 161 54 161 121c0 89 -55 134 -161 134h-234
z" />
    <glyph glyph-name="C" unicode="C" horiz-adv-x="704" 
d="M662 498h-68c-24 110 -115 173 -219 173c-189 0 -269 -158 -269 -314s80 -314 269 -314c132 0 216 102 229 229h68c-19 -175 -130 -287 -297 -287c-225 0 -337 177 -337 372s112 372 337 372c135 0 269 -81 287 -231z" />
    <glyph glyph-name="D" unicode="D" horiz-adv-x="685" 
d="M140 656v-598h145c205 -1 294 86 294 299s-89 300 -294 299h-145zM72 0v714h247c215 -5 328 -123 328 -357s-113 -352 -328 -357h-247z" />
    <glyph glyph-name="E" unicode="E" horiz-adv-x="593" 
d="M72 0v714h493v-58h-425v-258h398v-58h-398v-282h430v-58h-498z" />
    <glyph glyph-name="F" unicode="F" horiz-adv-x="537" 
d="M72 0v714h453v-58h-385v-258h342v-58h-342v-340h-68z" />
    <glyph glyph-name="G" unicode="G" horiz-adv-x="741" 
d="M682 363v-363h-49l-9 130h-2c-48 -102 -144 -145 -247 -145c-225 0 -337 177 -337 372s112 372 337 372c150 0 272 -81 298 -237h-68c-9 82 -94 179 -230 179c-189 0 -269 -158 -269 -314s80 -314 269 -314c158 0 250 111 247 262h-243v58h303z" />
    <glyph glyph-name="H" unicode="H" horiz-adv-x="704" 
d="M72 0v714h68v-310h424v310h68v-714h-68v346h-424v-346h-68z" />
    <glyph glyph-name="I" unicode="I" horiz-adv-x="222" 
d="M77 0v714h68v-714h-68z" />
    <glyph glyph-name="J" unicode="J" horiz-adv-x="500" 
d="M360 228v486h68v-515c0 -145 -54 -214 -208 -214c-164 0 -200 120 -199 244h68c2 -61 -4 -186 137 -186c106 0 134 54 134 185z" />
    <glyph glyph-name="K" unicode="K" horiz-adv-x="648" 
d="M72 0v714h68v-384l415 384h92l-319 -295l334 -419h-88l-297 372l-137 -127v-245h-68z" />
    <glyph glyph-name="L" unicode="L" horiz-adv-x="537" 
d="M72 0v714h68v-656h400v-58h-468z" />
    <glyph glyph-name="M" unicode="M" horiz-adv-x="833" 
d="M70 0v714h100l247 -626l246 626h100v-714h-68v617h-2l-244 -617h-64l-245 617h-2v-617h-68z" />
    <glyph glyph-name="N" unicode="N" horiz-adv-x="704" 
d="M71 0v714h76l416 -604h2v604h68v-714h-76l-416 604h-2v-604h-68z" />
    <glyph glyph-name="O" unicode="O" horiz-adv-x="741" 
d="M34 357c0 195 112 372 337 372c224 0 336 -177 336 -372s-112 -372 -336 -372c-225 0 -337 177 -337 372zM102 357c0 -156 80 -314 269 -314c188 0 268 158 268 314s-80 314 -268 314c-189 0 -269 -158 -269 -314z" />
    <glyph glyph-name="P" unicode="P" horiz-adv-x="630" 
d="M72 0v714h317c128 0 212 -75 212 -204s-84 -204 -212 -204h-249v-306h-68zM140 656v-292h234c94 0 159 48 159 146s-65 146 -159 146h-234z" />
    <glyph glyph-name="Q" unicode="Q" horiz-adv-x="741" 
d="M444 192l104 -79c63 60 91 152 91 244c0 156 -80 314 -268 314c-189 0 -269 -158 -269 -314s80 -314 269 -314c52 0 96 12 132 35l-94 71zM701 -4l-34 -42l-111 84c-49 -34 -111 -53 -185 -53c-225 0 -337 177 -337 372s112 372 337 372c224 0 336 -177 336 -372
c0 -110 -36 -214 -108 -283z" />
    <glyph glyph-name="R" unicode="R" horiz-adv-x="667" 
d="M72 0v714h327c118 0 217 -57 217 -186c0 -90 -47 -164 -139 -182v-2c93 -12 120 -76 125 -161c3 -49 3 -147 33 -183h-75c-17 28 -17 81 -19 111c-6 100 -14 211 -143 206h-258v-317h-68zM140 656v-281h254c83 0 154 52 154 139s-52 142 -154 142h-254z" />
    <glyph glyph-name="S" unicode="S" horiz-adv-x="630" 
d="M36 235h68c-3 -147 103 -192 233 -192c75 0 189 41 189 145c0 81 -81 113 -147 129l-159 39c-84 21 -161 61 -161 172c0 70 45 201 246 201c141 0 265 -76 264 -222h-68c-4 109 -94 164 -195 164c-93 0 -179 -36 -179 -142c0 -67 50 -95 108 -109l174 -43
c101 -27 185 -71 185 -188c0 -49 -20 -204 -273 -204c-169 0 -293 76 -285 250z" />
    <glyph glyph-name="T" unicode="T" 
d="M-5 656v58h566v-58h-249v-656h-68v656h-249z" />
    <glyph glyph-name="U" unicode="U" horiz-adv-x="685" 
d="M65 257v457h68v-442c-1 -166 78 -229 209 -229c132 0 211 63 210 229v442h68v-457c0 -147 -79 -272 -278 -272c-198 0 -277 125 -277 272z" />
    <glyph glyph-name="V" unicode="V" horiz-adv-x="593" 
d="M258 0l-265 714h73l232 -639h2l230 639h72l-265 -714h-79z" />
    <glyph glyph-name="W" unicode="W" horiz-adv-x="907" 
d="M198 0l-198 714h73l162 -625h2l174 625h85l175 -625h2l163 625h68l-197 -714h-72l-181 639h-2l-180 -639h-74z" />
    <glyph glyph-name="X" unicode="X" horiz-adv-x="574" 
d="M245 368l-242 346h80l202 -299l209 299h76l-244 -348l258 -366h-82l-217 315l-220 -315h-77z" />
    <glyph glyph-name="Y" unicode="Y" horiz-adv-x="611" 
d="M271 0v294l-281 420h81l235 -362l234 362h81l-282 -420v-294h-68z" />
    <glyph glyph-name="Z" unicode="Z" horiz-adv-x="574" 
d="M37 656v58h514v-60l-470 -596h480v-58h-556v60l470 596h-438z" />
    <glyph glyph-name="bracketleft" unicode="[" horiz-adv-x="241" 
d="M237 -191h-161v920h161v-53h-98v-814h98v-53z" />
    <glyph glyph-name="backslash" unicode="\" horiz-adv-x="333" 
d="M346 -15h-54l-305 744h51z" />
    <glyph glyph-name="bracketright" unicode="]" horiz-adv-x="241" 
d="M4 729h161v-920h-161v53h98v814h-98v53z" />
    <glyph glyph-name="asciicircum" unicode="^" horiz-adv-x="600" 
d="M102 238h-58l230 453h52l230 -453h-57l-200 390z" />
    <glyph glyph-name="underscore" unicode="_" horiz-adv-x="500" 
d="M500 -125h-500v50h500v-50z" />
    <glyph glyph-name="quoteleft" unicode="&#x2018;" horiz-adv-x="278" 
d="M179 471h-84v107c1 58 28 119 89 136v-43c-34 -12 -49 -61 -47 -94h42v-106z" />
    <glyph glyph-name="a" unicode="a" horiz-adv-x="519" 
d="M390 200v82h-2c-8 -15 -36 -20 -53 -23c-107 -19 -240 -18 -240 -119c0 -63 56 -102 115 -102c96 0 181 61 180 162zM117 358h-63c6 121 91 173 209 173c91 0 190 -28 190 -166v-274c0 -24 12 -38 37 -38c7 0 15 2 20 4v-53c-14 -3 -24 -4 -41 -4c-64 0 -74 36 -74 90h-2
c-44 -67 -89 -105 -188 -105c-95 0 -173 47 -173 151c0 145 141 150 277 166c52 6 81 13 81 70c0 85 -61 106 -135 106c-78 0 -136 -36 -138 -120z" />
    <glyph glyph-name="b" unicode="b" horiz-adv-x="574" 
d="M473 258c0 107 -49 220 -169 220c-134 0 -181 -113 -181 -220s47 -220 181 -220c120 0 169 113 169 220zM60 0v714h63v-296h2c27 74 102 113 179 113c157 0 232 -127 232 -273s-75 -273 -232 -273c-83 0 -155 43 -184 113h-2v-98h-58z" />
    <glyph glyph-name="c" unicode="c" horiz-adv-x="519" 
d="M487 354h-63c-17 77 -64 124 -146 124c-121 0 -181 -110 -181 -220s60 -220 181 -220c78 0 142 61 150 147h63c-17 -124 -98 -200 -213 -200c-158 0 -244 125 -244 273s86 273 244 273c110 0 195 -59 209 -177z" />
    <glyph glyph-name="d" unicode="d" horiz-adv-x="574" 
d="M101 258c0 -107 49 -220 169 -220c134 0 181 113 181 220s-47 220 -181 220c-120 0 -169 -113 -169 -220zM514 714v-714h-58v98h-2c-27 -67 -109 -113 -184 -113c-157 0 -232 127 -232 273s75 273 232 273c77 0 152 -39 179 -113h2v296h63z" />
    <glyph glyph-name="e" unicode="e" horiz-adv-x="519" 
d="M494 241h-397c1 -92 49 -203 170 -203c92 0 142 54 162 132h63c-27 -117 -95 -185 -225 -185c-164 0 -233 126 -233 273c0 136 69 273 233 273c166 0 232 -145 227 -290zM97 294h334c-3 95 -62 184 -164 184c-103 0 -160 -90 -170 -184z" />
    <glyph glyph-name="f" unicode="f" horiz-adv-x="259" 
d="M259 516v-53h-102v-463h-63v463h-88v53h88v47c-1 89 24 151 125 151c18 0 33 -1 53 -4v-54c-17 3 -31 5 -46 5c-70 0 -68 -44 -69 -100v-45h102z" />
    <glyph glyph-name="g" unicode="g" 
d="M267 59c109 0 166 100 166 205c0 101 -47 214 -166 214c-120 0 -170 -107 -170 -214c0 -104 54 -205 170 -205zM496 516v-474c-1 -154 -60 -248 -229 -248c-103 0 -205 46 -214 156h63c14 -76 81 -103 151 -103c116 0 166 69 166 195v70h-2c-29 -63 -90 -106 -164 -106
c-165 0 -233 118 -233 265c0 142 84 260 233 260c75 0 139 -47 164 -104h2v89h63z" />
    <glyph glyph-name="h" unicode="h" horiz-adv-x="537" 
d="M59 0v714h63v-287h2c23 62 92 104 165 104c145 0 189 -76 189 -199v-332h-63v322c0 89 -29 156 -131 156c-100 0 -160 -76 -162 -177v-301h-63z" />
    <glyph glyph-name="i" unicode="i" horiz-adv-x="185" 
d="M61 0v516h63v-516h-63zM61 613v101h63v-101h-63z" />
    <glyph glyph-name="j" unicode="j" horiz-adv-x="185" 
d="M61 -63v579h63v-564c0 -77 -21 -143 -110 -143c-15 0 -29 2 -44 2v52c10 -1 24 -2 34 -1c49 0 57 32 57 75zM61 613v101h63v-101h-63z" />
    <glyph glyph-name="k" unicode="k" horiz-adv-x="500" 
d="M60 0v714h63v-448l286 250h84l-220 -191l235 -325h-79l-204 281l-102 -85v-196h-63z" />
    <glyph glyph-name="l" unicode="l" horiz-adv-x="185" 
d="M61 0v714h63v-714h-63z" />
    <glyph glyph-name="m" unicode="m" horiz-adv-x="833" 
d="M60 0v516h58v-87h3c33 62 87 102 169 102c68 0 129 -33 148 -101c31 68 96 101 164 101c113 0 171 -59 171 -181v-350h-63v347c0 85 -32 131 -122 131c-109 0 -140 -90 -140 -186v-292h-63v350c1 70 -28 128 -108 128c-109 0 -153 -82 -154 -190v-288h-63z" />
    <glyph glyph-name="n" unicode="n" horiz-adv-x="537" 
d="M59 0v516h63v-89h2c23 62 92 104 165 104c145 0 189 -76 189 -199v-332h-63v322c0 89 -29 156 -131 156c-100 0 -160 -76 -162 -177v-301h-63z" />
    <glyph glyph-name="o" unicode="o" 
d="M278 531c158 0 244 -125 244 -273s-86 -273 -244 -273s-244 125 -244 273s86 273 244 273zM278 478c-121 0 -181 -110 -181 -220s60 -220 181 -220s181 110 181 220s-60 220 -181 220z" />
    <glyph glyph-name="p" unicode="p" horiz-adv-x="574" 
d="M473 258c0 107 -49 220 -169 220c-139 0 -181 -103 -181 -220c0 -107 47 -220 181 -220c120 0 169 113 169 220zM60 -191v707h58v-98h2c29 70 101 113 184 113c157 0 232 -127 232 -273s-75 -273 -232 -273c-77 0 -152 39 -179 113h-2v-289h-63z" />
    <glyph glyph-name="q" unicode="q" horiz-adv-x="574" 
d="M101 258c0 -107 49 -220 169 -220c134 0 181 113 181 220s-47 220 -181 220c-120 0 -169 -113 -169 -220zM514 516v-707h-63v289h-2c-27 -74 -102 -113 -179 -113c-157 0 -232 127 -232 273s75 273 232 273c75 0 157 -46 184 -113h2v98h58z" />
    <glyph glyph-name="r" unicode="r" horiz-adv-x="315" 
d="M60 0v516h58v-121h2c32 83 102 132 195 128v-63c-114 6 -192 -78 -192 -185v-275h-63z" />
    <glyph glyph-name="s" unicode="s" horiz-adv-x="481" 
d="M432 365h-63c-3 78 -63 113 -135 113c-56 0 -122 -22 -122 -89c0 -56 64 -76 107 -87l84 -19c72 -11 147 -53 147 -143c0 -112 -111 -155 -207 -155c-120 0 -202 56 -212 182h63c5 -85 68 -129 152 -129c59 0 141 26 141 98c0 60 -56 80 -113 94l-81 18
c-82 22 -144 50 -144 138c0 105 103 145 194 145c103 0 185 -54 189 -166z" />
    <glyph glyph-name="t" unicode="t" horiz-adv-x="296" 
d="M160 671v-155h105v-53h-105v-348c0 -41 6 -65 51 -68c18 0 36 1 54 3v-54c-19 0 -37 -2 -56 -2c-84 0 -113 28 -112 116v353h-90v53h90v155h63z" />
    <glyph glyph-name="u" unicode="u" horiz-adv-x="537" 
d="M478 516v-516h-58v93h-2c-33 -69 -101 -108 -178 -108c-130 0 -181 76 -181 196v335h63v-336c3 -93 38 -142 138 -142c108 0 155 102 155 207v271h63z" />
    <glyph glyph-name="v" unicode="v" horiz-adv-x="463" 
d="M201 0l-199 516h70l162 -453h2l160 453h65l-193 -516h-67z" />
    <glyph glyph-name="w" unicode="w" horiz-adv-x="741" 
d="M174 0l-166 516h67l132 -442h2l126 442h71l126 -442h2l132 442h67l-166 -516h-69l-127 434h-2l-126 -434h-69z" />
    <glyph glyph-name="x" unicode="x" horiz-adv-x="481" 
d="M1 0l200 268l-185 248h79l147 -196l144 196h79l-186 -247l201 -269h-80l-162 217l-159 -217h-78z" />
    <glyph glyph-name="y" unicode="y" horiz-adv-x="463" 
d="M208 2l-206 514h67l170 -440l159 440h63l-224 -595c-36 -87 -57 -112 -136 -112c-25 1 -38 1 -48 5v53c15 -3 29 -5 43 -5c56 0 69 33 90 81z" />
    <glyph glyph-name="z" unicode="z" horiz-adv-x="463" 
d="M432 471l-341 -418h355v-53h-431v51l337 412h-314v53h394v-45z" />
    <glyph glyph-name="braceleft" unicode="{" horiz-adv-x="333" 
d="M293 -191h-50c-56 0 -88 49 -88 125v148c0 81 -14 160 -72 160v53c58 0 72 79 72 160v149c0 76 32 125 88 125h50v-53h-20c-41 0 -55 -49 -55 -103v-141c1 -109 -57 -155 -70 -162v-2c13 -7 71 -53 70 -162v-141c0 -54 14 -103 55 -103h20v-53z" />
    <glyph glyph-name="bar" unicode="|" horiz-adv-x="222" 
d="M85 -214v1000h53v-1000h-53z" />
    <glyph glyph-name="braceright" unicode="}" horiz-adv-x="333" 
d="M40 729h50c56 0 88 -49 88 -125v-148c0 -81 14 -160 72 -160v-53c-58 0 -72 -79 -72 -160v-149c0 -76 -32 -125 -88 -125h-50v53h20c41 0 55 49 55 103v141c-1 109 57 155 70 162v2c-13 7 -71 53 -70 162v141c0 54 -14 103 -55 103h-20v53z" />
    <glyph glyph-name="asciitilde" unicode="~" horiz-adv-x="600" 
d="M495 315l36 -36c-30 -42 -63 -86 -125 -86c-40 0 -75 16 -110 33c-35 16 -69 32 -107 32c-44 0 -68 -34 -84 -69l-36 36c22 42 58 86 125 86c37 0 78 -16 115 -32c38 -17 73 -33 98 -33c40 0 65 34 88 69z" />
    <glyph glyph-name="exclamdown" unicode="&#xa1;" horiz-adv-x="241" 
d="M140 338l15 -323v-206h-68v206l15 323h38zM79 516h84v-106h-84v106z" />
    <glyph glyph-name="cent" unicode="&#xa2;" 
d="M270 39v437c-103 -15 -153 -117 -153 -218s50 -203 153 -219zM507 354h-63c-16 74 -60 121 -135 124v-440c73 4 131 65 139 147h63c-16 -120 -93 -196 -202 -200v-101h-39v102c-140 14 -216 133 -216 272s76 258 216 271v89h39v-87c104 -3 184 -63 198 -177z" />
    <glyph glyph-name="sterling" unicode="&#xa3;" 
d="M46 330v32h63c-30 49 -55 102 -55 161c0 143 113 206 228 206c147 0 235 -90 232 -237h-63c0 107 -57 184 -169 184c-85 0 -165 -50 -165 -157c0 -68 34 -99 59 -157h160v-32h-142c15 -24 24 -69 24 -97c0 -75 -55 -138 -110 -182l2 -2c29 15 62 30 97 30
c44 0 75 -10 102 -20c28 -11 53 -21 86 -21c42 0 87 25 115 56l32 -48c-44 -39 -87 -61 -146 -61c-43 0 -75 9 -106 19c-30 11 -60 22 -101 22c-50 0 -71 -18 -110 -41l-36 54c60 47 112 106 112 186c0 31 -12 78 -28 105h-81z" />
    <glyph glyph-name="fraction" unicode="&#x2044;" horiz-adv-x="167" 
d="M-166 -34l453 759h47l-452 -759h-48z" />
    <glyph glyph-name="yen" unicode="&#xa5;" 
d="M110 304v45h106l-210 365h72l199 -365l201 365h69l-211 -365h109v-45h-131l-6 -10v-73h137v-45h-137v-176h-63v176h-135v45h135v73l-6 10h-129z" />
    <glyph glyph-name="florin" unicode="&#x192;" 
d="M7 -168l9 54c17 -4 35 -6 52 -6c59 2 82 64 92 112l75 394h-100l9 53h101l13 69c23 105 39 206 170 206c21 0 41 -2 62 -5l-12 -52c-15 2 -31 4 -46 4c-86 -2 -94 -87 -110 -155l-14 -67h113l-9 -53h-113l-61 -323c-23 -120 -33 -239 -186 -236c-15 0 -30 2 -45 5z" />
    <glyph glyph-name="section" unicode="&#xa7;" 
d="M448 230c0 106 -173 158 -258 217c-48 -20 -82 -53 -82 -108c0 -101 171 -158 256 -217c48 20 84 53 84 108zM511 231c0 -66 -50 -117 -109 -140c33 -29 50 -66 50 -109c0 -92 -86 -143 -169 -143c-112 0 -185 63 -185 177h63c-3 -68 46 -124 116 -124
c56 0 112 26 112 89c0 151 -344 159 -344 356c0 66 50 117 109 140c-33 29 -50 66 -50 109c0 92 86 143 169 143c112 0 185 -63 185 -177h-63c3 68 -46 124 -116 124c-56 0 -112 -26 -112 -89c0 -151 344 -159 344 -356z" />
    <glyph glyph-name="currency" unicode="&#xa4;" 
d="M29 136l57 57c-35 42 -55 95 -55 153s20 111 54 154l-56 56l38 38l56 -56c41 34 96 56 156 56c58 0 111 -20 153 -55l55 55l38 -38l-54 -54c35 -42 56 -97 56 -156s-21 -114 -56 -156l54 -54l-38 -38l-55 55c-41 -35 -94 -55 -153 -55s-114 21 -156 56l-56 -56zM94 346
c0 -107 83 -190 185 -190s185 83 185 190s-83 190 -185 190s-185 -83 -185 -190z" />
    <glyph glyph-name="quotesingle" unicode="'" horiz-adv-x="278" 
d="M108 471v243h63v-243h-63z" />
    <glyph glyph-name="quotedblleft" unicode="&#x201c;" horiz-adv-x="370" 
d="M302 471h-84v107c1 58 28 119 89 136v-43c-34 -12 -49 -61 -47 -94h42v-106zM148 471h-84v107c1 58 28 119 89 136v-43c-34 -12 -49 -61 -47 -94h42v-106z" />
    <glyph glyph-name="guillemotleft" unicode="&#xab;" horiz-adv-x="426" 
d="M354 119l-133 125v62l133 125v-67l-94 -89l94 -89v-67zM193 119l-133 125v62l133 125v-67l-94 -89l94 -89v-67z" />
    <glyph glyph-name="guilsinglleft" unicode="&#x2039;" horiz-adv-x="259" 
d="M186 119l-133 125v62l133 125v-67l-94 -89l94 -89v-67z" />
    <glyph glyph-name="guilsinglright" unicode="&#x203a;" horiz-adv-x="259" 
d="M73 119v67l94 89l-94 89v67l133 -125v-62z" />
    <glyph glyph-name="endash" unicode="&#x2013;" horiz-adv-x="500" 
d="M500 246h-500v58h500v-58z" />
    <glyph glyph-name="dagger" unicode="&#x2020;" 
d="M246 440h-198v53h198v221h63v-221h199v-53h-199v-591h-63v591z" />
    <glyph glyph-name="daggerdbl" unicode="&#x2021;" 
d="M246 47h-198v53h198v363h-198v53h198v198h63v-198h199v-53h-199v-363h199v-53h-199v-198h-63v198z" />
    <glyph glyph-name="periodcentered" unicode="&#xb7;" horiz-adv-x="278" 
d="M139 375c32 0 59 -28 59 -60c0 -31 -28 -58 -59 -58c-32 0 -59 28 -59 60c0 30 29 58 59 58z" />
    <glyph glyph-name="paragraph" unicode="&#xb6;" horiz-adv-x="600" 
d="M273 -177v505c-117 0 -207 87 -207 190c0 126 83 196 223 196h230v-891h-63v838h-120v-838h-63z" />
    <glyph glyph-name="bullet" unicode="&#x2022;" horiz-adv-x="500" 
d="M72 357c0 99 79 178 178 178s179 -79 179 -178s-80 -179 -179 -179s-178 80 -178 179z" />
    <glyph glyph-name="quotesinglbase" unicode="&#x201a;" horiz-adv-x="278" 
d="M99 106h84v-107c-1 -58 -28 -119 -89 -136v43c34 12 49 61 47 94h-42v106z" />
    <glyph glyph-name="quotedblbase" unicode="&#x201e;" horiz-adv-x="370" 
d="M222 106h84v-107c-1 -58 -28 -119 -89 -136v43c34 12 49 61 47 94h-42v106zM68 106h84v-107c-1 -58 -28 -119 -89 -136v43c34 12 49 61 47 94h-42v106z" />
    <glyph glyph-name="quotedblright" unicode="&#x201d;" horiz-adv-x="370" 
d="M222 714h84v-107c-1 -58 -28 -119 -89 -136v43c34 12 49 61 47 94h-42v106zM68 714h84v-107c-1 -58 -28 -119 -89 -136v43c34 12 49 61 47 94h-42v106z" />
    <glyph glyph-name="guillemotright" unicode="&#xbb;" horiz-adv-x="426" 
d="M233 119v67l94 89l-94 89v67l133 -125v-62zM72 119v67l94 89l-94 89v67l133 -125v-62z" />
    <glyph glyph-name="ellipsis" unicode="&#x2026;" horiz-adv-x="1000" 
d="M209 0h-84v106h84v-106zM542 0h-84v106h84v-106zM875 0h-84v106h84v-106z" />
    <glyph glyph-name="perthousand" unicode="&#x2030;" horiz-adv-x="1111" 
d="M547 323c107 0 149 -72 149 -169s-42 -169 -149 -169s-149 72 -149 169s42 169 149 169zM547 278c-80 0 -96 -65 -96 -124s16 -124 96 -124s96 65 96 124s-16 124 -96 124zM901 323c107 0 149 -72 149 -169s-42 -169 -149 -169s-149 72 -149 169s42 169 149 169zM901 278
c-80 0 -96 -65 -96 -124s16 -124 96 -124s96 65 96 124s-16 124 -96 124zM214 706c107 0 149 -72 149 -169s-42 -169 -149 -169s-149 72 -149 169s42 169 149 169zM214 661c-80 0 -96 -65 -96 -124s16 -124 96 -124s96 65 96 124s-16 124 -96 124zM129 -34l453 759h47
l-452 -759h-48z" />
    <glyph glyph-name="questiondown" unicode="&#xbf;" horiz-adv-x="537" 
d="M421 29h63c-1 -142 -82 -235 -227 -235c-111 0 -203 69 -203 185c0 74 36 122 87 170c85 85 90 73 93 195h63c3 -123 -31 -155 -115 -233c-37 -35 -65 -77 -65 -129c0 -80 65 -135 143 -135c109 0 163 79 161 182zM307 516v-106h-84v106h84z" />
    <glyph glyph-name="grave" unicode="`" horiz-adv-x="185" 
d="M101 588l-132 141h78l105 -141h-51z" />
    <glyph glyph-name="acute" unicode="&#xb4;" horiz-adv-x="185" 
d="M216 729l-132 -141h-51l105 141h78z" />
    <glyph glyph-name="circumflex" unicode="&#x2c6;" horiz-adv-x="185" 
d="M127 729l114 -141h-65l-86 102l-88 -102h-58l114 141h69z" />
    <glyph glyph-name="tilde" unicode="&#x2dc;" horiz-adv-x="185" 
d="M211 708h38c-7 -46 -35 -95 -87 -95c-27 0 -52 11 -75 22s-43 24 -60 24c-30 0 -53 -18 -53 -51h-39c6 47 36 96 89 96c29 0 53 -11 75 -22s42 -22 60 -22c31 0 44 22 52 48z" />
    <glyph glyph-name="macron" unicode="&#xaf;" horiz-adv-x="185" 
d="M257 634h-329v45h329v-45z" />
    <glyph glyph-name="breve" unicode="&#x2d8;" horiz-adv-x="185" 
d="M-51 722h39c3 -54 53 -82 103 -82s99 29 106 82h39c-10 -78 -66 -127 -145 -127c-81 0 -136 46 -142 127z" />
    <glyph glyph-name="dotaccent" unicode="&#x2d9;" horiz-adv-x="185" 
d="M127 605h-68v101h68v-101z" />
    <glyph glyph-name="dieresis" unicode="&#xa8;" horiz-adv-x="185" 
d="M215 605h-68v101h68v-101zM38 605h-68v101h68v-101z" />
    <glyph glyph-name="ring" unicode="&#x2da;" horiz-adv-x="185" 
d="M-14 677c0 59 48 107 107 107s107 -48 107 -107s-48 -107 -107 -107s-107 48 -107 107zM25 677c0 -38 30 -68 68 -68s68 30 68 68s-30 68 -68 68s-68 -30 -68 -68z" />
    <glyph glyph-name="cedilla" unicode="&#xb8;" horiz-adv-x="185" 
d="M91 0h35l-44 -58c47 9 116 0 116 -62c0 -61 -59 -86 -110 -86c-32 0 -65 7 -94 21l14 32c17 -7 50 -14 79 -14c28 0 53 13 53 43c0 24 -20 38 -43 38s-39 -2 -51 -8l-16 15z" />
    <glyph glyph-name="hungarumlaut" unicode="&#x2dd;" horiz-adv-x="185" 
d="M18 588h-51l101 141h76zM174 588h-51l101 141h76z" />
    <glyph glyph-name="ogonek" unicode="&#x2db;" horiz-adv-x="185" 
d="M151 2h38c-73 -58 -89 -93 -89 -127c0 -32 21 -47 44 -47c25 0 45 23 55 41l29 -13c-29 -49 -60 -67 -95 -67c-71 0 -96 34 -96 82c0 18 12 70 114 131z" />
    <glyph glyph-name="caron" unicode="&#x2c7;" horiz-adv-x="185" 
d="M58 588l-114 141h65l86 -102l88 102h58l-114 -141h-69z" />
    <glyph glyph-name="emdash" unicode="&#x2014;" horiz-adv-x="1000" 
d="M870 246h-740v58h740v-58z" />
    <glyph glyph-name="AE" unicode="&#xc6;" horiz-adv-x="907" 
d="M513 340v-282h371v-58h-439v226h-259l-116 -226h-77l374 714h513v-58h-367v-258h344v-58h-344zM216 284h229v372h-40z" />
    <glyph glyph-name="ordfeminine" unicode="&#xaa;" horiz-adv-x="311" 
d="M228 502v47h-2c-4 -9 -23 -12 -34 -14c-81 -13 -150 -13 -150 -69c0 -36 38 -59 69 -59c62 0 118 36 117 95zM54 597h-47c4 77 59 109 140 109c65 0 129 -17 128 -100v-172c1 -15 10 -23 25 -23c4 0 9 1 13 3v-34c-7 -1 -16 -3 -27 -3c-41 0 -48 20 -48 56h-2
c-27 -43 -68 -65 -123 -65c-67 0 -118 28 -118 96c0 93 92 96 180 105c34 4 53 8 53 31c0 54 -40 67 -88 67c-46 0 -85 -22 -86 -70z" />
    <glyph glyph-name="Lslash" unicode="&#x141;" horiz-adv-x="537" 
d="M72 306v408h68v-361l243 168v-56l-243 -167v-240h400v-58h-468v251l-82 -57v56z" />
    <glyph glyph-name="Oslash" unicode="&#xd8;" horiz-adv-x="741" 
d="M580 565l-397 -443c44 -49 106 -79 188 -79c188 0 268 158 268 314c0 75 -18 151 -59 208zM160 150l398 443c-43 47 -105 78 -187 78c-189 0 -269 -158 -269 -314c0 -75 18 -150 58 -207zM672 719l26 -23l-73 -81c55 -68 82 -161 82 -258c0 -195 -112 -372 -336 -372
c-99 0 -176 34 -231 89l-76 -86l-27 25l79 88c-55 69 -82 160 -82 256c0 195 112 372 337 372c98 0 175 -34 230 -88z" />
    <glyph glyph-name="OE" unicode="&#x152;" horiz-adv-x="1074" 
d="M569 177v332c0 32 -1 50 -5 66c-23 62 -121 96 -189 96c-174 0 -270 -145 -270 -314s96 -314 270 -314c73 0 129 20 176 79c13 16 17 35 18 55zM637 656v-258h368v-58h-368v-282h409v-58h-477v70c-47 -56 -125 -85 -194 -85c-213 0 -338 173 -338 372s125 372 338 372
c75 0 148 -22 194 -74v59h474v-58h-406z" />
    <glyph glyph-name="ordmasculine" unicode="&#xba;" horiz-adv-x="334" 
d="M162 368c-103 0 -159 75 -159 169s56 169 159 169c113 0 169 -75 169 -169s-56 -169 -169 -169zM167 407c77 0 117 66 117 130s-40 130 -117 130s-117 -66 -117 -130s40 -130 117 -130z" />
    <glyph glyph-name="ae" unicode="&#xe6;" horiz-adv-x="870" 
d="M453 294h325c0 95 -63 184 -163 184c-105 0 -164 -87 -162 -184zM390 200v82h-2c-8 -15 -36 -20 -53 -23c-107 -19 -240 -18 -240 -119c0 -63 56 -102 115 -102c96 0 181 61 180 162zM841 241h-388c-7 -110 47 -203 168 -203c85 0 135 48 153 129h63
c-26 -115 -106 -182 -225 -182c-91 0 -158 44 -189 130h-2c-15 -86 -126 -130 -216 -130c-95 0 -173 47 -173 151c0 145 141 150 277 166c52 6 81 13 81 70c0 85 -61 106 -135 106c-78 0 -136 -36 -138 -120h-63c6 121 91 173 209 173c70 0 160 -19 172 -107h2
c28 72 106 107 181 107c170 0 223 -140 223 -290z" />
    <glyph glyph-name="dotlessi" unicode="&#x131;" horiz-adv-x="185" 
d="M124 0h-63v516h63v-516z" />
    <glyph glyph-name="lslash" unicode="&#x142;" horiz-adv-x="185" 
d="M61 395v319h63v-267l67 55v-55l-67 -55v-392h-63v340l-67 -55v55z" />
    <glyph glyph-name="oslash" unicode="&#xf8;" 
d="M133 123l273 295c-29 36 -72 60 -128 60c-121 0 -181 -110 -181 -220c0 -48 11 -95 36 -135zM424 392l-273 -295c28 -35 71 -59 127 -59c121 0 181 110 181 220c0 48 -11 95 -35 134zM500 519l22 -20l-54 -59c36 -50 54 -114 54 -182c0 -148 -86 -273 -244 -273
c-71 0 -128 25 -168 68l-59 -64l-22 20l61 67c-37 48 -56 113 -56 182c0 148 86 273 244 273c72 0 130 -26 170 -68z" />
    <glyph glyph-name="oe" unicode="&#x153;" horiz-adv-x="889" 
d="M265 478c-131 0 -166 -124 -166 -232c0 -103 46 -208 165 -208c128 0 152 119 152 224c0 104 -27 216 -151 216zM799 166h63c-28 -115 -110 -181 -228 -181c-84 0 -163 46 -184 131h-2c-25 -88 -96 -131 -185 -131c-162 0 -227 128 -227 273c0 143 73 273 230 273
c88 0 157 -41 184 -127h2c28 75 99 127 190 127c152 0 221 -101 221 -290h-384c0 -101 49 -203 161 -203c87 0 136 48 159 128zM479 294h321c0 97 -56 184 -160 184c-106 0 -161 -86 -161 -184z" />
    <glyph glyph-name="germandbls" unicode="&#xdf;" horiz-adv-x="537" 
d="M61 0v535c0 132 80 194 199 194c107 0 196 -62 196 -176c0 -72 -41 -135 -113 -150v-2c97 -8 149 -94 149 -185c0 -148 -95 -220 -222 -224c-16 0 -33 0 -50 2v55c16 -3 31 -4 47 -4c82 -1 162 45 162 160c0 139 -86 163 -209 163v53c88 0 173 27 173 130
c0 74 -61 125 -132 125c-99 0 -137 -52 -137 -146v-530h-63z" />
    <glyph glyph-name="onesuperior" unicode="&#xb9;" horiz-adv-x="333" 
d="M35 584v39c71 2 115 5 128 74h40v-423h-47v310h-121z" />
    <glyph glyph-name="logicalnot" unicode="&#xac;" horiz-adv-x="600" 
d="M499 111v214h-450v53h503v-267h-53z" />
    <glyph glyph-name="mu" unicode="&#xb5;" horiz-adv-x="537" 
d="M478 516v-516h-58v93h-2c-33 -69 -101 -108 -178 -108c-43 0 -85 11 -117 35v-211h-64v707h63v-336c3 -93 38 -142 138 -142c108 0 155 102 155 207v271h63z" />
    <glyph glyph-name="trademark" unicode="&#x2122;" horiz-adv-x="990" 
d="M269 302h-53v367h-134v45h321v-45h-134v-367zM529 302h-53v412h85l133 -334l129 334h85v-412h-53v364h-2l-146 -364h-30l-146 364h-2v-364z" />
    <glyph glyph-name="Eth" unicode="&#xd0;" horiz-adv-x="685" 
d="M140 656v-263h236v-45h-236v-290h145c205 -1 294 86 294 299s-89 300 -294 299h-145zM72 393v321h247c215 -5 328 -123 328 -357s-113 -352 -328 -357h-247v348h-72v45h72z" />
    <glyph glyph-name="onehalf" unicode="&#xbd;" horiz-adv-x="834" 
d="M133 -34l453 759h47l-452 -759h-48zM48 584v39c71 2 115 5 128 74h40v-423h-47v310h-121zM536 279h-47c-2 91 46 153 150 153c84 0 146 -40 146 -125c0 -70 -56 -114 -115 -149c-44 -28 -119 -58 -136 -119h248v-39h-302c3 129 142 160 219 231c25 24 39 46 39 80
c0 51 -48 82 -103 82c-71 0 -100 -55 -99 -114z" />
    <glyph glyph-name="plusminus" unicode="&#xb1;" horiz-adv-x="600" 
d="M274 323v180h53v-180h225v-53h-225v-180h-53v180h-224v53h224zM49 0v53h503v-53h-503z" />
    <glyph glyph-name="Thorn" unicode="&#xde;" horiz-adv-x="630" 
d="M72 0v714h68v-117h249c128 0 212 -75 212 -204s-84 -204 -212 -204h-249v-189h-68zM140 539v-292h234c94 0 159 48 159 146s-65 146 -159 146h-234z" />
    <glyph glyph-name="onequarter" unicode="&#xbc;" horiz-adv-x="834" 
d="M642 0v100h-210v39l213 284h44v-284h68v-39h-68v-100h-47zM640 355l-162 -216h164v216h-2zM133 -34l453 759h47l-452 -759h-48zM48 584v39c71 2 115 5 128 74h40v-423h-47v310h-121z" />
    <glyph glyph-name="divide" unicode="&#xf7;" horiz-adv-x="600" 
d="M552 225h-503v53h503v-53zM244 453c0 31 26 56 56 56s56 -26 56 -56c0 -28 -26 -56 -55 -56c-31 0 -57 26 -57 56zM244 50c0 31 26 56 56 56s56 -26 56 -56c0 -28 -26 -56 -55 -56c-31 0 -57 26 -57 56z" />
    <glyph glyph-name="brokenbar" unicode="&#xa6;" horiz-adv-x="222" 
d="M85 -89v250h53v-250h-53zM85 411v250h53v-250h-53z" />
    <glyph glyph-name="degree" unicode="&#xb0;" horiz-adv-x="400" 
d="M56 562c0 80 64 144 144 144s144 -64 144 -144s-64 -144 -144 -144s-144 64 -144 144zM95 562c0 -58 47 -105 105 -105s105 47 105 105s-47 105 -105 105s-105 -47 -105 -105z" />
    <glyph glyph-name="thorn" unicode="&#xfe;" horiz-adv-x="574" 
d="M473 258c0 107 -49 220 -169 220c-134 0 -181 -113 -181 -220s47 -220 181 -220c120 0 169 113 169 220zM60 -191v905h63v-296h2c27 74 102 113 179 113c157 0 232 -127 232 -273s-75 -273 -232 -273c-77 0 -152 39 -179 113h-2v-289h-63z" />
    <glyph glyph-name="threequarters" unicode="&#xbe;" horiz-adv-x="834" 
d="M642 0v100h-210v39l213 284h44v-284h68v-39h-68v-100h-47zM640 355l-162 -216h164v216h-2zM135 478v39h35c42 0 93 24 93 74c0 52 -46 76 -98 76c-65 0 -101 -44 -100 -103h-47c1 83 54 142 147 142c75 0 145 -33 145 -111c0 -46 -28 -82 -77 -93v-2
c59 -8 94 -48 94 -103c0 -86 -73 -132 -161 -132c-98 0 -165 53 -158 147h47c-3 -64 40 -108 110 -108c57 0 115 33 115 90c0 55 -50 84 -110 84h-35zM173 -34l453 759h47l-452 -759h-48z" />
    <glyph glyph-name="twosuperior" unicode="&#xb2;" horiz-adv-x="333" 
d="M71 553h-47c-2 91 46 153 150 153c84 0 146 -40 146 -125c0 -70 -56 -114 -115 -149c-44 -28 -119 -58 -136 -119h248v-39h-302c3 129 142 160 219 231c25 24 39 46 39 80c0 51 -48 82 -103 82c-71 0 -100 -55 -99 -114z" />
    <glyph glyph-name="registered" unicode="&#xae;" horiz-adv-x="800" 
d="M400 729c210 0 372 -163 372 -372s-162 -372 -372 -372s-372 163 -372 372s162 372 372 372zM400 676c-180 0 -314 -141 -314 -319s134 -319 314 -319s314 141 314 319s-134 319 -314 319zM318 333v-191h-53v430h165c97 0 140 -42 140 -119c0 -76 -50 -110 -108 -120
l128 -191h-62l-121 191h-89zM318 378h70c65 0 129 2 129 75c0 60 -50 74 -102 74h-97v-149z" />
    <glyph glyph-name="minus" unicode="&#x2212;" horiz-adv-x="600" 
d="M552 278v-53h-503v53h503z" />
    <glyph glyph-name="eth" unicode="&#xf0;" 
d="M276 453c-129 0 -179 -95 -179 -205c0 -109 52 -210 177 -210c118 0 179 88 179 212c0 100 -50 203 -177 203zM135 596l100 56c-30 20 -61 39 -93 55l36 35c35 -18 71 -39 104 -64l114 64l33 -32l-109 -61c111 -91 196 -218 196 -391c0 -150 -78 -273 -245 -273
c-161 0 -237 115 -237 264c0 139 85 257 237 257c49 0 104 -9 133 -40h2c-33 62 -79 113 -133 157l-105 -59z" />
    <glyph glyph-name="multiply" unicode="&#xd7;" horiz-adv-x="600" 
d="M262 251l-188 189l37 37l189 -189l189 189l37 -37l-189 -189l189 -189l-37 -37l-189 188l-189 -188l-37 37z" />
    <glyph glyph-name="threesuperior" unicode="&#xb3;" horiz-adv-x="333" 
d="M135 478v39h35c42 0 93 24 93 74c0 52 -46 76 -98 76c-65 0 -101 -44 -100 -103h-47c1 83 54 142 147 142c75 0 145 -33 145 -111c0 -46 -28 -82 -77 -93v-2c59 -8 94 -48 94 -103c0 -86 -73 -132 -161 -132c-98 0 -165 53 -158 147h47c-3 -64 40 -108 110 -108
c57 0 115 33 115 90c0 55 -50 84 -110 84h-35z" />
    <glyph glyph-name="copyright" unicode="&#xa9;" horiz-adv-x="800" 
d="M772 357c0 -209 -162 -372 -372 -372s-372 163 -372 372s162 372 372 372s372 -163 372 -372zM714 357c0 178 -134 319 -314 319s-314 -141 -314 -319s134 -319 314 -319s314 141 314 319zM594 435h-51c-12 59 -60 105 -133 106c-108 0 -165 -80 -165 -184
s57 -184 165 -184c73 0 121 46 133 106h51c-13 -97 -91 -151 -185 -151c-136 0 -217 97 -217 229s81 229 217 229c94 0 172 -54 185 -151z" />
    <glyph glyph-name="Aacute" unicode="&#xc1;" horiz-adv-x="630" 
d="M-7 0l288 714h76l280 -714h-73l-87 222h-325l-86 -222h-73zM316 646l-143 -366h281zM439 912l-132 -141h-51l105 141h78z" />
    <glyph glyph-name="Acircumflex" unicode="&#xc2;" horiz-adv-x="630" 
d="M-7 0l288 714h76l280 -714h-73l-87 222h-325l-86 -222h-73zM316 646l-143 -366h281zM350 912l114 -141h-65l-86 102l-88 -102h-58l114 141h69z" />
    <glyph glyph-name="Adieresis" unicode="&#xc4;" horiz-adv-x="630" 
d="M-7 0l288 714h76l280 -714h-73l-87 222h-325l-86 -222h-73zM316 646l-143 -366h281zM438 788h-68v101h68v-101zM261 788h-68v101h68v-101z" />
    <glyph glyph-name="Agrave" unicode="&#xc0;" horiz-adv-x="630" 
d="M-7 0l288 714h76l280 -714h-73l-87 222h-325l-86 -222h-73zM316 646l-143 -366h281zM324 771l-132 141h78l105 -141h-51z" />
    <glyph glyph-name="Aring" unicode="&#xc5;" horiz-adv-x="630" 
d="M-7 0l288 714h76l280 -714h-73l-87 222h-325l-86 -222h-73zM316 646l-143 -366h281zM209 860c0 59 48 107 107 107s107 -48 107 -107s-48 -107 -107 -107s-107 48 -107 107zM248 860c0 -38 30 -68 68 -68s68 30 68 68s-30 68 -68 68s-68 -30 -68 -68z" />
    <glyph glyph-name="Atilde" unicode="&#xc3;" horiz-adv-x="630" 
d="M-7 0l288 714h76l280 -714h-73l-87 222h-325l-86 -222h-73zM316 646l-143 -366h281zM434 891h38c-7 -46 -35 -95 -87 -95c-27 0 -52 11 -75 22s-43 24 -60 24c-30 0 -53 -18 -53 -51h-39c6 47 36 96 89 96c29 0 53 -11 75 -22s42 -22 60 -22c31 0 44 22 52 48z" />
    <glyph glyph-name="Ccedilla" unicode="&#xc7;" horiz-adv-x="704" 
d="M604 272h68c-19 -175 -130 -287 -297 -287h-1l-33 -43c47 9 116 0 116 -62c0 -61 -59 -86 -110 -86c-32 0 -65 7 -94 21l14 32c17 -7 50 -14 79 -14c28 0 53 13 53 43c0 24 -20 38 -43 38s-39 -2 -51 -8l-16 15l51 66c-202 17 -302 185 -302 370c0 195 112 372 337 372
c135 0 269 -81 287 -231h-68c-24 110 -115 173 -219 173c-189 0 -269 -158 -269 -314s80 -314 269 -314c132 0 216 102 229 229z" />
    <glyph glyph-name="Eacute" unicode="&#xc9;" horiz-adv-x="593" 
d="M72 0v714h493v-58h-425v-258h398v-58h-398v-282h430v-58h-498zM420 912l-132 -141h-51l105 141h78z" />
    <glyph glyph-name="Ecircumflex" unicode="&#xca;" horiz-adv-x="593" 
d="M72 0v714h493v-58h-425v-258h398v-58h-398v-282h430v-58h-498zM331 912l114 -141h-65l-86 102l-88 -102h-58l114 141h69z" />
    <glyph glyph-name="Edieresis" unicode="&#xcb;" horiz-adv-x="593" 
d="M72 0v714h493v-58h-425v-258h398v-58h-398v-282h430v-58h-498zM419 788h-68v101h68v-101zM242 788h-68v101h68v-101z" />
    <glyph glyph-name="Egrave" unicode="&#xc8;" horiz-adv-x="593" 
d="M72 0v714h493v-58h-425v-258h398v-58h-398v-282h430v-58h-498zM305 771l-132 141h78l105 -141h-51z" />
    <glyph glyph-name="Iacute" unicode="&#xcd;" horiz-adv-x="222" 
d="M77 0v714h68v-714h-68zM235 912l-132 -141h-51l105 141h78z" />
    <glyph glyph-name="Icircumflex" unicode="&#xce;" horiz-adv-x="222" 
d="M77 0v714h68v-714h-68zM146 912l114 -141h-65l-86 102l-88 -102h-58l114 141h69z" />
    <glyph glyph-name="Idieresis" unicode="&#xcf;" horiz-adv-x="222" 
d="M77 0v714h68v-714h-68zM234 788h-68v101h68v-101zM57 788h-68v101h68v-101z" />
    <glyph glyph-name="Igrave" unicode="&#xcc;" horiz-adv-x="222" 
d="M77 0v714h68v-714h-68zM120 771l-132 141h78l105 -141h-51z" />
    <glyph glyph-name="Ntilde" unicode="&#xd1;" horiz-adv-x="704" 
d="M71 0v714h76l416 -604h2v604h68v-714h-76l-416 604h-2v-604h-68zM471 891h38c-7 -46 -35 -95 -87 -95c-27 0 -52 11 -75 22s-43 24 -60 24c-30 0 -53 -18 -53 -51h-39c6 47 36 96 89 96c29 0 53 -11 75 -22s42 -22 60 -22c31 0 44 22 52 48z" />
    <glyph glyph-name="Oacute" unicode="&#xd3;" horiz-adv-x="741" 
d="M34 357c0 195 112 372 337 372c224 0 336 -177 336 -372s-112 -372 -336 -372c-225 0 -337 177 -337 372zM102 357c0 -156 80 -314 269 -314c188 0 268 158 268 314s-80 314 -268 314c-189 0 -269 -158 -269 -314zM494 912l-132 -141h-51l105 141h78z" />
    <glyph glyph-name="Ocircumflex" unicode="&#xd4;" horiz-adv-x="741" 
d="M34 357c0 195 112 372 337 372c224 0 336 -177 336 -372s-112 -372 -336 -372c-225 0 -337 177 -337 372zM102 357c0 -156 80 -314 269 -314c188 0 268 158 268 314s-80 314 -268 314c-189 0 -269 -158 -269 -314zM405 912l114 -141h-65l-86 102l-88 -102h-58l114 141h69
z" />
    <glyph glyph-name="Odieresis" unicode="&#xd6;" horiz-adv-x="741" 
d="M34 357c0 195 112 372 337 372c224 0 336 -177 336 -372s-112 -372 -336 -372c-225 0 -337 177 -337 372zM102 357c0 -156 80 -314 269 -314c188 0 268 158 268 314s-80 314 -268 314c-189 0 -269 -158 -269 -314zM493 788h-68v101h68v-101zM316 788h-68v101h68v-101z
" />
    <glyph glyph-name="Ograve" unicode="&#xd2;" horiz-adv-x="741" 
d="M34 357c0 195 112 372 337 372c224 0 336 -177 336 -372s-112 -372 -336 -372c-225 0 -337 177 -337 372zM102 357c0 -156 80 -314 269 -314c188 0 268 158 268 314s-80 314 -268 314c-189 0 -269 -158 -269 -314zM379 771l-132 141h78l105 -141h-51z" />
    <glyph glyph-name="Otilde" unicode="&#xd5;" horiz-adv-x="741" 
d="M34 357c0 195 112 372 337 372c224 0 336 -177 336 -372s-112 -372 -336 -372c-225 0 -337 177 -337 372zM102 357c0 -156 80 -314 269 -314c188 0 268 158 268 314s-80 314 -268 314c-189 0 -269 -158 -269 -314zM489 891h38c-7 -46 -35 -95 -87 -95
c-27 0 -52 11 -75 22s-43 24 -60 24c-30 0 -53 -18 -53 -51h-39c6 47 36 96 89 96c29 0 53 -11 75 -22s42 -22 60 -22c31 0 44 22 52 48z" />
    <glyph glyph-name="Scaron" unicode="&#x160;" horiz-adv-x="630" 
d="M36 235h68c-3 -147 103 -192 233 -192c75 0 189 41 189 145c0 81 -81 113 -147 129l-159 39c-84 21 -161 61 -161 172c0 70 45 201 246 201c141 0 265 -76 264 -222h-68c-4 109 -94 164 -195 164c-93 0 -179 -36 -179 -142c0 -67 50 -95 108 -109l174 -43
c101 -27 185 -71 185 -188c0 -49 -20 -204 -273 -204c-169 0 -293 76 -285 250zM281 771l-114 141h65l86 -102l88 102h58l-114 -141h-69z" />
    <glyph glyph-name="Uacute" unicode="&#xda;" horiz-adv-x="685" 
d="M65 257v457h68v-442c-1 -166 78 -229 209 -229c132 0 211 63 210 229v442h68v-457c0 -147 -79 -272 -278 -272c-198 0 -277 125 -277 272zM466 912l-132 -141h-51l105 141h78z" />
    <glyph glyph-name="Ucircumflex" unicode="&#xdb;" horiz-adv-x="685" 
d="M65 257v457h68v-442c-1 -166 78 -229 209 -229c132 0 211 63 210 229v442h68v-457c0 -147 -79 -272 -278 -272c-198 0 -277 125 -277 272zM377 912l114 -141h-65l-86 102l-88 -102h-58l114 141h69z" />
    <glyph glyph-name="Udieresis" unicode="&#xdc;" horiz-adv-x="685" 
d="M65 257v457h68v-442c-1 -166 78 -229 209 -229c132 0 211 63 210 229v442h68v-457c0 -147 -79 -272 -278 -272c-198 0 -277 125 -277 272zM465 788h-68v101h68v-101zM288 788h-68v101h68v-101z" />
    <glyph glyph-name="Ugrave" unicode="&#xd9;" horiz-adv-x="685" 
d="M65 257v457h68v-442c-1 -166 78 -229 209 -229c132 0 211 63 210 229v442h68v-457c0 -147 -79 -272 -278 -272c-198 0 -277 125 -277 272zM351 771l-132 141h78l105 -141h-51z" />
    <glyph glyph-name="Yacute" unicode="&#xdd;" horiz-adv-x="611" 
d="M271 0v294l-281 420h81l235 -362l234 362h81l-282 -420v-294h-68zM429 912l-132 -141h-51l105 141h78z" />
    <glyph glyph-name="Ydieresis" unicode="&#x178;" horiz-adv-x="611" 
d="M271 0v294l-281 420h81l235 -362l234 362h81l-282 -420v-294h-68zM428 788h-68v101h68v-101zM251 788h-68v101h68v-101z" />
    <glyph glyph-name="Zcaron" unicode="&#x17d;" horiz-adv-x="574" 
d="M37 656v58h514v-60l-470 -596h480v-58h-556v60l470 596h-438zM253 771l-114 141h65l86 -102l88 102h58l-114 -141h-69z" />
    <glyph glyph-name="aacute" unicode="&#xe1;" horiz-adv-x="519" 
d="M390 200v82h-2c-8 -15 -36 -20 -53 -23c-107 -19 -240 -18 -240 -119c0 -63 56 -102 115 -102c96 0 181 61 180 162zM117 358h-63c6 121 91 173 209 173c91 0 190 -28 190 -166v-274c0 -24 12 -38 37 -38c7 0 15 2 20 4v-53c-14 -3 -24 -4 -41 -4c-64 0 -74 36 -74 90h-2
c-44 -67 -89 -105 -188 -105c-95 0 -173 47 -173 151c0 145 141 150 277 166c52 6 81 13 81 70c0 85 -61 106 -135 106c-78 0 -136 -36 -138 -120zM383 729l-132 -141h-51l105 141h78z" />
    <glyph glyph-name="acircumflex" unicode="&#xe2;" horiz-adv-x="519" 
d="M390 200v82h-2c-8 -15 -36 -20 -53 -23c-107 -19 -240 -18 -240 -119c0 -63 56 -102 115 -102c96 0 181 61 180 162zM117 358h-63c6 121 91 173 209 173c91 0 190 -28 190 -166v-274c0 -24 12 -38 37 -38c7 0 15 2 20 4v-53c-14 -3 -24 -4 -41 -4c-64 0 -74 36 -74 90h-2
c-44 -67 -89 -105 -188 -105c-95 0 -173 47 -173 151c0 145 141 150 277 166c52 6 81 13 81 70c0 85 -61 106 -135 106c-78 0 -136 -36 -138 -120zM294 729l114 -141h-65l-86 102l-88 -102h-58l114 141h69z" />
    <glyph glyph-name="adieresis" unicode="&#xe4;" horiz-adv-x="519" 
d="M390 200v82h-2c-8 -15 -36 -20 -53 -23c-107 -19 -240 -18 -240 -119c0 -63 56 -102 115 -102c96 0 181 61 180 162zM117 358h-63c6 121 91 173 209 173c91 0 190 -28 190 -166v-274c0 -24 12 -38 37 -38c7 0 15 2 20 4v-53c-14 -3 -24 -4 -41 -4c-64 0 -74 36 -74 90h-2
c-44 -67 -89 -105 -188 -105c-95 0 -173 47 -173 151c0 145 141 150 277 166c52 6 81 13 81 70c0 85 -61 106 -135 106c-78 0 -136 -36 -138 -120zM382 605h-68v101h68v-101zM205 605h-68v101h68v-101z" />
    <glyph glyph-name="agrave" unicode="&#xe0;" horiz-adv-x="519" 
d="M390 200v82h-2c-8 -15 -36 -20 -53 -23c-107 -19 -240 -18 -240 -119c0 -63 56 -102 115 -102c96 0 181 61 180 162zM117 358h-63c6 121 91 173 209 173c91 0 190 -28 190 -166v-274c0 -24 12 -38 37 -38c7 0 15 2 20 4v-53c-14 -3 -24 -4 -41 -4c-64 0 -74 36 -74 90h-2
c-44 -67 -89 -105 -188 -105c-95 0 -173 47 -173 151c0 145 141 150 277 166c52 6 81 13 81 70c0 85 -61 106 -135 106c-78 0 -136 -36 -138 -120zM268 588l-132 141h78l105 -141h-51z" />
    <glyph glyph-name="aring" unicode="&#xe5;" horiz-adv-x="519" 
d="M390 200v82h-2c-8 -15 -36 -20 -53 -23c-107 -19 -240 -18 -240 -119c0 -63 56 -102 115 -102c96 0 181 61 180 162zM117 358h-63c6 121 91 173 209 173c91 0 190 -28 190 -166v-274c0 -24 12 -38 37 -38c7 0 15 2 20 4v-53c-14 -3 -24 -4 -41 -4c-64 0 -74 36 -74 90h-2
c-44 -67 -89 -105 -188 -105c-95 0 -173 47 -173 151c0 145 141 150 277 166c52 6 81 13 81 70c0 85 -61 106 -135 106c-78 0 -136 -36 -138 -120zM153 677c0 59 48 107 107 107s107 -48 107 -107s-48 -107 -107 -107s-107 48 -107 107zM192 677c0 -38 30 -68 68 -68
s68 30 68 68s-30 68 -68 68s-68 -30 -68 -68z" />
    <glyph glyph-name="atilde" unicode="&#xe3;" horiz-adv-x="519" 
d="M390 200v82h-2c-8 -15 -36 -20 -53 -23c-107 -19 -240 -18 -240 -119c0 -63 56 -102 115 -102c96 0 181 61 180 162zM117 358h-63c6 121 91 173 209 173c91 0 190 -28 190 -166v-274c0 -24 12 -38 37 -38c7 0 15 2 20 4v-53c-14 -3 -24 -4 -41 -4c-64 0 -74 36 -74 90h-2
c-44 -67 -89 -105 -188 -105c-95 0 -173 47 -173 151c0 145 141 150 277 166c52 6 81 13 81 70c0 85 -61 106 -135 106c-78 0 -136 -36 -138 -120zM378 708h38c-7 -46 -35 -95 -87 -95c-27 0 -52 11 -75 22s-43 24 -60 24c-30 0 -53 -18 -53 -51h-39c6 47 36 96 89 96
c29 0 53 -11 75 -22s42 -22 60 -22c31 0 44 22 52 48z" />
    <glyph glyph-name="ccedilla" unicode="&#xe7;" horiz-adv-x="519" 
d="M428 185h63c-17 -123 -96 -198 -209 -200l-33 -43c47 9 116 0 116 -62c0 -61 -59 -86 -110 -86c-32 0 -65 7 -94 21l14 32c17 -7 50 -14 79 -14c28 0 53 13 53 43c0 24 -20 38 -43 38s-39 -2 -51 -8l-16 15l51 66c-139 15 -214 133 -214 271c0 148 86 273 244 273
c110 0 195 -59 209 -177h-63c-17 77 -64 124 -146 124c-121 0 -181 -110 -181 -220s60 -220 181 -220c78 0 142 61 150 147z" />
    <glyph glyph-name="eacute" unicode="&#xe9;" horiz-adv-x="519" 
d="M494 241h-397c1 -92 49 -203 170 -203c92 0 142 54 162 132h63c-27 -117 -95 -185 -225 -185c-164 0 -233 126 -233 273c0 136 69 273 233 273c166 0 232 -145 227 -290zM97 294h334c-3 95 -62 184 -164 184c-103 0 -160 -90 -170 -184zM383 729l-132 -141h-51l105 141
h78z" />
    <glyph glyph-name="ecircumflex" unicode="&#xea;" horiz-adv-x="519" 
d="M494 241h-397c1 -92 49 -203 170 -203c92 0 142 54 162 132h63c-27 -117 -95 -185 -225 -185c-164 0 -233 126 -233 273c0 136 69 273 233 273c166 0 232 -145 227 -290zM97 294h334c-3 95 -62 184 -164 184c-103 0 -160 -90 -170 -184zM294 729l114 -141h-65l-86 102
l-88 -102h-58l114 141h69z" />
    <glyph glyph-name="edieresis" unicode="&#xeb;" horiz-adv-x="519" 
d="M494 241h-397c1 -92 49 -203 170 -203c92 0 142 54 162 132h63c-27 -117 -95 -185 -225 -185c-164 0 -233 126 -233 273c0 136 69 273 233 273c166 0 232 -145 227 -290zM97 294h334c-3 95 -62 184 -164 184c-103 0 -160 -90 -170 -184zM382 605h-68v101h68v-101z
M205 605h-68v101h68v-101z" />
    <glyph glyph-name="egrave" unicode="&#xe8;" horiz-adv-x="519" 
d="M494 241h-397c1 -92 49 -203 170 -203c92 0 142 54 162 132h63c-27 -117 -95 -185 -225 -185c-164 0 -233 126 -233 273c0 136 69 273 233 273c166 0 232 -145 227 -290zM97 294h334c-3 95 -62 184 -164 184c-103 0 -160 -90 -170 -184zM268 588l-132 141h78l105 -141
h-51z" />
    <glyph glyph-name="iacute" unicode="&#xed;" horiz-adv-x="185" 
d="M124 0h-63v516h63v-516zM216 729l-132 -141h-51l105 141h78z" />
    <glyph glyph-name="icircumflex" unicode="&#xee;" horiz-adv-x="185" 
d="M124 0h-63v516h63v-516zM127 729l114 -141h-65l-86 102l-88 -102h-58l114 141h69z" />
    <glyph glyph-name="idieresis" unicode="&#xef;" horiz-adv-x="185" 
d="M124 0h-63v516h63v-516zM215 605h-68v101h68v-101zM38 605h-68v101h68v-101z" />
    <glyph glyph-name="igrave" unicode="&#xec;" horiz-adv-x="185" 
d="M124 0h-63v516h63v-516zM101 588l-132 141h78l105 -141h-51z" />
    <glyph glyph-name="ntilde" unicode="&#xf1;" horiz-adv-x="537" 
d="M59 0v516h63v-89h2c23 62 92 104 165 104c145 0 189 -76 189 -199v-332h-63v322c0 89 -29 156 -131 156c-100 0 -160 -76 -162 -177v-301h-63zM387 708h38c-7 -46 -35 -95 -87 -95c-27 0 -52 11 -75 22s-43 24 -60 24c-30 0 -53 -18 -53 -51h-39c6 47 36 96 89 96
c29 0 53 -11 75 -22s42 -22 60 -22c31 0 44 22 52 48z" />
    <glyph glyph-name="oacute" unicode="&#xf3;" 
d="M278 531c158 0 244 -125 244 -273s-86 -273 -244 -273s-244 125 -244 273s86 273 244 273zM278 478c-121 0 -181 -110 -181 -220s60 -220 181 -220s181 110 181 220s-60 220 -181 220zM402 729l-132 -141h-51l105 141h78z" />
    <glyph glyph-name="ocircumflex" unicode="&#xf4;" 
d="M278 531c158 0 244 -125 244 -273s-86 -273 -244 -273s-244 125 -244 273s86 273 244 273zM278 478c-121 0 -181 -110 -181 -220s60 -220 181 -220s181 110 181 220s-60 220 -181 220zM313 729l114 -141h-65l-86 102l-88 -102h-58l114 141h69z" />
    <glyph glyph-name="odieresis" unicode="&#xf6;" 
d="M278 531c158 0 244 -125 244 -273s-86 -273 -244 -273s-244 125 -244 273s86 273 244 273zM278 478c-121 0 -181 -110 -181 -220s60 -220 181 -220s181 110 181 220s-60 220 -181 220zM401 605h-68v101h68v-101zM224 605h-68v101h68v-101z" />
    <glyph glyph-name="ograve" unicode="&#xf2;" 
d="M278 531c158 0 244 -125 244 -273s-86 -273 -244 -273s-244 125 -244 273s86 273 244 273zM278 478c-121 0 -181 -110 -181 -220s60 -220 181 -220s181 110 181 220s-60 220 -181 220zM287 588l-132 141h78l105 -141h-51z" />
    <glyph glyph-name="otilde" unicode="&#xf5;" 
d="M278 531c158 0 244 -125 244 -273s-86 -273 -244 -273s-244 125 -244 273s86 273 244 273zM278 478c-121 0 -181 -110 -181 -220s60 -220 181 -220s181 110 181 220s-60 220 -181 220zM397 708h38c-7 -46 -35 -95 -87 -95c-27 0 -52 11 -75 22s-43 24 -60 24
c-30 0 -53 -18 -53 -51h-39c6 47 36 96 89 96c29 0 53 -11 75 -22s42 -22 60 -22c31 0 44 22 52 48z" />
    <glyph glyph-name="scaron" unicode="&#x161;" horiz-adv-x="481" 
d="M432 365h-63c-3 78 -63 113 -135 113c-56 0 -122 -22 -122 -89c0 -56 64 -76 107 -87l84 -19c72 -11 147 -53 147 -143c0 -112 -111 -155 -207 -155c-120 0 -202 56 -212 182h63c5 -85 68 -129 152 -129c59 0 141 26 141 98c0 60 -56 80 -113 94l-81 18
c-82 22 -144 50 -144 138c0 105 103 145 194 145c103 0 185 -54 189 -166zM206 588l-114 141h65l86 -102l88 102h58l-114 -141h-69z" />
    <glyph glyph-name="uacute" unicode="&#xfa;" horiz-adv-x="537" 
d="M478 516v-516h-58v93h-2c-33 -69 -101 -108 -178 -108c-130 0 -181 76 -181 196v335h63v-336c3 -93 38 -142 138 -142c108 0 155 102 155 207v271h63zM392 729l-132 -141h-51l105 141h78z" />
    <glyph glyph-name="ucircumflex" unicode="&#xfb;" horiz-adv-x="537" 
d="M478 516v-516h-58v93h-2c-33 -69 -101 -108 -178 -108c-130 0 -181 76 -181 196v335h63v-336c3 -93 38 -142 138 -142c108 0 155 102 155 207v271h63zM303 729l114 -141h-65l-86 102l-88 -102h-58l114 141h69z" />
    <glyph glyph-name="udieresis" unicode="&#xfc;" horiz-adv-x="537" 
d="M478 516v-516h-58v93h-2c-33 -69 -101 -108 -178 -108c-130 0 -181 76 -181 196v335h63v-336c3 -93 38 -142 138 -142c108 0 155 102 155 207v271h63zM391 605h-68v101h68v-101zM214 605h-68v101h68v-101z" />
    <glyph glyph-name="ugrave" unicode="&#xf9;" horiz-adv-x="537" 
d="M478 516v-516h-58v93h-2c-33 -69 -101 -108 -178 -108c-130 0 -181 76 -181 196v335h63v-336c3 -93 38 -142 138 -142c108 0 155 102 155 207v271h63zM277 588l-132 141h78l105 -141h-51z" />
    <glyph glyph-name="yacute" unicode="&#xfd;" horiz-adv-x="463" 
d="M208 2l-206 514h67l170 -440l159 440h63l-224 -595c-36 -87 -57 -112 -136 -112c-25 1 -38 1 -48 5v53c15 -3 29 -5 43 -5c56 0 69 33 90 81zM355 729l-132 -141h-51l105 141h78z" />
    <glyph glyph-name="ydieresis" unicode="&#xff;" horiz-adv-x="463" 
d="M208 2l-206 514h67l170 -440l159 440h63l-224 -595c-36 -87 -57 -112 -136 -112c-25 1 -38 1 -48 5v53c15 -3 29 -5 43 -5c56 0 69 33 90 81zM354 605h-68v101h68v-101zM177 605h-68v101h68v-101z" />
    <glyph glyph-name="zcaron" unicode="&#x17e;" horiz-adv-x="463" 
d="M432 471l-341 -418h355v-53h-431v51l337 412h-314v53h394v-45zM197 588l-114 141h65l86 -102l88 102h58l-114 -141h-69z" />
    <glyph glyph-name="Delta" unicode="&#x2206;" horiz-adv-x="645" 
d="M33 0v43l259 671h64l257 -671v-43h-580zM90 47h461l-158 412c-18 53 -56 141 -70 187h-4c-10 -37 -44 -118 -63 -171z" />
    <glyph glyph-name="Omega" unicode="&#x2126;" horiz-adv-x="726" 
d="M208 47v3c-75 65 -141 175 -141 319c0 203 132 337 299 337c175 0 292 -153 292 -333c0 -151 -72 -266 -142 -323v-3h156v-47h-233v35c82 53 162 169 162 329c0 133 -80 294 -236 294c-147 0 -241 -133 -241 -296c0 -151 81 -276 161 -327v-35h-232v47h155z" />
    <glyph glyph-name="uni03BC" unicode="&#x3bc;" horiz-adv-x="537" 
d="M478 516v-516h-58v93h-2c-33 -69 -101 -108 -178 -108c-43 0 -85 11 -117 35v-211h-64v707h63v-336c3 -93 38 -142 138 -142c108 0 155 102 155 207v271h63z" />
    <glyph glyph-name="pi" unicode="&#x3c0;" horiz-adv-x="560" 
d="M532 466h-84v-319c0 -87 7 -122 15 -147h-55c-9 15 -16 53 -16 139v327h-197c-7 -136 -39 -375 -77 -466h-56c39 104 70 324 76 466c-68 0 -96 -5 -116 -13l-11 37c25 15 63 25 136 25h392z" />
    <glyph glyph-name="Euro" unicode="&#x20ac;" 
d="M557 635l-27 -59c-44 53 -97 79 -160 79c-61 0 -111 -22 -150 -67c-34 -39 -57 -90 -69 -154h333l-18 -45h-321c-2 -17 -3 -31 -3 -43c0 -5 0 -11 1 -16h304l-19 -45h-282c9 -69 30 -126 63 -169c40 -50 93 -75 158 -75c36 0 68 8 96 23c23 13 49 34 78 63v-77
c-51 -43 -109 -65 -176 -65c-83 0 -151 30 -202 89c-45 53 -72 124 -82 211h-66l19 45h44c-1 5 -1 12 -1 20c0 10 1 23 2 39h-64l18 45h51c15 81 45 147 92 196c51 55 116 82 195 82c83 0 145 -26 186 -77z" />
    <glyph glyph-name="afii61289" unicode="&#x2113;" horiz-adv-x="475" 
d="M420 134l30 -23c-41 -78 -102 -121 -179 -121c-113 0 -158 90 -161 191v13c-18 -14 -39 -32 -59 -49l-20 36c28 23 55 45 79 68v280c0 183 78 234 145 234c80 0 118 -69 118 -156c0 -128 -84 -250 -210 -372v-30c1 -123 57 -170 118 -170c66 0 115 54 139 99zM163 536
v-243c94 101 168 203 168 311c0 68 -21 115 -78 115c-40 0 -90 -46 -90 -183z" />
    <glyph glyph-name="estimated" unicode="&#x212e;" horiz-adv-x="869" 
d="M835 335h-649c-3 0 -5 -1 -5 -4v-196c0 -9 3 -16 8 -23c63 -65 150 -106 246 -106c103 0 195 47 258 119h57c-71 -84 -187 -139 -316 -139c-221 0 -400 161 -400 359c0 199 179 361 400 361s401 -162 401 -361v-10zM687 361v197c0 9 -3 17 -9 24
c-63 62 -148 102 -243 102s-182 -41 -245 -105c-6 -7 -9 -15 -9 -25v-193c0 -2 2 -6 5 -6h497c3 0 4 4 4 6z" />
    <glyph glyph-name="partialdiff" unicode="&#x2202;" horiz-adv-x="536" 
d="M101 679l-22 41c33 26 84 54 161 54c124 0 245 -118 245 -375c0 -227 -84 -410 -254 -410c-127 0 -187 113 -187 228c0 154 101 251 211 251c97 0 156 -70 173 -102h1c1 13 1 34 1 48c0 193 -92 313 -195 313c-62 0 -106 -25 -134 -48zM235 36h1c103 0 170 125 184 268
c-16 48 -74 118 -157 118c-88 0 -162 -90 -162 -203c0 -106 52 -183 134 -183z" />
    <glyph glyph-name="product" unicode="&#x220f;" horiz-adv-x="692" 
d="M664 643h-112v-739h-55v739h-303v-739h-55v739h-113v51h638v-51z" />
    <glyph glyph-name="summation" unicode="&#x2211;" horiz-adv-x="552" 
d="M528 -96h-505v39l278 355l-265 357v39h477v-49h-397v-4l251 -336l-270 -344v-3h431v-54z" />
    <glyph glyph-name="uni2219" unicode="&#x2219;" horiz-adv-x="278" 
d="M139 375c32 0 59 -28 59 -60c0 -31 -28 -58 -59 -58c-32 0 -59 28 -59 60c0 30 29 58 59 58z" />
    <glyph glyph-name="radical" unicode="&#x221a;" horiz-adv-x="563" 
d="M561 823l-221 -975h-53l-164 471l-75 -28l-13 36l124 48l136 -390c6 -22 13 -49 17 -67h1c3 17 8 43 12 65l192 840h44z" />
    <glyph glyph-name="infinity" unicode="&#x221e;" horiz-adv-x="775" 
d="M723 289v-1c0 -93 -72 -153 -150 -153c-64 0 -113 44 -184 121c-54 -60 -109 -121 -191 -121c-80 0 -146 66 -146 150c0 88 65 154 153 154c75 0 134 -61 187 -123c55 61 107 123 189 123c87 0 142 -62 142 -150zM204 174h1c67 0 119 67 161 110c-45 54 -95 117 -169 117
c-66 0 -103 -56 -103 -117c1 -61 44 -110 110 -110zM576 401h-1c-69 0 -126 -78 -162 -113c69 -73 109 -114 164 -114c66 0 104 56 104 112c0 74 -45 115 -105 115z" />
    <glyph glyph-name="integral" unicode="&#x222b;" horiz-adv-x="343" 
d="M329 831l-12 -40c-8 6 -24 11 -37 11c-16 0 -38 -6 -51 -23c-27 -31 -37 -84 -37 -182c0 -153 14 -351 14 -508c0 -111 -22 -168 -46 -201c-19 -29 -53 -44 -88 -44c-24 0 -50 10 -61 17l12 41c8 -4 26 -12 46 -12c17 0 36 8 47 23c21 26 37 71 37 178
c0 157 -13 359 -13 512c0 106 13 167 51 206c24 25 55 36 85 36c20 0 43 -8 53 -14z" />
    <glyph glyph-name="approxequal" unicode="&#x2248;" horiz-adv-x="568" 
d="M493 422l25 -22c-25 -50 -63 -92 -126 -92c-41 0 -70 16 -119 43c-31 17 -62 34 -96 34c-48 0 -76 -35 -102 -75l-27 21c31 58 79 92 136 92c48 0 86 -28 114 -42c35 -19 59 -35 97 -35c42 0 69 25 98 76zM493 257l25 -22c-25 -49 -63 -91 -126 -91c-41 0 -69 16 -119 43
c-32 17 -62 34 -96 34c-48 0 -77 -36 -102 -76l-27 21c31 59 79 93 135 93c50 0 86 -27 115 -42c34 -18 59 -35 98 -35c42 0 68 25 97 75z" />
    <glyph glyph-name="notequal" unicode="&#x2260;" horiz-adv-x="568" 
d="M398 499l-47 -102h164v-39h-181l-70 -151h251v-39h-268l-56 -120l-32 16l49 104h-156v39h173l70 151h-243v39h260l54 118z" />
    <glyph glyph-name="lessequal" unicode="&#x2264;" horiz-adv-x="568" 
d="M513 94l-455 226v41l455 225v-48l-410 -196v-2l410 -198v-48zM515 11h-463v41h463v-41z" />
    <glyph glyph-name="greaterequal" unicode="&#x2265;" horiz-adv-x="568" 
d="M58 586l455 -225v-41l-454 -226v48l409 197v2l-410 197v48zM515 11h-462v41h462v-41z" />
    <glyph glyph-name="lozenge" unicode="&#x25ca;" horiz-adv-x="565" 
d="M508 347l-204 -391h-46l-202 391l204 391h46zM455 345l-154 295c-7 15 -15 37 -19 49h-2c-4 -14 -11 -31 -19 -49l-152 -292l154 -296c9 -20 15 -37 18 -48h3c3 12 11 34 18 48z" />
    <glyph glyph-name="uni00A0" unicode="&#xa0;" horiz-adv-x="278" 
 />
    <glyph glyph-name="uni00AD" unicode="&#xad;" horiz-adv-x="370" 
d="M310 246h-250v58h250v-58z" />
    <glyph glyph-name="uni02C9" unicode="&#x2c9;" horiz-adv-x="185" 
d="M257 634h-329v45h329v-45z" />
    <glyph glyph-name="uni03A9" unicode="&#x3a9;" horiz-adv-x="726" 
d="M208 47v3c-75 65 -141 175 -141 319c0 203 132 337 299 337c175 0 292 -153 292 -333c0 -151 -72 -266 -142 -323v-3h156v-47h-233v35c82 53 162 169 162 329c0 133 -80 294 -236 294c-147 0 -241 -133 -241 -296c0 -151 81 -276 161 -327v-35h-232v47h155z" />
    <glyph glyph-name="uni2215" unicode="&#x2215;" horiz-adv-x="167" 
d="M-166 -34l453 759h47l-452 -759h-48z" />
    <hkern u1="&#x2019;" u2="&#x2019;" k="119" />
    <hkern u1="T" u2="&#xfc;" k="46" />
    <hkern u1="T" u2="&#x161;" k="28" />
    <hkern u1="T" u2="&#xf2;" k="56" />
    <hkern u1="T" u2="&#xf6;" k="56" />
    <hkern u1="T" u2="&#xe8;" k="83" />
    <hkern u1="T" u2="&#xeb;" k="56" />
    <hkern u1="T" u2="&#xea;" k="83" />
    <hkern u1="T" u2="&#xe3;" k="56" />
    <hkern u1="T" u2="&#xe5;" k="56" />
    <hkern u1="T" u2="&#xe0;" k="56" />
    <hkern u1="T" u2="&#xe4;" k="28" />
    <hkern u1="T" u2="&#xe2;" k="56" />
    <hkern u1="V" u2="&#xf6;" k="28" />
    <hkern u1="V" u2="&#xf4;" k="41" />
    <hkern u1="V" u2="&#xe8;" k="28" />
    <hkern u1="V" u2="&#xeb;" k="28" />
    <hkern u1="V" u2="&#xea;" k="28" />
    <hkern u1="V" u2="&#xe3;" k="28" />
    <hkern u1="V" u2="&#xe5;" k="28" />
    <hkern u1="V" u2="&#xe0;" k="28" />
    <hkern u1="V" u2="&#xe4;" k="28" />
    <hkern u1="V" u2="&#xe2;" k="28" />
    <hkern u1="W" u2="&#xfc;" k="14" />
    <hkern u1="W" u2="&#xf6;" k="14" />
    <hkern u1="W" u2="&#xea;" k="14" />
    <hkern u1="W" u2="&#xe4;" k="28" />
    <hkern u1="Y" u2="&#xfc;" k="56" />
    <hkern u1="Y" u2="&#xf6;" k="69" />
    <hkern u1="&#x2018;" u2="&#x2018;" k="119" />
    <hkern g1="f,fi,fl"
	g2="quoteright"
	k="-18" />
    <hkern g1="f,fi,fl"
	g2="f,fi,fl,germandbls"
	k="18" />
    <hkern g1="F"
	g2="A,AE,Aacute,Acircumflex,Adieresis,Agrave,Aring,Atilde"
	k="55" />
    <hkern g1="F"
	g2="comma"
	k="129" />
    <hkern g1="F"
	g2="period"
	k="129" />
    <hkern g1="L,Lslash"
	g2="T"
	k="92" />
    <hkern g1="L,Lslash"
	g2="V"
	k="92" />
    <hkern g1="L,Lslash"
	g2="W"
	k="55" />
    <hkern g1="L,Lslash"
	g2="y,yacute,ydieresis"
	k="37" />
    <hkern g1="L,Lslash"
	g2="Y,Yacute,Ydieresis"
	k="111" />
    <hkern g1="L,Lslash"
	g2="quoteright"
	k="98" />
    <hkern g1="P"
	g2="A,AE,Aacute,Acircumflex,Adieresis,Agrave,Aring,Atilde"
	k="74" />
    <hkern g1="P"
	g2="comma"
	k="153" />
    <hkern g1="P"
	g2="period"
	k="153" />
    <hkern g1="r"
	g2="comma"
	k="92" />
    <hkern g1="r"
	g2="period"
	k="92" />
    <hkern g1="r"
	g2="c,ccedilla"
	k="18" />
    <hkern g1="r"
	g2="d,dotlessi"
	k="18" />
    <hkern g1="r"
	g2="e,eacute,ecircumflex,edieresis,egrave"
	k="18" />
    <hkern g1="r"
	g2="n,ntilde"
	k="-18" />
    <hkern g1="r"
	g2="o,oslash,oe,oacute,ocircumflex,odieresis,ograve,otilde"
	k="18" />
    <hkern g1="r"
	g2="q"
	k="18" />
    <hkern g1="r"
	g2="hyphen"
	k="55" />
    <hkern g1="R"
	g2="T"
	k="-6" />
    <hkern g1="R"
	g2="V"
	k="-6" />
    <hkern g1="R"
	g2="W"
	k="-6" />
    <hkern g1="R"
	g2="y,yacute,ydieresis"
	k="-24" />
    <hkern g1="R"
	g2="Y,Yacute,Ydieresis"
	k="13" />
    <hkern g1="T"
	g2="w"
	k="111" />
    <hkern g1="T"
	g2="y,yacute,ydieresis"
	k="111" />
    <hkern g1="T"
	g2="A,AE,Aacute,Acircumflex,Adieresis,Agrave,Aring,Atilde"
	k="68" />
    <hkern g1="T"
	g2="comma"
	k="111" />
    <hkern g1="T"
	g2="period"
	k="111" />
    <hkern g1="T"
	g2="c,ccedilla"
	k="111" />
    <hkern g1="T"
	g2="e,eacute,ecircumflex,edieresis,egrave"
	k="111" />
    <hkern g1="T"
	g2="o,oslash,oe,oacute,ocircumflex,odieresis,ograve,otilde"
	k="111" />
    <hkern g1="T"
	g2="hyphen"
	k="129" />
    <hkern g1="T"
	g2="a,ae,aacute,acircumflex,adieresis,agrave,aring,atilde"
	k="111" />
    <hkern g1="T"
	g2="i,iacute,icircumflex,idieresis,igrave"
	k="-24" />
    <hkern g1="T"
	g2="r"
	k="92" />
    <hkern g1="T"
	g2="s,scaron"
	k="111" />
    <hkern g1="T"
	g2="u,uacute,ucircumflex,udieresis,ugrave"
	k="92" />
    <hkern g1="T"
	g2="colon"
	k="111" />
    <hkern g1="T"
	g2="semicolon"
	k="111" />
    <hkern g1="v"
	g2="comma"
	k="74" />
    <hkern g1="v"
	g2="period"
	k="74" />
    <hkern g1="V"
	g2="y,yacute,ydieresis"
	k="18" />
    <hkern g1="V"
	g2="A,AE,Aacute,Acircumflex,Adieresis,Agrave,Aring,Atilde"
	k="55" />
    <hkern g1="V"
	g2="comma"
	k="129" />
    <hkern g1="V"
	g2="period"
	k="129" />
    <hkern g1="V"
	g2="e,eacute,ecircumflex,edieresis,egrave"
	k="55" />
    <hkern g1="V"
	g2="o,oslash,oe,oacute,ocircumflex,odieresis,ograve,otilde"
	k="55" />
    <hkern g1="V"
	g2="hyphen"
	k="55" />
    <hkern g1="V"
	g2="a,ae,aacute,acircumflex,adieresis,agrave,aring,atilde"
	k="55" />
    <hkern g1="V"
	g2="i,iacute,icircumflex,idieresis,igrave"
	k="-6" />
    <hkern g1="V"
	g2="r"
	k="37" />
    <hkern g1="V"
	g2="u,uacute,ucircumflex,udieresis,ugrave"
	k="37" />
    <hkern g1="V"
	g2="colon"
	k="74" />
    <hkern g1="V"
	g2="semicolon"
	k="74" />
    <hkern g1="w"
	g2="comma"
	k="55" />
    <hkern g1="w"
	g2="period"
	k="55" />
    <hkern g1="W"
	g2="A,AE,Aacute,Acircumflex,Adieresis,Agrave,Aring,Atilde"
	k="18" />
    <hkern g1="W"
	g2="comma"
	k="74" />
    <hkern g1="W"
	g2="period"
	k="74" />
    <hkern g1="W"
	g2="e,eacute,ecircumflex,edieresis,egrave"
	k="18" />
    <hkern g1="W"
	g2="o,oslash,oe,oacute,ocircumflex,odieresis,ograve,otilde"
	k="18" />
    <hkern g1="W"
	g2="a,ae,aacute,acircumflex,adieresis,agrave,aring,atilde"
	k="37" />
    <hkern g1="W"
	g2="i,iacute,icircumflex,idieresis,igrave"
	k="-24" />
    <hkern g1="W"
	g2="r"
	k="18" />
    <hkern g1="W"
	g2="u,uacute,ucircumflex,udieresis,ugrave"
	k="18" />
    <hkern g1="W"
	g2="colon"
	k="18" />
    <hkern g1="W"
	g2="semicolon"
	k="18" />
    <hkern g1="y,yacute,ydieresis"
	g2="comma"
	k="92" />
    <hkern g1="y,yacute,ydieresis"
	g2="period"
	k="92" />
    <hkern g1="Y,Yacute,Ydieresis"
	g2="v"
	k="55" />
    <hkern g1="Y,Yacute,Ydieresis"
	g2="A,AE,Aacute,Acircumflex,Adieresis,Agrave,Aring,Atilde"
	k="74" />
    <hkern g1="Y,Yacute,Ydieresis"
	g2="comma"
	k="123" />
    <hkern g1="Y,Yacute,Ydieresis"
	g2="period"
	k="99" />
    <hkern g1="Y,Yacute,Ydieresis"
	g2="e,eacute,ecircumflex,edieresis,egrave"
	k="92" />
    <hkern g1="Y,Yacute,Ydieresis"
	g2="o,oslash,oe,oacute,ocircumflex,odieresis,ograve,otilde"
	k="92" />
    <hkern g1="Y,Yacute,Ydieresis"
	g2="q"
	k="92" />
    <hkern g1="Y,Yacute,Ydieresis"
	g2="hyphen"
	k="111" />
    <hkern g1="Y,Yacute,Ydieresis"
	g2="a,ae,aacute,acircumflex,adieresis,agrave,aring,atilde"
	k="92" />
    <hkern g1="Y,Yacute,Ydieresis"
	g2="i,iacute,icircumflex,idieresis,igrave"
	k="7" />
    <hkern g1="Y,Yacute,Ydieresis"
	g2="u,uacute,ucircumflex,udieresis,ugrave"
	k="74" />
    <hkern g1="Y,Yacute,Ydieresis"
	g2="colon"
	k="92" />
    <hkern g1="Y,Yacute,Ydieresis"
	g2="semicolon"
	k="92" />
    <hkern g1="Y,Yacute,Ydieresis"
	g2="p"
	k="74" />
    <hkern g1="quoteright"
	g2="s,scaron"
	k="111" />
    <hkern g1="quoteright"
	g2="t"
	k="18" />
  </font>
</defs></svg>
