<?xml version="1.0" standalone="no"?>
<!DOCTYPE svg PUBLIC "-//W3C//DTD SVG 1.1//EN" "http://www.w3.org/Graphics/SVG/1.1/DTD/svg11.dtd" >
<svg>
<metadata>
Created by FontForge 20110222 at Fri May 29 13:21:52 2015
 By www-data
 The digitally encoded machine readable software for producing the
 Typefaces licensed to you is copyrighted (c) 1988, 1990, 1993, 2002 Adobe Systems.
 All Rights Reserved. This software is the property of Adobe Systems
 Incorporated and its licensors, and may not be reproduced, used, 
 displayed, modified, disclosed or transferred without the express 
 written approval of Adobe.
 
 The digitally encoded machine readable outline data for producing the Typefaces 
 provided as part of your laser printer is copyrighted (c) 1981, 2002 Heidelberger Druckmaschinen AG. 
 All rights reserved. This data is the property of Heidelberger Druckmaschinen AG, 
 and may not be reproduced, used, displayed, modified, disclosed or transferred 
 without the express written approval of Heidelberger Druckmaschinen AG. 
</metadata>
<defs>
<font id="HelveticaNeueLTStd-Bd" horiz-adv-x="556" >
  <font-face 
    font-family="Helvetica Neue LT Std"
    font-weight="700"
    font-stretch="normal"
    units-per-em="1000"
    panose-1="2 11 8 4 2 2 2 2 2 4"
    ascent="714"
    descent="-286"
    x-height="517"
    cap-height="714"
    bbox="-166 -218 1078 975"
    underline-thickness="50"
    underline-position="-50"
    stemh="107"
    stemv="142"
    unicode-range="U+0020-FB02"
  />
<missing-glyph horiz-adv-x="500" 
d="M0 0v700h500v-700h-500zM250 395l170 255h-340zM280 350l170 -255v510zM80 50h340l-170 255zM50 605v-510l170 255z" />
    <glyph glyph-name="fi" unicode="fi" horiz-adv-x="611" 
d="M553 714v-117h-142v117h142zM411 0v517h142v-517h-142zM85 0v422h-85v95h85v40c0 91 57 157 173 157c25 0 51 -3 75 -4v-106c-17 2 -34 3 -52 3c-38 0 -54 -16 -54 -59v-31h98v-95h-98v-422h-142z" />
    <glyph glyph-name="fl" unicode="fl" horiz-adv-x="611" 
d="M411 0v714h142v-714h-142zM85 0v422h-85v95h85v40c0 91 57 157 173 157c25 0 51 -3 75 -4v-106c-17 2 -34 3 -52 3c-38 0 -54 -16 -54 -59v-31h98v-95h-98v-422h-142z" />
    <glyph glyph-name=".notdef" horiz-adv-x="500" 
d="M0 0v700h500v-700h-500zM250 395l170 255h-340zM280 350l170 -255v510zM80 50h340l-170 255zM50 605v-510l170 255z" />
    <glyph glyph-name="space" unicode=" " horiz-adv-x="278" 
 />
    <glyph glyph-name="exclam" unicode="!" horiz-adv-x="278" 
d="M213 714v-192l-39 -308h-71l-38 308v192h148zM61 0v154h157v-154h-157z" />
    <glyph glyph-name="quotedbl" unicode="&#x22;" horiz-adv-x="463" 
d="M271 393v321h107v-321h-107zM85 393v321h107v-321h-107z" />
    <glyph glyph-name="numbersign" unicode="#" 
d="M88 0l28 198h-83v90h95l18 124h-83v90h95l28 198h97l-28 -198h97l27 198h97l-27 -198h74v-90h-87l-17 -124h74v-90h-87l-27 -198h-97l27 198h-96l-28 -198h-97zM339 412h-96l-18 -124h97z" />
    <glyph glyph-name="dollar" unicode="$" 
d="M248 451v163c-45 0 -90 -28 -90 -83c0 -44 26 -65 90 -80zM307 292v-192c49 5 108 34 108 98c0 53 -29 72 -108 94zM-1 232h142c-1 -74 46 -120 107 -132v209c-7 3 -19 6 -32 9c-100 27 -200 66 -200 199c0 137 112 207 232 214v77h59v-77c119 -13 217 -75 225 -213h-142
c-1 53 -38 96 -83 96v-177c16 -4 33 -8 51 -13c195 -54 199 -165 199 -232c0 -57 -51 -196 -250 -209v-85h-59v85c-148 11 -234 92 -249 249z" />
    <glyph glyph-name="percent" unicode="%" horiz-adv-x="1000" 
d="M75 516c0 109 53 198 170 198c124 0 164 -92 164 -202c0 -109 -52 -188 -169 -188c-123 0 -165 82 -165 192zM177 514c0 -43 0 -115 64 -115c62 0 66 72 66 114c0 39 -3 126 -62 126c-64 0 -68 -79 -68 -125zM591 183c0 109 53 193 170 193c124 0 164 -87 164 -197
c0 -109 -52 -193 -169 -193c-123 0 -165 87 -165 197zM693 182c0 -43 0 -121 64 -121c62 0 66 78 66 120c0 39 -3 120 -62 120c-64 0 -68 -73 -68 -119zM254 -22l414 744h85l-412 -744h-87z" />
    <glyph glyph-name="ampersand" unicode="&#x26;" horiz-adv-x="685" 
d="M382 559c0 37 -30 68 -65 68c-34 0 -64 -26 -64 -63c0 -45 29 -74 56 -107c40 26 73 50 73 102zM389 166l-122 149c-50 -22 -100 -60 -100 -118c0 -52 48 -94 102 -94c51 0 87 26 120 63zM522 0l-58 71c-57 -56 -120 -85 -201 -85c-129 0 -231 79 -231 214
c0 100 76 168 160 207c-38 47 -68 90 -68 152c0 99 91 163 186 163c108 0 196 -58 196 -171c0 -83 -55 -140 -127 -178l92 -113c14 26 22 56 26 85h123c-7 -64 -29 -126 -69 -176l145 -169h-174z" />
    <glyph glyph-name="quoteright" unicode="&#x2019;" horiz-adv-x="278" 
d="M68 560v154h142v-153c3 -89 -59 -157 -142 -168v66c51 17 66 52 66 101h-66z" />
    <glyph glyph-name="parenleft" unicode="(" horiz-adv-x="296" 
d="M184 731h119c-74 -141 -109 -298 -109 -453c0 -158 34 -316 108 -460h-118c-82 136 -132 294 -132 450c0 149 44 336 132 463z" />
    <glyph glyph-name="parenright" unicode=")" horiz-adv-x="296" 
d="M112 -182h-119c74 140 109 297 109 452c0 158 -34 316 -108 461h118c82 -137 132 -295 132 -451c0 -149 -44 -336 -132 -462z" />
    <glyph glyph-name="asterisk" unicode="*" horiz-adv-x="407" 
d="M242 714v-125l116 44l27 -77l-118 -39l74 -98l-66 -49l-74 103l-70 -103l-67 49l74 98l-116 39l27 77l113 -44v125h80z" />
    <glyph glyph-name="plus" unicode="+" horiz-adv-x="600" 
d="M354 505v-199h199v-107h-199v-199h-107v199h-199v107h199v199h107z" />
    <glyph glyph-name="comma" unicode="," horiz-adv-x="278" 
d="M61 0v154h157v-154c0 -92 -70 -153 -156 -166v72c42 7 73 50 71 94h-72z" />
    <glyph glyph-name="hyphen" unicode="-" horiz-adv-x="407" 
d="M53 212v122h301v-122h-301z" />
    <glyph glyph-name="period" unicode="." horiz-adv-x="278" 
d="M60 0v154h157v-154h-157z" />
    <glyph glyph-name="slash" unicode="/" horiz-adv-x="371" 
d="M-11 -17l279 748h114l-279 -748h-114z" />
    <glyph glyph-name="zero" unicode="0" 
d="M21 353c0 273 118 361 256 361c140 0 258 -88 258 -361c0 -279 -118 -367 -258 -367c-138 0 -256 88 -256 367zM163 353c0 -79 0 -250 114 -250c116 0 116 171 116 250c0 73 0 244 -116 244c-114 0 -114 -171 -114 -244z" />
    <glyph glyph-name="one" unicode="1" 
d="M392 700v-700h-142v454h-176v107c99 -2 190 32 205 139h113z" />
    <glyph glyph-name="two" unicode="2" 
d="M173 431h-136c-5 160 86 283 254 283c128 0 240 -82 240 -219c0 -105 -56 -163 -125 -212s-151 -89 -202 -161h331v-122h-514c1 162 100 231 221 313c62 42 146 85 147 171c0 66 -44 108 -105 108c-84 0 -111 -87 -111 -161z" />
    <glyph glyph-name="three" unicode="3" 
d="M228 317v100c61 -5 149 7 149 87c0 59 -47 93 -99 93c-71 0 -109 -53 -108 -125h-135c5 143 98 242 242 242c112 0 235 -69 235 -194c0 -66 -33 -125 -98 -143v-2c77 -17 124 -81 124 -159c0 -147 -123 -230 -260 -230c-157 0 -263 94 -260 255h135
c3 -76 41 -138 123 -138c64 0 114 44 114 110c0 106 -93 104 -162 104z" />
    <glyph glyph-name="four" unicode="4" 
d="M312 0v162h-296v130l304 408h127v-421h93v-117h-93v-162h-135zM312 279v243h-3l-181 -243h184z" />
    <glyph glyph-name="five" unicode="5" 
d="M500 700v-117h-289l-28 -159l2 -2c38 39 82 54 137 54c138 0 216 -107 216 -238c0 -144 -119 -255 -260 -252c-136 0 -258 75 -260 222h142c7 -62 53 -105 115 -105c74 0 121 65 121 135c0 73 -45 131 -121 131c-51 0 -79 -18 -107 -56h-128l69 387h391z" />
    <glyph glyph-name="six" unicode="6" 
d="M523 520h-135c-9 47 -45 87 -94 87c-103 0 -130 -135 -134 -213l2 -2c39 55 90 78 158 78c60 0 121 -28 161 -72c37 -43 54 -101 54 -156c0 -143 -99 -256 -245 -256c-212 0 -269 185 -269 362c0 171 76 366 275 366c121 0 211 -71 227 -194zM286 363
c-76 0 -113 -61 -113 -130c0 -65 42 -130 113 -130c68 0 107 65 107 128c0 66 -34 132 -107 132z" />
    <glyph glyph-name="seven" unicode="7" 
d="M517 700v-122c-147 -128 -227 -391 -229 -578h-152c16 207 102 408 235 568h-332v132h478z" />
    <glyph glyph-name="eight" unicode="8" 
d="M156 212c0 -72 56 -119 124 -119s120 48 120 118c0 67 -54 112 -120 112c-69 0 -124 -39 -124 -111zM43 523c0 126 122 191 236 191c174 0 234 -120 234 -188c0 -69 -36 -125 -102 -147v-2c83 -19 131 -83 131 -171c0 -147 -132 -220 -262 -220c-135 0 -266 68 -266 219
c0 89 50 152 132 172v2c-68 19 -103 75 -103 144zM172 510c0 -61 50 -92 107 -92c58 0 105 32 105 92c0 36 -17 97 -105 97c-57 0 -107 -35 -107 -97z" />
    <glyph glyph-name="nine" unicode="9" 
d="M33 180h135c9 -47 45 -87 94 -87c103 0 130 135 134 213l-2 2c-39 -55 -90 -78 -158 -78c-60 0 -121 28 -161 72c-37 43 -54 101 -54 156c0 143 99 256 245 256c212 0 269 -185 269 -362c0 -171 -76 -366 -275 -366c-121 0 -211 71 -227 194zM270 337
c76 0 113 61 113 130c0 65 -42 130 -113 130c-68 0 -107 -65 -107 -128c0 -66 34 -132 107 -132z" />
    <glyph glyph-name="colon" unicode=":" horiz-adv-x="278" 
d="M61 0v154h157v-154h-157zM218 508v-154h-157v154h157z" />
    <glyph glyph-name="semicolon" unicode=";" horiz-adv-x="278" 
d="M61 0v154h157v-154c-1 -92 -70 -153 -156 -166v72c42 7 73 50 71 94h-72zM218 508v-154h-157v154h157z" />
    <glyph glyph-name="less" unicode="&#x3c;" horiz-adv-x="600" 
d="M554 514v-115l-367 -146l367 -146v-115l-508 202v118z" />
    <glyph glyph-name="equal" unicode="=" horiz-adv-x="600" 
d="M553 413v-107h-505v107h505zM553 199v-107h-505v107h505z" />
    <glyph glyph-name="greater" unicode="&#x3e;" horiz-adv-x="600" 
d="M46 -8v115l367 146l-367 146v115l508 -202v-118z" />
    <glyph glyph-name="question" unicode="?" 
d="M179 484h-147c3 143 97 247 243 247c189 0 249 -116 249 -193c0 -97 -41 -136 -84 -169c-43 -32 -89 -58 -98 -117v-38h-135v45c6 87 47 126 87 157c39 31 73 54 73 108c0 61 -32 90 -85 90c-72 0 -102 -59 -103 -130zM193 0v154h157v-154h-157z" />
    <glyph glyph-name="at" unicode="@" horiz-adv-x="800" 
d="M291 319c0 -53 32 -89 78 -89c72 0 123 82 123 151c0 49 -34 85 -77 85c-72 0 -124 -81 -124 -147zM622 545l-63 -258c-8 -27 -16 -66 9 -66c57 0 118 77 118 184c0 159 -119 246 -271 246c-172 0 -283 -127 -283 -296c0 -175 123 -292 295 -292c84 0 163 30 215 82h84
c-68 -103 -180 -162 -305 -162c-213 0 -385 160 -385 374c0 211 172 374 380 374c182 0 348 -121 348 -305c0 -206 -171 -290 -235 -290c-42 0 -71 24 -73 57h-2c-24 -40 -66 -58 -108 -58c-86 0 -157 78 -157 171c0 126 86 255 218 255c43 0 94 -18 117 -70l16 54h82z" />
    <glyph glyph-name="A" unicode="A" horiz-adv-x="685" 
d="M-7 0l271 714h161l267 -714h-163l-54 159h-267l-56 -159h-159zM342 538l-93 -262h185l-90 262h-2z" />
    <glyph glyph-name="B" unicode="B" horiz-adv-x="704" 
d="M226 318v-196h168c62 0 116 20 116 94c0 73 -46 102 -113 102h-171zM69 0v714h336c136 0 228 -44 228 -177c0 -70 -35 -119 -97 -149c87 -25 131 -92 131 -181c0 -145 -123 -207 -252 -207h-346zM226 592v-167h159c55 0 96 25 96 85c0 68 -52 82 -108 82h-147z" />
    <glyph glyph-name="C" unicode="C" horiz-adv-x="741" 
d="M697 474h-152c-10 71 -78 125 -156 125c-141 0 -194 -120 -194 -245c0 -119 53 -239 194 -239c96 0 150 66 162 160h152c-16 -178 -139 -292 -314 -292c-221 0 -351 165 -351 371c0 212 130 377 351 377c157 0 289 -92 308 -257z" />
    <glyph glyph-name="D" unicode="D" horiz-adv-x="741" 
d="M69 0v714h308c185 0 324 -116 324 -353c0 -207 -106 -361 -324 -361h-308zM226 582v-450h140c91 0 178 56 178 214c0 144 -50 236 -206 236h-112z" />
    <glyph glyph-name="E" unicode="E" horiz-adv-x="648" 
d="M69 0v714h534v-132h-377v-153h346v-122h-346v-175h385v-132h-542z" />
    <glyph glyph-name="F" unicode="F" horiz-adv-x="593" 
d="M69 0v714h502v-132h-345v-165h299v-122h-299v-295h-157z" />
    <glyph glyph-name="G" unicode="G" horiz-adv-x="759" 
d="M601 0l-16 81c-55 -71 -127 -98 -196 -98c-221 0 -351 165 -351 371c0 212 130 377 351 377c146 0 284 -90 301 -252h-150c-18 79 -77 120 -151 120c-141 0 -194 -120 -194 -245c0 -119 53 -239 194 -239c102 0 161 55 170 154h-158v117h300v-386h-100z" />
    <glyph glyph-name="H" unicode="H" horiz-adv-x="741" 
d="M69 0v714h157v-274h289v274h157v-714h-157v308h-289v-308h-157z" />
    <glyph glyph-name="I" unicode="I" horiz-adv-x="295" 
d="M69 0v714h157v-714h-157z" />
    <glyph glyph-name="J" unicode="J" 
d="M487 714v-489c0 -92 -25 -242 -238 -242c-119 0 -235 65 -235 221v62h142v-32c0 -69 17 -119 91 -119c83 0 83 67 83 117v482h157z" />
    <glyph glyph-name="K" unicode="K" horiz-adv-x="722" 
d="M69 0v714h157v-296l279 296h196l-279 -282l306 -432h-197l-215 321l-90 -91v-230h-157z" />
    <glyph glyph-name="L" unicode="L" horiz-adv-x="593" 
d="M69 0v714h157v-582h348v-132h-505z" />
    <glyph glyph-name="M" unicode="M" horiz-adv-x="907" 
d="M69 0v714h221l167 -491h2l158 491h221v-714h-147v506h-2l-175 -506h-121l-175 501h-2v-501h-147z" />
    <glyph glyph-name="N" unicode="N" horiz-adv-x="741" 
d="M69 0v714h156l298 -479h2v479h147v-714h-157l-297 478h-2v-478h-147z" />
    <glyph glyph-name="O" unicode="O" horiz-adv-x="778" 
d="M38 354c0 212 130 377 351 377s351 -165 351 -377c0 -206 -130 -371 -351 -371s-351 165 -351 371zM195 354c0 -119 53 -239 194 -239s194 120 194 239c0 125 -53 245 -194 245s-194 -120 -194 -245z" />
    <glyph glyph-name="P" unicode="P" horiz-adv-x="667" 
d="M69 0v714h322c178 0 247 -113 247 -229s-69 -229 -247 -229h-165v-256h-157zM226 592v-214h122c73 0 138 16 138 107s-65 107 -138 107h-122z" />
    <glyph glyph-name="Q" unicode="Q" horiz-adv-x="778" 
d="M736 10l-73 -77l-101 92c-47 -27 -106 -42 -173 -42c-221 0 -351 165 -351 371c0 212 130 377 351 377s351 -165 351 -377c0 -103 -33 -195 -93 -263zM385 186l73 78l81 -74c26 36 44 90 44 164c0 125 -53 245 -194 245s-194 -120 -194 -245c0 -119 53 -239 194 -239
c23 0 52 0 63 10z" />
    <glyph glyph-name="R" unicode="R" horiz-adv-x="722" 
d="M69 0v714h385c128 0 209 -89 209 -197c0 -84 -34 -147 -113 -179v-2c77 -20 99 -95 104 -167c3 -45 2 -129 30 -169h-157c-19 45 -17 114 -25 171c-11 75 -40 108 -119 108h-157v-279h-157zM226 592v-201h172c70 0 108 30 108 102c0 69 -38 99 -108 99h-172z" />
    <glyph glyph-name="S" unicode="S" horiz-adv-x="649" 
d="M24 237h152c0 -95 74 -132 158 -132c55 0 139 16 139 89c0 77 -107 90 -212 118c-106 28 -213 69 -213 203c0 146 138 216 267 216c149 0 286 -65 286 -230h-152c-5 86 -66 108 -141 108c-50 0 -108 -21 -108 -81c0 -55 34 -62 213 -108c52 -13 212 -46 212 -208
c0 -131 -103 -229 -297 -229c-158 0 -306 78 -304 254z" />
    <glyph glyph-name="T" unicode="T" horiz-adv-x="611" 
d="M227 0v582h-214v132h585v-132h-214v-582h-157z" />
    <glyph glyph-name="U" unicode="U" horiz-adv-x="741" 
d="M675 714v-444c0 -193 -114 -287 -305 -287c-192 0 -304 93 -304 287v444h157v-444c0 -78 20 -155 147 -155c112 0 148 49 148 155v444h157z" />
    <glyph glyph-name="V" unicode="V" horiz-adv-x="630" 
d="M638 714l-237 -714h-177l-232 714h162l159 -502h2l161 502h162z" />
    <glyph glyph-name="W" unicode="W" horiz-adv-x="944" 
d="M941 714l-192 -714h-156l-121 486h-2l-119 -486h-159l-189 714h157l113 -486h2l124 486h147l122 -492h2l117 492h154z" />
    <glyph glyph-name="X" unicode="X" horiz-adv-x="667" 
d="M-6 0l250 374l-230 340h182l140 -228l145 228h172l-229 -341l249 -373h-187l-156 247l-159 -247h-177z" />
    <glyph glyph-name="Y" unicode="Y" horiz-adv-x="667" 
d="M254 0v278l-263 436h177l167 -282l166 282h175l-265 -440v-274h-157z" />
    <glyph glyph-name="Z" unicode="Z" horiz-adv-x="648" 
d="M23 0v124l383 458h-353v132h562v-124l-383 -458h393v-132h-602z" />
    <glyph glyph-name="bracketleft" unicode="[" horiz-adv-x="333" 
d="M68 -182v913h264v-112h-122v-689h122v-112h-264z" />
    <glyph glyph-name="backslash" unicode="\" horiz-adv-x="371" 
d="M103 731l279 -748h-114l-279 748h114z" />
    <glyph glyph-name="bracketright" unicode="]" horiz-adv-x="333" 
d="M265 731v-913h-264v112h122v689h-122v112h264z" />
    <glyph glyph-name="asciicircum" unicode="^" horiz-adv-x="600" 
d="M61 315l172 385h134l172 -385h-117l-122 275l-122 -275h-117z" />
    <glyph glyph-name="underscore" unicode="_" horiz-adv-x="500" 
d="M0 -125v50h500v-50h-500z" />
    <glyph glyph-name="quoteleft" unicode="&#x2018;" horiz-adv-x="278" 
d="M210 547v-154h-142v153c-3 89 59 157 142 168v-66c-51 -17 -66 -52 -66 -101h66z" />
    <glyph glyph-name="a" unicode="a" horiz-adv-x="574" 
d="M376 200v53c-24 -21 -74 -22 -118 -30c-44 -9 -84 -24 -84 -76c0 -53 41 -66 87 -66c111 0 115 88 115 119zM190 358h-142c8 133 127 173 243 173c103 0 227 -23 227 -147v-269c0 -47 5 -94 18 -115h-144c-5 16 -9 33 -10 50c-45 -47 -111 -64 -174 -64
c-98 0 -176 49 -176 155c0 117 88 145 176 157c87 13 168 10 168 68c0 61 -42 70 -92 70c-54 0 -89 -22 -94 -78z" />
    <glyph glyph-name="b" unicode="b" horiz-adv-x="611" 
d="M54 0v714h142v-260h2c35 53 99 77 163 77c103 0 214 -83 214 -272c0 -190 -111 -273 -214 -273c-76 0 -139 23 -170 80h-2v-66h-135zM433 258c0 87 -37 166 -121 166s-121 -79 -121 -166c0 -86 37 -165 121 -165s121 79 121 165z" />
    <glyph glyph-name="c" unicode="c" horiz-adv-x="574" 
d="M545 335h-139c-9 58 -46 89 -105 89c-91 0 -121 -92 -121 -168c0 -74 29 -163 118 -163c66 0 104 42 113 105h137c-18 -137 -113 -212 -249 -212c-156 0 -261 110 -261 265c0 161 96 280 264 280c122 0 234 -64 243 -196z" />
    <glyph glyph-name="d" unicode="d" horiz-adv-x="611" 
d="M423 0v66h-2c-33 -56 -91 -80 -157 -80c-156 0 -232 134 -232 277c0 139 77 268 229 268c61 0 121 -26 153 -77h2v260h142v-714h-135zM421 260c0 84 -30 164 -122 164c-93 0 -125 -80 -125 -165c0 -81 37 -166 125 -166c94 0 122 82 122 167z" />
    <glyph glyph-name="e" unicode="e" horiz-adv-x="574" 
d="M544 224h-373c4 -90 48 -131 127 -131c57 0 103 35 112 67h125c-40 -122 -125 -174 -242 -174c-163 0 -264 112 -264 272c0 155 107 273 264 273c176 0 261 -148 251 -307zM171 314h231c-13 72 -44 110 -113 110c-90 0 -116 -70 -118 -110z" />
    <glyph glyph-name="f" unicode="f" horiz-adv-x="333" 
d="M85 0v422h-85v95h85v40c0 91 57 157 173 157c25 0 51 -3 75 -4v-106c-17 2 -34 3 -52 3c-38 0 -54 -16 -54 -59v-31h98v-95h-98v-422h-142z" />
    <glyph glyph-name="g" unicode="g" horiz-adv-x="611" 
d="M551 517v-484c0 -85 -30 -229 -268 -229c-102 0 -221 48 -228 166h141c13 -53 56 -71 106 -71c79 0 115 54 114 128v68h-2c-31 -54 -93 -80 -155 -80c-155 0 -221 118 -221 260c0 134 77 256 222 256c68 0 120 -23 154 -83h2v69h135zM295 122c81 0 121 69 121 143
c0 84 -29 159 -121 159c-80 0 -115 -70 -115 -147c0 -74 28 -155 115 -155z" />
    <glyph glyph-name="h" unicode="h" horiz-adv-x="593" 
d="M54 0v714h142v-269h3c36 58 98 86 151 86c151 0 189 -85 189 -213v-318h-142v292c0 85 -25 127 -91 127c-77 0 -110 -43 -110 -148v-271h-142z" />
    <glyph glyph-name="i" unicode="i" horiz-adv-x="258" 
d="M58 0v517h142v-517h-142zM200 714v-117h-142v117h142z" />
    <glyph glyph-name="j" unicode="j" horiz-adv-x="278" 
d="M-19 -178v117c9 -3 19 -4 31 -4c29 0 55 7 55 46v536h142v-543c0 -106 -39 -156 -182 -156c-15 0 -31 2 -46 4zM209 714v-117h-142v117h142z" />
    <glyph glyph-name="k" unicode="k" horiz-adv-x="574" 
d="M67 0v714h142v-383l179 186h168l-195 -190l217 -327h-172l-142 231l-55 -53v-178h-142z" />
    <glyph glyph-name="l" unicode="l" horiz-adv-x="258" 
d="M58 0v714h142v-714h-142z" />
    <glyph glyph-name="m" unicode="m" horiz-adv-x="906" 
d="M58 0v517h134v-70h2c37 53 91 84 158 84c65 0 123 -24 151 -86c30 45 84 86 156 86c110 0 189 -51 189 -185v-346h-142v293c0 69 -6 126 -87 126c-80 0 -95 -66 -95 -131v-288h-142v290c0 60 4 129 -86 129c-28 0 -96 -18 -96 -119v-300h-142z" />
    <glyph glyph-name="n" unicode="n" horiz-adv-x="593" 
d="M54 0v517h135v-72h3c36 58 98 86 158 86c151 0 189 -85 189 -213v-318h-142v292c0 85 -25 127 -91 127c-77 0 -110 -43 -110 -148v-271h-142z" />
    <glyph glyph-name="o" unicode="o" horiz-adv-x="611" 
d="M38 258c0 165 105 273 267 273c163 0 268 -108 268 -273c0 -164 -105 -272 -268 -272c-162 0 -267 108 -267 272zM180 258c0 -82 29 -165 125 -165c97 0 126 83 126 165c0 83 -29 166 -126 166c-96 0 -125 -83 -125 -166z" />
    <glyph glyph-name="p" unicode="p" horiz-adv-x="611" 
d="M54 -182v699h135v-66h2c34 55 90 80 154 80c162 0 235 -131 235 -278c0 -138 -76 -267 -227 -267c-62 0 -121 27 -155 78h-2v-246h-142zM315 93c93 0 123 80 123 164c0 82 -33 167 -124 167c-93 0 -123 -83 -123 -167s32 -164 124 -164z" />
    <glyph glyph-name="q" unicode="q" horiz-adv-x="611" 
d="M558 517v-699h-142v247h-2c-33 -56 -101 -79 -163 -79c-95 0 -219 69 -219 269c0 142 75 276 232 276c64 0 125 -23 157 -80h2v66h135zM174 258c0 -83 30 -165 123 -165c92 0 124 78 124 163c0 81 -32 168 -121 168c-92 0 -126 -82 -126 -166z" />
    <glyph glyph-name="r" unicode="r" horiz-adv-x="389" 
d="M54 0v517h135v-96h2c26 65 96 110 165 110c10 0 22 -2 31 -5v-132c-13 3 -34 5 -51 5c-104 0 -140 -75 -140 -166v-233h-142z" />
    <glyph glyph-name="s" unicode="s" horiz-adv-x="537" 
d="M29 168h135c1 -62 53 -87 109 -87c41 0 93 16 93 66c0 43 -59 58 -161 80c-82 18 -164 47 -164 138c0 132 114 166 225 166c113 0 217 -38 228 -165h-135c-4 55 -46 70 -97 70c-32 0 -79 -6 -79 -48c0 -51 80 -58 161 -77c83 -19 164 -49 164 -145
c0 -136 -118 -180 -236 -180c-120 0 -237 45 -243 182z" />
    <glyph glyph-name="t" unicode="t" horiz-adv-x="352" 
d="M234 672v-155h104v-95h-104v-256c0 -48 12 -60 60 -60c15 0 29 1 44 4v-111c-24 -4 -55 -5 -83 -5c-87 0 -163 20 -163 123v305h-86v95h86v155h142z" />
    <glyph glyph-name="u" unicode="u" horiz-adv-x="593" 
d="M539 517v-517h-135v72h-3c-36 -58 -98 -86 -158 -86c-151 0 -189 85 -189 213v318h142v-292c0 -85 25 -127 91 -127c77 0 110 43 110 148v271h142z" />
    <glyph glyph-name="v" unicode="v" horiz-adv-x="520" 
d="M515 517l-175 -517h-158l-177 517h149l109 -353h2l109 353h141z" />
    <glyph glyph-name="w" unicode="w" horiz-adv-x="814" 
d="M808 517l-163 -517h-146l-92 347h-2l-88 -347h-147l-164 517h150l95 -351h2l86 351h138l88 -350h2l95 350h146z" />
    <glyph glyph-name="x" unicode="x" horiz-adv-x="537" 
d="M0 0l186 272l-170 245h162l91 -135l90 135h157l-170 -242l191 -275h-162l-108 163l-108 -163h-159z" />
    <glyph glyph-name="y" unicode="y" horiz-adv-x="519" 
d="M525 517l-216 -582c-31 -83 -80 -117 -178 -117c-29 0 -58 2 -87 5v117c27 -2 55 -6 83 -5c49 5 65 56 49 97l-182 485h152l117 -354h2l113 354h147z" />
    <glyph glyph-name="z" unicode="z" horiz-adv-x="519" 
d="M22 0v107l269 303h-249v107h436v-107l-269 -303h288v-107h-475z" />
    <glyph glyph-name="braceleft" unicode="{" horiz-adv-x="333" 
d="M333 731v-112h-54c-48 0 -54 -41 -54 -73v-152c0 -98 -69 -114 -99 -118v-3c30 -3 99 -26 99 -110v-160c0 -33 6 -73 54 -73h54v-112h-127c-45 0 -123 44 -123 135v195c0 61 -60 83 -92 83v87c32 0 92 23 92 90v188c0 91 78 135 123 135h127z" />
    <glyph glyph-name="bar" unicode="|" horiz-adv-x="223" 
d="M58 -214v1000h107v-1000h-107z" />
    <glyph glyph-name="braceright" unicode="}" horiz-adv-x="333" 
d="M0 -182v112h54c48 0 54 40 54 73v160c0 84 69 107 99 110v3c-30 4 -99 20 -99 118v152c0 32 -6 73 -54 73h-54v112h127c45 0 123 -44 123 -135v-188c0 -67 60 -90 92 -90v-87c-32 0 -92 -22 -92 -83v-195c0 -91 -78 -135 -123 -135h-127z" />
    <glyph glyph-name="asciitilde" unicode="~" horiz-adv-x="600" 
d="M493 344l40 -93c-30 -42 -63 -86 -125 -86c-37 0 -69 15 -102 33c-32 18 -69 35 -115 35c-44 0 -68 -37 -84 -72l-40 93c22 42 58 86 125 86c34 0 73 -15 111 -32c37 -16 75 -36 102 -36c40 0 65 37 88 72z" />
    <glyph glyph-name="exclamdown" unicode="&#xa1;" horiz-adv-x="278" 
d="M218 531v-154h-157v154h157zM65 -183v192l39 308h71l38 -308v-192h-148z" />
    <glyph glyph-name="cent" unicode="&#xa2;" 
d="M260 93v330c-71 -19 -97 -90 -97 -159c0 -71 22 -148 97 -171zM260 -115v101c-143 9 -239 122 -239 264c0 152 84 268 239 281v85h59v-85c110 -1 220 -77 224 -197h-139c-4 48 -40 86 -85 90v-331c49 9 86 59 87 110h139c-11 -127 -104 -207 -226 -217v-101h-59z" />
    <glyph glyph-name="sterling" unicode="&#xa3;" 
d="M88 -17l-62 93c56 36 113 93 113 166c0 22 -8 45 -19 67h-99v85h64c-20 25 -45 79 -45 138c0 106 88 199 256 199c151 0 244 -88 243 -250h-135c-3 39 -7 133 -109 133c-58 0 -98 -36 -98 -92c0 -31 1 -56 41 -128h133v-85h-105c6 -20 8 -40 8 -62
c0 -63 -38 -105 -82 -140l2 -2c32 20 49 23 68 23c27 0 53 -6 79 -11c26 -6 52 -12 78 -12c27 0 52 5 88 43l60 -101c-48 -46 -105 -64 -156 -64c-50 0 -81 8 -109 18c-29 10 -55 20 -99 20c-36 0 -76 -8 -115 -38z" />
    <glyph glyph-name="fraction" unicode="&#x2044;" horiz-adv-x="167" 
d="M-166 -22l414 744h85l-412 -744h-87z" />
    <glyph glyph-name="yen" unicode="&#xa5;" 
d="M359 0h-152v138h-157v95h157v46l-14 29h-143v95h95l-154 311h163l132 -311l129 311h162l-155 -311h95v-95h-143l-15 -29v-46h158v-95h-158v-138z" />
    <glyph glyph-name="florin" unicode="&#x192;" 
d="M-5 -167l19 107c13 -2 27 -3 40 -3c51 -1 64 25 72 71l63 329h-92l18 95h91l24 127c24 126 75 172 206 172c25 0 50 -2 75 -7l-18 -107c-15 6 -27 7 -40 7c-52 0 -68 -19 -76 -62l-25 -130h98l-16 -95h-100l-56 -310c-25 -134 -61 -197 -209 -197c-25 0 -46 1 -74 3z" />
    <glyph glyph-name="section" unicode="&#xa7;" 
d="M377 287l-165 93c-8 4 -17 11 -27 10c-29 -3 -51 -38 -51 -67c0 -19 10 -37 32 -49l180 -98c7 -3 18 -7 30 -7c26 0 46 33 46 55c0 30 -21 50 -45 63zM494 538h-124c0 49 -32 86 -85 86c-36 0 -76 -24 -76 -64c0 -56 87 -86 170 -126c84 -40 167 -89 167 -184
c0 -66 -42 -124 -104 -146c38 -29 55 -70 55 -118c0 -113 -112 -168 -213 -168c-127 0 -226 58 -225 194h124c3 -58 38 -87 98 -87c41 0 74 22 74 66c0 59 -82 89 -170 130c-87 41 -175 92 -175 190c0 72 40 122 107 146c-28 30 -43 59 -43 101c0 113 107 173 209 173
c118 0 211 -69 211 -193z" />
    <glyph glyph-name="currency" unicode="&#xa4;" 
d="M20 149l57 58c-31 36 -48 87 -48 142s15 111 48 144l-57 58l57 57l57 -56c33 28 90 46 146 46c53 0 107 -18 137 -45l58 57l61 -61l-56 -55c29 -32 45 -88 45 -143s-16 -109 -46 -146l55 -56l-55 -55l-57 58c-33 -32 -88 -50 -143 -50c-58 0 -112 17 -147 49l-56 -58z
M280 491c-84 0 -127 -68 -127 -142c0 -73 44 -140 126 -140s122 70 122 142c0 70 -40 140 -121 140z" />
    <glyph glyph-name="quotesingle" unicode="'" horiz-adv-x="278" 
d="M86 393v321h107v-321h-107z" />
    <glyph glyph-name="quotedblleft" unicode="&#x201c;" horiz-adv-x="463" 
d="M409 547v-154h-142v153c-3 89 59 157 142 168v-66c-51 -17 -66 -52 -66 -101h66zM196 547v-154h-142v153c-3 89 59 157 142 168v-66c-51 -17 -66 -52 -66 -101h66z" />
    <glyph glyph-name="guillemotleft" unicode="&#xab;" horiz-adv-x="444" 
d="M402 80l-157 125v135l157 123v-120l-90 -71l90 -72v-120zM199 80l-157 125v135l157 123v-120l-90 -71l90 -72v-120z" />
    <glyph glyph-name="guilsinglleft" unicode="&#x2039;" horiz-adv-x="241" 
d="M199 80l-157 125v135l157 123v-120l-90 -71l90 -72v-120z" />
    <glyph glyph-name="guilsinglright" unicode="&#x203a;" horiz-adv-x="241" 
d="M42 463l157 -123v-135l-157 -125v120l90 72l-90 71v120z" />
    <glyph glyph-name="endash" unicode="&#x2013;" horiz-adv-x="500" 
d="M0 212v122h500v-122h-500z" />
    <glyph glyph-name="dagger" unicode="&#x2020;" 
d="M210 -166v566h-186v117h186v197h135v-197h187v-117h-187v-566h-135z" />
    <glyph glyph-name="daggerdbl" unicode="&#x2021;" 
d="M210 -166v193h-186v117h186v256h-186v117h186v197h135v-197h187v-117h-187v-256h187v-117h-187v-193h-135z" />
    <glyph glyph-name="periodcentered" unicode="&#xb7;" horiz-adv-x="278" 
d="M55 287c0 47 39 85 85 85c45 0 84 -39 84 -85c0 -42 -39 -84 -83 -84c-47 0 -86 38 -86 84z" />
    <glyph glyph-name="paragraph" unicode="&#xb6;" horiz-adv-x="620" 
d="M221 -166v523c-139 0 -219 69 -219 175c0 140 101 182 240 182h293v-880h-102v800h-110v-800h-102z" />
    <glyph glyph-name="bullet" unicode="&#x2022;" horiz-adv-x="501" 
d="M72 357c0 99 79 178 178 178s179 -79 179 -178s-80 -179 -179 -179s-178 80 -178 179z" />
    <glyph glyph-name="quotesinglbase" unicode="&#x201a;" horiz-adv-x="278" 
d="M68 0v154h142v-153c3 -89 -59 -157 -142 -168v66c51 17 66 52 66 101h-66z" />
    <glyph glyph-name="quotedblbase" unicode="&#x201e;" horiz-adv-x="463" 
d="M267 0v154h142v-153c3 -89 -59 -157 -142 -168v66c51 17 66 52 66 101h-66zM54 0v154h142v-153c3 -89 -59 -157 -142 -168v66c51 17 66 52 66 101h-66z" />
    <glyph glyph-name="quotedblright" unicode="&#x201d;" horiz-adv-x="463" 
d="M267 560v154h142v-153c3 -89 -59 -157 -142 -168v66c51 17 66 52 66 101h-66zM54 560v154h142v-153c3 -89 -59 -157 -142 -168v66c51 17 66 52 66 101h-66z" />
    <glyph glyph-name="guillemotright" unicode="&#xbb;" horiz-adv-x="444" 
d="M245 463l157 -123v-135l-157 -125v120l90 72l-90 71v120zM42 463l157 -123v-135l-157 -125v120l90 72l-90 71v120z" />
    <glyph glyph-name="ellipsis" unicode="&#x2026;" horiz-adv-x="1000" 
d="M88 0v154h157v-154h-157zM421 0v154h157v-154h-157zM754 0v154h157v-154h-157z" />
    <glyph glyph-name="perthousand" unicode="&#x2030;" horiz-adv-x="1147" 
d="M530 172c0 -57 3 -121 56 -121c57 0 56 59 56 107c0 52 -1 107 -54 107c-56 0 -58 -55 -58 -93zM440 155c0 94 43 175 147 175c109 0 145 -77 145 -174s-43 -170 -146 -170c-93 0 -146 69 -146 169zM786 155c0 94 43 175 147 175c109 0 145 -77 145 -174
s-43 -170 -146 -170c-93 0 -146 69 -146 169zM876 172c0 -57 3 -121 56 -121c57 0 56 59 56 107c0 52 -1 107 -54 107c-56 0 -58 -55 -58 -93zM69 539c0 94 43 175 147 175c109 0 145 -77 145 -174s-43 -170 -146 -170c-93 0 -146 69 -146 169zM159 556
c0 -57 3 -121 56 -121c57 0 56 59 56 107c0 52 -1 107 -54 107c-56 0 -58 -55 -58 -93zM150 -22l414 744h85l-412 -744h-87z" />
    <glyph glyph-name="questiondown" unicode="&#xbf;" 
d="M375 51h147c-3 -143 -97 -247 -241 -247c-189 0 -249 116 -249 193c0 97 41 136 84 169c43 32 89 58 98 117v38h135v-45c-6 -87 -47 -126 -87 -157c-39 -31 -73 -54 -73 -108c0 -61 32 -90 85 -90c70 0 100 59 101 130zM363 531v-154h-157v154h157z" />
    <glyph glyph-name="grave" unicode="`" horiz-adv-x="259" 
d="M106 581l-154 142h157l96 -142h-99z" />
    <glyph glyph-name="acute" unicode="&#xb4;" horiz-adv-x="259" 
d="M307 723l-154 -142h-99l96 142h157z" />
    <glyph glyph-name="circumflex" unicode="&#x2c6;" horiz-adv-x="259" 
d="M-46 581l111 142h130l110 -142h-117l-62 81l-64 -81h-108z" />
    <glyph glyph-name="tilde" unicode="&#x2dc;" horiz-adv-x="259" 
d="M244 714h69c-7 -23 -15 -51 -31 -74s-40 -40 -81 -40c-30 0 -57 9 -82 17c-25 9 -47 17 -70 17c-27 0 -36 -17 -42 -42h-61c13 58 38 122 126 122c23 0 43 -9 64 -17c21 -9 43 -18 66 -18c30 0 43 16 42 35z" />
    <glyph glyph-name="macron" unicode="&#xaf;" horiz-adv-x="259" 
d="M-57 616v75h373v-75h-373z" />
    <glyph glyph-name="breve" unicode="&#x2d8;" horiz-adv-x="259" 
d="M-39 727h65c7 -54 60 -71 99 -71c59 0 98 20 110 71h63c-13 -102 -80 -146 -178 -146c-96 0 -151 50 -159 146z" />
    <glyph glyph-name="dotaccent" unicode="&#x2d9;" horiz-adv-x="259" 
d="M62 597v117h135v-117h-135z" />
    <glyph glyph-name="dieresis" unicode="&#xa8;" horiz-adv-x="259" 
d="M165 597v117h135v-117h-135zM-41 597v117h135v-117h-135z" />
    <glyph glyph-name="ring" unicode="&#x2da;" horiz-adv-x="259" 
d="M66 656c0 -39 25 -70 63 -70s64 31 64 70s-26 70 -64 70s-63 -31 -63 -70zM7 656c0 67 55 122 122 122c68 0 123 -55 123 -122s-55 -122 -123 -122c-67 0 -122 55 -122 122z" />
    <glyph glyph-name="cedilla" unicode="&#xb8;" horiz-adv-x="259" 
d="M12 -196l21 48c21 -9 50 -18 84 -18c24 0 40 10 40 34c0 25 -18 32 -40 32c-14 0 -29 -3 -40 -7l-21 24l59 85h49l-39 -55h2c6 3 17 5 34 5c45 0 92 -21 92 -70c0 -78 -58 -100 -117 -100c-63 0 -86 9 -124 22z" />
    <glyph glyph-name="hungarumlaut" unicode="&#x2dd;" horiz-adv-x="259" 
d="M192 723l-149 -142h-99l91 142h157zM399 723l-149 -142h-99l91 142h157z" />
    <glyph glyph-name="ogonek" unicode="&#x2db;" horiz-adv-x="259" 
d="M202 -128l48 -22c-40 -51 -89 -68 -134 -68c-25 0 -107 6 -107 90c0 18 2 64 114 131h65c-64 -58 -83 -93 -83 -127c0 -20 19 -34 39 -34c21 0 40 5 58 30z" />
    <glyph glyph-name="caron" unicode="&#x2c7;" horiz-adv-x="259" 
d="M305 723l-110 -142h-130l-111 142h112l64 -81l65 81h110z" />
    <glyph glyph-name="emdash" unicode="&#x2014;" horiz-adv-x="1000" 
d="M130 212v122h740v-122h-740z" />
    <glyph glyph-name="AE" unicode="&#xc6;" horiz-adv-x="981" 
d="M418 582l-138 -306h172v306h-34zM-11 0l341 714h606v-132h-332v-153h312v-122h-312v-175h340v-132h-492v159h-224l-72 -159h-167z" />
    <glyph glyph-name="ordfeminine" unicode="&#xaa;" horiz-adv-x="344" 
d="M230 515v20c-14 -13 -47 -14 -67 -18c-28 -6 -51 -15 -51 -40c0 -29 26 -37 45 -37c66 0 73 44 73 75zM122 605h-102c6 44 27 71 55 87s64 22 101 22c70 0 150 -14 150 -89v-166c0 -33 4 -61 12 -75h-101c-4 11 -6 21 -7 31c-29 -30 -72 -40 -108 -40
c-62 0 -112 29 -112 100c0 73 57 90 114 97c60 7 107 6 107 38c0 34 -27 39 -60 39c-23 0 -46 -13 -49 -44z" />
    <glyph glyph-name="Lslash" unicode="&#x141;" horiz-adv-x="593" 
d="M69 0v214l-80 -56v112l80 56v388h157v-278l211 148v-112l-211 -148v-192h348v-132h-505z" />
    <glyph glyph-name="Oslash" unicode="&#xd8;" horiz-adv-x="778" 
d="M34 10l86 95c-54 66 -82 153 -82 249c0 212 130 377 351 377c92 0 168 -28 225 -77l80 89l50 -44l-84 -93c52 -66 80 -154 80 -252c0 -206 -130 -371 -351 -371c-92 0 -168 29 -223 76l-83 -92zM223 219l296 329c-30 31 -73 51 -130 51c-141 0 -194 -120 -194 -245
c0 -47 8 -94 28 -135zM556 490l-295 -326c30 -30 72 -49 128 -49c141 0 194 120 194 239c0 48 -8 95 -27 136z" />
    <glyph glyph-name="OE" unicode="&#x152;" horiz-adv-x="1093" 
d="M544 0v54h-2c-42 -46 -110 -71 -172 -71c-211 0 -332 172 -332 370s124 378 335 378c62 0 130 -18 169 -68h2v51h500v-132h-354v-153h324v-122h-324v-175h361v-132h-507zM538 278v170c0 90 -65 151 -154 151c-139 0 -189 -125 -189 -244c0 -117 52 -240 186 -240
c96 0 157 66 157 163z" />
    <glyph glyph-name="ordmasculine" unicode="&#xba;" horiz-adv-x="367" 
d="M12 544c0 105 68 170 171 170c104 0 172 -65 172 -170s-68 -169 -172 -169c-103 0 -171 64 -171 169zM119 544c0 -44 19 -94 64 -94c46 0 65 50 65 94c0 46 -19 95 -65 95c-45 0 -64 -49 -64 -95z" />
    <glyph glyph-name="ae" unicode="&#xe6;" horiz-adv-x="907" 
d="M385 188v64c-27 -22 -78 -24 -122 -32c-42 -8 -83 -22 -83 -72c0 -52 45 -67 88 -67c52 0 117 31 117 107zM878 224h-369c-2 -68 44 -143 123 -143c62 0 94 30 103 81h138c-28 -110 -126 -176 -238 -176c-74 0 -149 25 -193 88c-48 -63 -134 -88 -211 -88
c-98 0 -193 40 -193 154c0 118 87 145 173 158c121 18 174 19 174 72c0 54 -46 66 -92 66c-54 0 -97 -20 -99 -80h-142c5 130 123 175 244 175c60 0 135 -16 171 -70c40 47 91 70 173 70c173 0 238 -146 238 -307zM509 314h227c1 63 -40 122 -111 122
c-73 0 -115 -59 -116 -122z" />
    <glyph glyph-name="dotlessi" unicode="&#x131;" horiz-adv-x="258" 
d="M58 0v517h142v-517h-142z" />
    <glyph glyph-name="lslash" unicode="&#x142;" horiz-adv-x="258" 
d="M58 0v286l-67 -53v102l67 53v326h142v-214l67 53v-102l-67 -53v-398h-142z" />
    <glyph glyph-name="oslash" unicode="&#xf8;" horiz-adv-x="611" 
d="M195 172l193 220c-19 20 -46 32 -83 32c-96 0 -125 -83 -125 -166c0 -30 4 -61 15 -86zM415 349l-195 -222c19 -21 47 -34 85 -34c97 0 126 83 126 165c0 32 -5 64 -16 91zM44 1l60 68c-43 47 -66 112 -66 189c0 165 105 273 267 273c64 0 119 -17 163 -48l53 61l37 -32
l-54 -61c44 -47 69 -114 69 -193c0 -164 -105 -272 -268 -272c-65 0 -120 17 -165 50l-59 -67z" />
    <glyph glyph-name="oe" unicode="&#x153;" horiz-adv-x="926" 
d="M528 314h227c-3 66 -40 110 -115 110c-71 0 -109 -49 -112 -110zM290 93c95 0 114 92 114 167c0 69 -16 164 -111 164c-87 0 -113 -89 -113 -168c0 -71 25 -163 110 -163zM897 224h-369c0 -74 40 -131 123 -131c52 0 85 24 104 71h138c-33 -112 -125 -178 -242 -178
c-72 0 -147 24 -187 88c-36 -63 -114 -88 -183 -88c-160 0 -243 128 -243 275c0 152 100 270 254 270c67 0 141 -22 178 -82c36 53 111 82 173 82c183 0 254 -142 254 -307z" />
    <glyph glyph-name="germandbls" unicode="&#xdf;" horiz-adv-x="611" 
d="M56 0v491c-1 112 36 240 235 240c119 0 227 -60 227 -192c0 -62 -37 -122 -93 -139v-2c87 -19 130 -93 130 -179c0 -124 -90 -233 -217 -233c-27 0 -55 2 -82 6v116c13 -4 27 -5 41 -5c68 0 116 54 116 121c0 71 -38 122 -122 122c-11 0 -23 -1 -35 -2v94
c8 -1 15 -2 22 -2c54 0 105 27 105 89c0 84 -66 89 -96 89c-57 0 -89 -39 -89 -98v-516h-142z" />
    <glyph glyph-name="onesuperior" unicode="&#xb9;" horiz-adv-x="392" 
d="M289 705v-432h-102v274h-110v75c64 -2 119 19 128 83h84z" />
    <glyph glyph-name="logicalnot" unicode="&#xac;" horiz-adv-x="600" 
d="M552 406v-307h-107v200h-397v107h504z" />
    <glyph glyph-name="mu" unicode="&#xb5;" horiz-adv-x="593" 
d="M539 517v-517h-135v72h-3c-36 -58 -98 -86 -130 -86c-40 0 -63 11 -75 24v-192h-142v699h142v-292c0 -85 25 -127 91 -127c77 0 110 43 110 148v271h142z" />
    <glyph glyph-name="trademark" unicode="&#x2122;" horiz-adv-x="1000" 
d="M928 714v-412h-96v292h-2l-106 -292h-69l-106 292h-2v-292h-96v412h136l103 -271l103 271h135zM398 714v-80h-117v-332h-102v332h-117v80h336z" />
    <glyph glyph-name="Eth" unicode="&#xd0;" horiz-adv-x="741" 
d="M69 0v311h-66v116h66v287h308c185 0 324 -116 324 -353c0 -207 -106 -361 -324 -361h-308zM226 582v-155h160v-117h-160v-178h140c91 0 178 56 178 214c0 144 -50 236 -206 236h-112z" />
    <glyph glyph-name="onehalf" unicode="&#xbd;" horiz-adv-x="889" 
d="M152 -22l414 744h85l-412 -744h-87zM236 705v-432h-102v274h-110v75c64 -2 119 19 128 83h84zM611 267h-102c-1 103 58 174 181 174c83 0 156 -46 156 -135c0 -63 -36 -98 -81 -128c-45 -29 -98 -52 -132 -98h209v-80h-334c1 106 62 147 140 196c40 26 95 51 96 103
c0 35 -24 62 -61 62c-56 0 -74 -54 -72 -94z" />
    <glyph glyph-name="plusminus" unicode="&#xb1;" horiz-adv-x="600" 
d="M354 506v-131h199v-107h-199v-131h-107v131h-199v107h199v131h107zM48 0v107h505v-107h-505z" />
    <glyph glyph-name="Thorn" unicode="&#xde;" horiz-adv-x="667" 
d="M69 0v714h157v-97h165c178 0 247 -113 247 -229s-69 -229 -247 -229h-165v-159h-157zM226 495v-214h122c73 0 138 16 138 107s-65 107 -138 107h-122z" />
    <glyph glyph-name="onequarter" unicode="&#xbc;" horiz-adv-x="892" 
d="M689 0v89h-192v93l188 238h100v-251h57v-80h-57v-89h-96zM689 169v144h-2l-114 -144h116zM152 -22l414 744h85l-412 -744h-87zM236 705v-432h-102v274h-110v75c64 -2 119 19 128 83h84z" />
    <glyph glyph-name="divide" unicode="&#xf7;" horiz-adv-x="600" 
d="M48 199v107h505v-107h-505zM216 460c0 47 39 85 85 85c45 0 84 -39 84 -85c0 -42 -39 -84 -83 -84c-47 0 -86 38 -86 84zM216 45c0 47 39 84 85 84c45 0 84 -38 84 -84c0 -42 -39 -85 -83 -85c-47 0 -86 39 -86 85z" />
    <glyph glyph-name="brokenbar" unicode="&#xa6;" horiz-adv-x="223" 
d="M58 -89v250h107v-250h-107zM165 661v-250h-107v250h107z" />
    <glyph glyph-name="degree" unicode="&#xb0;" horiz-adv-x="400" 
d="M52 566c0 82 66 148 148 148s148 -66 148 -148s-66 -148 -148 -148s-148 66 -148 148zM117 566c0 -48 40 -88 83 -88s83 40 83 88s-40 88 -83 88s-83 -40 -83 -88z" />
    <glyph glyph-name="thorn" unicode="&#xfe;" horiz-adv-x="611" 
d="M54 -182v896h142v-263h2c34 55 90 80 147 80c162 0 235 -131 235 -278c0 -138 -76 -267 -227 -267c-62 0 -121 27 -155 78h-2v-246h-142zM438 257c0 82 -33 167 -124 167c-93 0 -123 -83 -123 -167s32 -164 124 -164c93 0 123 80 123 164z" />
    <glyph glyph-name="threequarters" unicode="&#xbe;" horiz-adv-x="889" 
d="M709 0v89h-192v93l188 238h100v-251h57v-80h-57v-89h-96zM709 169v144h-2l-114 -144h116zM239 -22l414 744h85l-412 -744h-87zM181 464v70c38 0 95 0 95 47c0 33 -30 53 -62 53c-43 0 -68 -32 -67 -72h-96c3 93 63 152 162 152c79 0 159 -41 159 -123
c0 -40 -22 -75 -66 -86v-2c50 -9 81 -48 81 -94c0 -96 -80 -145 -173 -145c-108 0 -177 56 -175 160h96c2 -43 27 -80 77 -80c40 0 73 26 73 63c0 57 -61 57 -104 57z" />
    <glyph glyph-name="twosuperior" unicode="&#xb2;" horiz-adv-x="392" 
d="M130 540h-102c-1 103 58 174 181 174c83 0 156 -46 156 -135c0 -63 -36 -98 -81 -128c-45 -29 -98 -52 -132 -98h209v-80h-334c1 106 62 147 140 196c40 26 95 51 96 103c0 35 -24 62 -61 62c-56 0 -74 -54 -72 -94z" />
    <glyph glyph-name="registered" unicode="&#xae;" horiz-adv-x="800" 
d="M16 358c0 227 181 373 384 373s384 -146 384 -373c0 -228 -181 -375 -384 -375s-384 147 -384 375zM118 358c0 -171 125 -295 282 -295c155 0 282 124 282 295c0 170 -127 293 -282 293c-157 0 -282 -123 -282 -293zM251 149v419h158c105 0 164 -33 164 -124
c0 -77 -48 -107 -110 -112l112 -183h-87l-102 179h-52v-179h-83zM334 503v-110h74c47 0 82 7 82 58c0 45 -48 52 -86 52h-70z" />
    <glyph glyph-name="minus" unicode="&#x2212;" horiz-adv-x="600" 
d="M48 199v107h505v-107h-505z" />
    <glyph glyph-name="eth" unicode="&#xf0;" horiz-adv-x="611" 
d="M305 93c97 0 126 83 126 165c0 74 -35 153 -127 153c-93 0 -124 -80 -124 -153c0 -82 29 -165 125 -165zM133 593l107 54c-28 20 -56 37 -84 50l92 69c36 -20 69 -42 99 -66l123 62l52 -59l-114 -57c106 -102 168 -219 165 -373c0 -164 -105 -287 -268 -287
c-162 0 -267 108 -267 261c0 123 70 259 230 259c38 0 89 -8 135 -40h2c-24 56 -69 98 -102 127l-112 -56z" />
    <glyph glyph-name="multiply" unicode="&#xd7;" horiz-adv-x="600" 
d="M140 17l-76 76l161 160l-159 160l76 76l159 -160l160 160l76 -76l-161 -160l161 -160l-76 -76l-160 161z" />
    <glyph glyph-name="threesuperior" unicode="&#xb3;" horiz-adv-x="392" 
d="M164 464v70c38 0 95 0 95 47c0 33 -30 53 -62 53c-43 0 -68 -32 -67 -72h-96c3 93 63 152 162 152c79 0 159 -41 159 -123c0 -40 -22 -75 -66 -86v-2c50 -9 81 -48 81 -94c0 -96 -80 -145 -173 -145c-108 0 -177 56 -175 160h96c2 -43 27 -80 77 -80c40 0 73 26 73 63
c0 57 -61 57 -104 57z" />
    <glyph glyph-name="copyright" unicode="&#xa9;" horiz-adv-x="800" 
d="M16 357c0 228 181 374 384 374s384 -146 384 -374c0 -227 -181 -374 -384 -374s-384 147 -384 374zM118 357c0 -170 125 -294 282 -294c155 0 282 124 282 294c0 171 -127 294 -282 294c-157 0 -282 -123 -282 -294zM515 295h81c-16 -100 -93 -158 -182 -158
c-130 0 -215 97 -215 222c0 129 80 224 213 224c92 0 167 -54 181 -155h-78c-10 47 -51 75 -103 75c-76 0 -117 -60 -117 -142c0 -78 46 -144 119 -144c55 0 95 30 101 78z" />
    <glyph glyph-name="Aacute" unicode="&#xc1;" horiz-adv-x="685" 
d="M-7 0l271 714h161l267 -714h-163l-54 159h-267l-56 -159h-159zM342 538l-93 -262h185l-90 262h-2zM520 920l-154 -142h-99l96 142h157z" />
    <glyph glyph-name="Acircumflex" unicode="&#xc2;" horiz-adv-x="685" 
d="M-7 0l271 714h161l267 -714h-163l-54 159h-267l-56 -159h-159zM342 538l-93 -262h185l-90 262h-2zM167 778l111 142h130l110 -142h-117l-62 81l-64 -81h-108z" />
    <glyph glyph-name="Adieresis" unicode="&#xc4;" horiz-adv-x="685" 
d="M-7 0l271 714h161l267 -714h-163l-54 159h-267l-56 -159h-159zM342 538l-93 -262h185l-90 262h-2zM378 794v117h135v-117h-135zM172 794v117h135v-117h-135z" />
    <glyph glyph-name="Agrave" unicode="&#xc0;" horiz-adv-x="685" 
d="M-7 0l271 714h161l267 -714h-163l-54 159h-267l-56 -159h-159zM342 538l-93 -262h185l-90 262h-2zM319 778l-154 142h157l96 -142h-99z" />
    <glyph glyph-name="Aring" unicode="&#xc5;" horiz-adv-x="685" 
d="M-7 0l271 714h161l267 -714h-163l-54 159h-267l-56 -159h-159zM342 538l-93 -262h185l-90 262h-2zM279 853c0 -39 25 -70 63 -70s64 31 64 70s-26 70 -64 70s-63 -31 -63 -70zM220 853c0 67 55 122 122 122c68 0 123 -55 123 -122s-55 -122 -123 -122
c-67 0 -122 55 -122 122z" />
    <glyph glyph-name="Atilde" unicode="&#xc3;" horiz-adv-x="685" 
d="M-7 0l271 714h161l267 -714h-163l-54 159h-267l-56 -159h-159zM342 538l-93 -262h185l-90 262h-2zM457 911h69c-7 -23 -15 -51 -31 -74s-40 -40 -81 -40c-30 0 -57 9 -82 17c-25 9 -47 17 -70 17c-27 0 -36 -17 -42 -42h-61c13 58 38 122 126 122c23 0 43 -9 64 -17
c21 -9 43 -18 66 -18c30 0 43 16 42 35z" />
    <glyph glyph-name="Ccedilla" unicode="&#xc7;" horiz-adv-x="741" 
d="M697 474h-152c-10 71 -78 125 -156 125c-141 0 -194 -120 -194 -245c0 -119 53 -239 194 -239c96 0 150 66 162 160h152c-16 -177 -137 -290 -311 -292l-26 -36h2c6 3 17 5 34 5c45 0 92 -21 92 -70c0 -78 -58 -100 -117 -100c-63 0 -86 9 -124 22l21 48
c21 -9 50 -18 84 -18c24 0 40 10 40 34c0 25 -18 32 -40 32c-14 0 -29 -3 -40 -7l-21 24l48 69c-194 20 -307 176 -307 368c0 212 130 377 351 377c157 0 289 -92 308 -257z" />
    <glyph glyph-name="Eacute" unicode="&#xc9;" horiz-adv-x="648" 
d="M69 0v714h534v-132h-377v-153h346v-122h-346v-175h385v-132h-542zM502 920l-154 -142h-99l96 142h157z" />
    <glyph glyph-name="Ecircumflex" unicode="&#xca;" horiz-adv-x="648" 
d="M69 0v714h534v-132h-377v-153h346v-122h-346v-175h385v-132h-542zM149 778l111 142h130l110 -142h-117l-62 81l-64 -81h-108z" />
    <glyph glyph-name="Edieresis" unicode="&#xcb;" horiz-adv-x="648" 
d="M69 0v714h534v-132h-377v-153h346v-122h-346v-175h385v-132h-542zM360 794v117h135v-117h-135zM154 794v117h135v-117h-135z" />
    <glyph glyph-name="Egrave" unicode="&#xc8;" horiz-adv-x="648" 
d="M69 0v714h534v-132h-377v-153h346v-122h-346v-175h385v-132h-542zM301 778l-154 142h157l96 -142h-99z" />
    <glyph glyph-name="Iacute" unicode="&#xcd;" horiz-adv-x="295" 
d="M69 0v714h157v-714h-157zM325 920l-154 -142h-99l96 142h157z" />
    <glyph glyph-name="Icircumflex" unicode="&#xce;" horiz-adv-x="295" 
d="M69 0v714h157v-714h-157zM-28 778l111 142h130l110 -142h-117l-62 81l-64 -81h-108z" />
    <glyph glyph-name="Idieresis" unicode="&#xcf;" horiz-adv-x="295" 
d="M69 0v714h157v-714h-157zM183 794v117h135v-117h-135zM-23 794v117h135v-117h-135z" />
    <glyph glyph-name="Igrave" unicode="&#xcc;" horiz-adv-x="295" 
d="M69 0v714h157v-714h-157zM124 778l-154 142h157l96 -142h-99z" />
    <glyph glyph-name="Ntilde" unicode="&#xd1;" horiz-adv-x="741" 
d="M69 0v714h156l298 -479h2v479h147v-714h-157l-297 478h-2v-478h-147zM485 911h69c-7 -23 -15 -51 -31 -74s-40 -40 -81 -40c-30 0 -57 9 -82 17c-25 9 -47 17 -70 17c-27 0 -36 -17 -42 -42h-61c13 58 38 122 126 122c23 0 43 -9 64 -17c21 -9 43 -18 66 -18
c30 0 43 16 42 35z" />
    <glyph glyph-name="Oacute" unicode="&#xd3;" horiz-adv-x="778" 
d="M38 354c0 212 130 377 351 377s351 -165 351 -377c0 -206 -130 -371 -351 -371s-351 165 -351 371zM195 354c0 -119 53 -239 194 -239s194 120 194 239c0 125 -53 245 -194 245s-194 -120 -194 -245zM567 920l-154 -142h-99l96 142h157z" />
    <glyph glyph-name="Ocircumflex" unicode="&#xd4;" horiz-adv-x="778" 
d="M38 354c0 212 130 377 351 377s351 -165 351 -377c0 -206 -130 -371 -351 -371s-351 165 -351 371zM195 354c0 -119 53 -239 194 -239s194 120 194 239c0 125 -53 245 -194 245s-194 -120 -194 -245zM214 778l111 142h130l110 -142h-117l-62 81l-64 -81h-108z" />
    <glyph glyph-name="Odieresis" unicode="&#xd6;" horiz-adv-x="778" 
d="M38 354c0 212 130 377 351 377s351 -165 351 -377c0 -206 -130 -371 -351 -371s-351 165 -351 371zM195 354c0 -119 53 -239 194 -239s194 120 194 239c0 125 -53 245 -194 245s-194 -120 -194 -245zM425 794v117h135v-117h-135zM219 794v117h135v-117h-135z" />
    <glyph glyph-name="Ograve" unicode="&#xd2;" horiz-adv-x="778" 
d="M38 354c0 212 130 377 351 377s351 -165 351 -377c0 -206 -130 -371 -351 -371s-351 165 -351 371zM195 354c0 -119 53 -239 194 -239s194 120 194 239c0 125 -53 245 -194 245s-194 -120 -194 -245zM366 778l-154 142h157l96 -142h-99z" />
    <glyph glyph-name="Otilde" unicode="&#xd5;" horiz-adv-x="778" 
d="M38 354c0 212 130 377 351 377s351 -165 351 -377c0 -206 -130 -371 -351 -371s-351 165 -351 371zM195 354c0 -119 53 -239 194 -239s194 120 194 239c0 125 -53 245 -194 245s-194 -120 -194 -245zM504 911h69c-7 -23 -15 -51 -31 -74s-40 -40 -81 -40
c-30 0 -57 9 -82 17c-25 9 -47 17 -70 17c-27 0 -36 -17 -42 -42h-61c13 58 38 122 126 122c23 0 43 -9 64 -17c21 -9 43 -18 66 -18c30 0 43 16 42 35z" />
    <glyph glyph-name="Scaron" unicode="&#x160;" horiz-adv-x="649" 
d="M24 237h152c0 -95 74 -132 158 -132c55 0 139 16 139 89c0 77 -107 90 -212 118c-106 28 -213 69 -213 203c0 146 138 216 267 216c149 0 286 -65 286 -230h-152c-5 86 -66 108 -141 108c-50 0 -108 -21 -108 -81c0 -55 34 -62 213 -108c52 -13 212 -46 212 -208
c0 -131 -103 -229 -297 -229c-158 0 -306 78 -304 254zM500 920l-110 -142h-130l-111 142h112l64 -81l65 81h110z" />
    <glyph glyph-name="Uacute" unicode="&#xda;" horiz-adv-x="741" 
d="M675 714v-444c0 -193 -114 -287 -305 -287c-192 0 -304 93 -304 287v444h157v-444c0 -78 20 -155 147 -155c112 0 148 49 148 155v444h157zM548 920l-154 -142h-99l96 142h157z" />
    <glyph glyph-name="Ucircumflex" unicode="&#xdb;" horiz-adv-x="741" 
d="M675 714v-444c0 -193 -114 -287 -305 -287c-192 0 -304 93 -304 287v444h157v-444c0 -78 20 -155 147 -155c112 0 148 49 148 155v444h157zM195 778l111 142h130l110 -142h-117l-62 81l-64 -81h-108z" />
    <glyph glyph-name="Udieresis" unicode="&#xdc;" horiz-adv-x="741" 
d="M675 714v-444c0 -193 -114 -287 -305 -287c-192 0 -304 93 -304 287v444h157v-444c0 -78 20 -155 147 -155c112 0 148 49 148 155v444h157zM406 794v117h135v-117h-135zM200 794v117h135v-117h-135z" />
    <glyph glyph-name="Ugrave" unicode="&#xd9;" horiz-adv-x="741" 
d="M675 714v-444c0 -193 -114 -287 -305 -287c-192 0 -304 93 -304 287v444h157v-444c0 -78 20 -155 147 -155c112 0 148 49 148 155v444h157zM347 778l-154 142h157l96 -142h-99z" />
    <glyph glyph-name="Yacute" unicode="&#xdd;" horiz-adv-x="667" 
d="M254 0v278l-263 436h177l167 -282l166 282h175l-265 -440v-274h-157zM511 920l-154 -142h-99l96 142h157z" />
    <glyph glyph-name="Ydieresis" unicode="&#x178;" horiz-adv-x="667" 
d="M254 0v278l-263 436h177l167 -282l166 282h175l-265 -440v-274h-157zM369 794v117h135v-117h-135zM163 794v117h135v-117h-135z" />
    <glyph glyph-name="Zcaron" unicode="&#x17d;" horiz-adv-x="648" 
d="M23 0v124l383 458h-353v132h562v-124l-383 -458h393v-132h-602zM500 920l-110 -142h-130l-111 142h112l64 -81l65 81h110z" />
    <glyph glyph-name="aacute" unicode="&#xe1;" horiz-adv-x="574" 
d="M376 200v53c-24 -21 -74 -22 -118 -30c-44 -9 -84 -24 -84 -76c0 -53 41 -66 87 -66c111 0 115 88 115 119zM190 358h-142c8 133 127 173 243 173c103 0 227 -23 227 -147v-269c0 -47 5 -94 18 -115h-144c-5 16 -9 33 -10 50c-45 -47 -111 -64 -174 -64
c-98 0 -176 49 -176 155c0 117 88 145 176 157c87 13 168 10 168 68c0 61 -42 70 -92 70c-54 0 -89 -22 -94 -78zM465 723l-154 -142h-99l96 142h157z" />
    <glyph glyph-name="acircumflex" unicode="&#xe2;" horiz-adv-x="574" 
d="M376 200v53c-24 -21 -74 -22 -118 -30c-44 -9 -84 -24 -84 -76c0 -53 41 -66 87 -66c111 0 115 88 115 119zM190 358h-142c8 133 127 173 243 173c103 0 227 -23 227 -147v-269c0 -47 5 -94 18 -115h-144c-5 16 -9 33 -10 50c-45 -47 -111 -64 -174 -64
c-98 0 -176 49 -176 155c0 117 88 145 176 157c87 13 168 10 168 68c0 61 -42 70 -92 70c-54 0 -89 -22 -94 -78zM112 581l111 142h130l110 -142h-117l-62 81l-64 -81h-108z" />
    <glyph glyph-name="adieresis" unicode="&#xe4;" horiz-adv-x="574" 
d="M376 200v53c-24 -21 -74 -22 -118 -30c-44 -9 -84 -24 -84 -76c0 -53 41 -66 87 -66c111 0 115 88 115 119zM190 358h-142c8 133 127 173 243 173c103 0 227 -23 227 -147v-269c0 -47 5 -94 18 -115h-144c-5 16 -9 33 -10 50c-45 -47 -111 -64 -174 -64
c-98 0 -176 49 -176 155c0 117 88 145 176 157c87 13 168 10 168 68c0 61 -42 70 -92 70c-54 0 -89 -22 -94 -78zM323 597v117h135v-117h-135zM117 597v117h135v-117h-135z" />
    <glyph glyph-name="agrave" unicode="&#xe0;" horiz-adv-x="574" 
d="M376 200v53c-24 -21 -74 -22 -118 -30c-44 -9 -84 -24 -84 -76c0 -53 41 -66 87 -66c111 0 115 88 115 119zM190 358h-142c8 133 127 173 243 173c103 0 227 -23 227 -147v-269c0 -47 5 -94 18 -115h-144c-5 16 -9 33 -10 50c-45 -47 -111 -64 -174 -64
c-98 0 -176 49 -176 155c0 117 88 145 176 157c87 13 168 10 168 68c0 61 -42 70 -92 70c-54 0 -89 -22 -94 -78zM264 581l-154 142h157l96 -142h-99z" />
    <glyph glyph-name="aring" unicode="&#xe5;" horiz-adv-x="574" 
d="M376 200v53c-24 -21 -74 -22 -118 -30c-44 -9 -84 -24 -84 -76c0 -53 41 -66 87 -66c111 0 115 88 115 119zM190 358h-142c8 133 127 173 243 173c103 0 227 -23 227 -147v-269c0 -47 5 -94 18 -115h-144c-5 16 -9 33 -10 50c-45 -47 -111 -64 -174 -64
c-98 0 -176 49 -176 155c0 117 88 145 176 157c87 13 168 10 168 68c0 61 -42 70 -92 70c-54 0 -89 -22 -94 -78zM224 656c0 -39 25 -70 63 -70s64 31 64 70s-26 70 -64 70s-63 -31 -63 -70zM165 656c0 67 55 122 122 122c68 0 123 -55 123 -122s-55 -122 -123 -122
c-67 0 -122 55 -122 122z" />
    <glyph glyph-name="atilde" unicode="&#xe3;" horiz-adv-x="574" 
d="M376 200v53c-24 -21 -74 -22 -118 -30c-44 -9 -84 -24 -84 -76c0 -53 41 -66 87 -66c111 0 115 88 115 119zM190 358h-142c8 133 127 173 243 173c103 0 227 -23 227 -147v-269c0 -47 5 -94 18 -115h-144c-5 16 -9 33 -10 50c-45 -47 -111 -64 -174 -64
c-98 0 -176 49 -176 155c0 117 88 145 176 157c87 13 168 10 168 68c0 61 -42 70 -92 70c-54 0 -89 -22 -94 -78zM402 714h69c-7 -23 -15 -51 -31 -74s-40 -40 -81 -40c-30 0 -57 9 -82 17c-25 9 -47 17 -70 17c-27 0 -36 -17 -42 -42h-61c13 58 38 122 126 122
c23 0 43 -9 64 -17c21 -9 43 -18 66 -18c30 0 43 16 42 35z" />
    <glyph glyph-name="ccedilla" unicode="&#xe7;" horiz-adv-x="574" 
d="M545 335h-139c-9 58 -46 89 -105 89c-91 0 -121 -92 -121 -168c0 -74 29 -163 118 -163c66 0 104 42 113 105h137c-17 -133 -107 -207 -237 -211l-28 -40h2c6 3 17 5 34 5c45 0 92 -21 92 -70c0 -78 -58 -100 -117 -100c-63 0 -86 9 -124 22l21 48c21 -9 50 -18 84 -18
c24 0 40 10 40 34c0 25 -18 32 -40 32c-14 0 -29 -3 -40 -7l-21 24l50 72c-136 14 -226 119 -226 262c0 161 96 280 264 280c122 0 234 -64 243 -196z" />
    <glyph glyph-name="eacute" unicode="&#xe9;" horiz-adv-x="574" 
d="M544 224h-373c4 -90 48 -131 127 -131c57 0 103 35 112 67h125c-40 -122 -125 -174 -242 -174c-163 0 -264 112 -264 272c0 155 107 273 264 273c176 0 261 -148 251 -307zM171 314h231c-13 72 -44 110 -113 110c-90 0 -116 -70 -118 -110zM465 723l-154 -142h-99l96 142
h157z" />
    <glyph glyph-name="ecircumflex" unicode="&#xea;" horiz-adv-x="574" 
d="M544 224h-373c4 -90 48 -131 127 -131c57 0 103 35 112 67h125c-40 -122 -125 -174 -242 -174c-163 0 -264 112 -264 272c0 155 107 273 264 273c176 0 261 -148 251 -307zM171 314h231c-13 72 -44 110 -113 110c-90 0 -116 -70 -118 -110zM112 581l111 142h130l110 -142
h-117l-62 81l-64 -81h-108z" />
    <glyph glyph-name="edieresis" unicode="&#xeb;" horiz-adv-x="574" 
d="M544 224h-373c4 -90 48 -131 127 -131c57 0 103 35 112 67h125c-40 -122 -125 -174 -242 -174c-163 0 -264 112 -264 272c0 155 107 273 264 273c176 0 261 -148 251 -307zM171 314h231c-13 72 -44 110 -113 110c-90 0 -116 -70 -118 -110zM323 597v117h135v-117h-135z
M117 597v117h135v-117h-135z" />
    <glyph glyph-name="egrave" unicode="&#xe8;" horiz-adv-x="574" 
d="M544 224h-373c4 -90 48 -131 127 -131c57 0 103 35 112 67h125c-40 -122 -125 -174 -242 -174c-163 0 -264 112 -264 272c0 155 107 273 264 273c176 0 261 -148 251 -307zM171 314h231c-13 72 -44 110 -113 110c-90 0 -116 -70 -118 -110zM264 581l-154 142h157l96 -142
h-99z" />
    <glyph glyph-name="iacute" unicode="&#xed;" horiz-adv-x="258" 
d="M58 0v517h142v-517h-142zM307 723l-154 -142h-99l96 142h157z" />
    <glyph glyph-name="icircumflex" unicode="&#xee;" horiz-adv-x="258" 
d="M58 0v517h142v-517h-142zM-46 581l111 142h130l110 -142h-117l-62 81l-64 -81h-108z" />
    <glyph glyph-name="idieresis" unicode="&#xef;" horiz-adv-x="258" 
d="M58 0v517h142v-517h-142zM165 597v117h135v-117h-135zM-41 597v117h135v-117h-135z" />
    <glyph glyph-name="igrave" unicode="&#xec;" horiz-adv-x="258" 
d="M58 0v517h142v-517h-142zM106 581l-154 142h157l96 -142h-99z" />
    <glyph glyph-name="ntilde" unicode="&#xf1;" horiz-adv-x="593" 
d="M54 0v517h135v-72h3c36 58 98 86 158 86c151 0 189 -85 189 -213v-318h-142v292c0 85 -25 127 -91 127c-77 0 -110 -43 -110 -148v-271h-142zM411 714h69c-7 -23 -15 -51 -31 -74s-40 -40 -81 -40c-30 0 -57 9 -82 17c-25 9 -47 17 -70 17c-27 0 -36 -17 -42 -42h-61
c13 58 38 122 126 122c23 0 43 -9 64 -17c21 -9 43 -18 66 -18c30 0 43 16 42 35z" />
    <glyph glyph-name="oacute" unicode="&#xf3;" horiz-adv-x="611" 
d="M38 258c0 165 105 273 267 273c163 0 268 -108 268 -273c0 -164 -105 -272 -268 -272c-162 0 -267 108 -267 272zM180 258c0 -82 29 -165 125 -165c97 0 126 83 126 165c0 83 -29 166 -126 166c-96 0 -125 -83 -125 -166zM483 723l-154 -142h-99l96 142h157z" />
    <glyph glyph-name="ocircumflex" unicode="&#xf4;" horiz-adv-x="611" 
d="M38 258c0 165 105 273 267 273c163 0 268 -108 268 -273c0 -164 -105 -272 -268 -272c-162 0 -267 108 -267 272zM180 258c0 -82 29 -165 125 -165c97 0 126 83 126 165c0 83 -29 166 -126 166c-96 0 -125 -83 -125 -166zM130 581l111 142h130l110 -142h-117l-62 81
l-64 -81h-108z" />
    <glyph glyph-name="odieresis" unicode="&#xf6;" horiz-adv-x="611" 
d="M38 258c0 165 105 273 267 273c163 0 268 -108 268 -273c0 -164 -105 -272 -268 -272c-162 0 -267 108 -267 272zM180 258c0 -82 29 -165 125 -165c97 0 126 83 126 165c0 83 -29 166 -126 166c-96 0 -125 -83 -125 -166zM341 597v117h135v-117h-135zM135 597v117h135
v-117h-135z" />
    <glyph glyph-name="ograve" unicode="&#xf2;" horiz-adv-x="611" 
d="M38 258c0 165 105 273 267 273c163 0 268 -108 268 -273c0 -164 -105 -272 -268 -272c-162 0 -267 108 -267 272zM180 258c0 -82 29 -165 125 -165c97 0 126 83 126 165c0 83 -29 166 -126 166c-96 0 -125 -83 -125 -166zM282 581l-154 142h157l96 -142h-99z" />
    <glyph glyph-name="otilde" unicode="&#xf5;" horiz-adv-x="611" 
d="M38 258c0 165 105 273 267 273c163 0 268 -108 268 -273c0 -164 -105 -272 -268 -272c-162 0 -267 108 -267 272zM180 258c0 -82 29 -165 125 -165c97 0 126 83 126 165c0 83 -29 166 -126 166c-96 0 -125 -83 -125 -166zM420 714h69c-7 -23 -15 -51 -31 -74
s-40 -40 -81 -40c-30 0 -57 9 -82 17c-25 9 -47 17 -70 17c-27 0 -36 -17 -42 -42h-61c13 58 38 122 126 122c23 0 43 -9 64 -17c21 -9 43 -18 66 -18c30 0 43 16 42 35z" />
    <glyph glyph-name="scaron" unicode="&#x161;" horiz-adv-x="537" 
d="M29 168h135c1 -62 53 -87 109 -87c41 0 93 16 93 66c0 43 -59 58 -161 80c-82 18 -164 47 -164 138c0 132 114 166 225 166c113 0 217 -38 228 -165h-135c-4 55 -46 70 -97 70c-32 0 -79 -6 -79 -48c0 -51 80 -58 161 -77c83 -19 164 -49 164 -145
c0 -136 -118 -180 -236 -180c-120 0 -237 45 -243 182zM444 723l-110 -142h-130l-111 142h112l64 -81l65 81h110z" />
    <glyph glyph-name="uacute" unicode="&#xfa;" horiz-adv-x="593" 
d="M539 517v-517h-135v72h-3c-36 -58 -98 -86 -158 -86c-151 0 -189 85 -189 213v318h142v-292c0 -85 25 -127 91 -127c77 0 110 43 110 148v271h142zM474 723l-154 -142h-99l96 142h157z" />
    <glyph glyph-name="ucircumflex" unicode="&#xfb;" horiz-adv-x="593" 
d="M539 517v-517h-135v72h-3c-36 -58 -98 -86 -158 -86c-151 0 -189 85 -189 213v318h142v-292c0 -85 25 -127 91 -127c77 0 110 43 110 148v271h142zM121 581l111 142h130l110 -142h-117l-62 81l-64 -81h-108z" />
    <glyph glyph-name="udieresis" unicode="&#xfc;" horiz-adv-x="593" 
d="M539 517v-517h-135v72h-3c-36 -58 -98 -86 -158 -86c-151 0 -189 85 -189 213v318h142v-292c0 -85 25 -127 91 -127c77 0 110 43 110 148v271h142zM332 597v117h135v-117h-135zM126 597v117h135v-117h-135z" />
    <glyph glyph-name="ugrave" unicode="&#xf9;" horiz-adv-x="593" 
d="M539 517v-517h-135v72h-3c-36 -58 -98 -86 -158 -86c-151 0 -189 85 -189 213v318h142v-292c0 -85 25 -127 91 -127c77 0 110 43 110 148v271h142zM273 581l-154 142h157l96 -142h-99z" />
    <glyph glyph-name="yacute" unicode="&#xfd;" horiz-adv-x="519" 
d="M525 517l-216 -582c-31 -83 -80 -117 -178 -117c-29 0 -58 2 -87 5v117c27 -2 55 -6 83 -5c49 5 65 56 49 97l-182 485h152l117 -354h2l113 354h147zM437 723l-154 -142h-99l96 142h157z" />
    <glyph glyph-name="ydieresis" unicode="&#xff;" horiz-adv-x="519" 
d="M525 517l-216 -582c-31 -83 -80 -117 -178 -117c-29 0 -58 2 -87 5v117c27 -2 55 -6 83 -5c49 5 65 56 49 97l-182 485h152l117 -354h2l113 354h147zM295 597v117h135v-117h-135zM89 597v117h135v-117h-135z" />
    <glyph glyph-name="zcaron" unicode="&#x17e;" horiz-adv-x="519" 
d="M22 0v107l269 303h-249v107h436v-107l-269 -303h288v-107h-475zM435 723l-110 -142h-130l-111 142h112l64 -81l65 81h110z" />
    <glyph glyph-name="Delta" unicode="&#x2206;" horiz-adv-x="654" 
d="M27 0v73l229 644h148l222 -642v-75h-599zM155 101h337l-109 298c-16 54 -46 137 -57 181h-3c-8 -36 -36 -110 -52 -166z" />
    <glyph glyph-name="Omega" unicode="&#x2126;" horiz-adv-x="704" 
d="M173 101v3c-61 58 -122 156 -122 284c0 178 123 324 303 324c193 0 296 -167 296 -317c0 -131 -61 -234 -123 -291v-3h137v-101h-261v75c62 41 121 133 121 293c0 125 -59 240 -170 240c-107 0 -176 -104 -176 -245c0 -145 58 -249 122 -288v-75h-263v101h136z" />
    <glyph glyph-name="uni03BC" unicode="&#x3bc;" horiz-adv-x="593" 
d="M539 517v-517h-135v72h-3c-36 -58 -98 -86 -130 -86c-40 0 -63 11 -75 24v-192h-142v699h142v-292c0 -85 25 -127 91 -127c77 0 110 43 110 148v271h142z" />
    <glyph glyph-name="pi" unicode="&#x3c0;" horiz-adv-x="598" 
d="M574 420h-70v-271c0 -74 6 -118 13 -149h-121c-12 21 -17 72 -17 143v277h-139c-5 -109 -29 -315 -64 -420h-122c34 117 61 309 63 420c-48 0 -77 -3 -98 -10l-14 84c25 19 77 33 162 33h417z" />
    <glyph glyph-name="Euro" unicode="&#x20ac;" 
d="M576 672l-61 -125c-47 30 -90 45 -131 45c-71 0 -117 -46 -140 -137h244l-31 -72h-224l-1 -42h213l-31 -72h-174c21 -105 70 -158 148 -158c50 0 101 21 154 63l-1 -151c-46 -27 -97 -40 -154 -40c-84 0 -152 27 -203 82c-47 50 -77 118 -91 204h-77l31 72h40
c0 21 0 35 1 42h-73l31 72h51c16 80 49 144 99 191c53 51 119 76 198 76c57 0 118 -17 182 -50z" />
    <glyph glyph-name="afii61289" unicode="&#x2113;" horiz-adv-x="510" 
d="M441 181l51 -52c-52 -102 -127 -139 -206 -139c-120 0 -170 76 -179 166c0 3 0 7 -1 11c-16 -13 -34 -28 -51 -41l-32 67c30 25 57 45 82 69v254c0 178 81 254 178 254c96 0 138 -79 138 -177c0 -119 -76 -232 -196 -349l1 -43c1 -74 40 -112 89 -112c54 0 99 47 126 92z
M225 518v-159c69 79 118 166 118 238c0 52 -14 84 -55 84c-30 0 -63 -36 -63 -163z" />
    <glyph glyph-name="estimated" unicode="&#x212e;" horiz-adv-x="878" 
d="M843 340h-655c-3 0 -5 -1 -5 -4v-199c0 -8 3 -16 8 -22c64 -66 151 -108 248 -108c104 0 197 47 261 121h58c-72 -85 -190 -141 -320 -141c-223 0 -404 162 -404 363s181 364 404 364c224 0 405 -163 405 -364v-10zM694 366v199c0 9 -3 17 -10 24
c-63 62 -149 103 -245 103s-183 -42 -247 -107c-6 -6 -9 -15 -9 -24v-195c0 -2 2 -7 5 -7h502c3 0 4 5 4 7z" />
    <glyph glyph-name="partialdiff" unicode="&#x2202;" horiz-adv-x="572" 
d="M103 639l-35 94c31 23 89 57 182 57c145 0 273 -127 273 -382c0 -250 -102 -417 -279 -417c-140 0 -206 128 -206 237c0 162 97 263 215 263c82 0 132 -54 147 -80h1c1 8 1 26 1 34c0 128 -67 242 -168 242c-61 0 -105 -26 -131 -48zM256 95h1c75 0 122 112 132 211
c-9 32 -49 85 -111 85c-69 0 -117 -79 -117 -167c0 -72 37 -129 95 -129z" />
    <glyph glyph-name="product" unicode="&#x220f;" horiz-adv-x="718" 
d="M692 588h-101v-685h-123v685h-219v-685h-123v685h-101v113h667v-113z" />
    <glyph glyph-name="summation" unicode="&#x2211;" 
d="M536 -97h-513v80l242 320l-233 311v87h488v-105h-321v-4l206 -269l-229 -301v-3h360v-116z" />
    <glyph glyph-name="uni2219" unicode="&#x2219;" horiz-adv-x="278" 
d="M55 287c0 47 39 85 85 85c45 0 84 -39 84 -85c0 -42 -39 -84 -83 -84c-47 0 -86 38 -86 84z" />
    <glyph glyph-name="radical" unicode="&#x221a;" horiz-adv-x="590" 
d="M598 841l-224 -982h-99l-149 441l-74 -29l-20 70l168 68l104 -321c7 -32 15 -64 20 -87l2 -1c3 22 8 58 15 94l171 747h86z" />
    <glyph glyph-name="infinity" unicode="&#x221e;" horiz-adv-x="778" 
d="M729 290v-1c0 -108 -78 -172 -160 -172c-58 0 -112 26 -179 113c-52 -63 -104 -113 -185 -113c-83 0 -157 68 -157 167c0 101 71 171 165 171c75 0 129 -45 180 -111c43 48 93 112 182 111c87 0 154 -65 154 -165zM214 185h1c56 0 99 51 137 96c-41 56 -77 108 -142 108
c-57 0 -92 -46 -92 -105c0 -54 41 -99 96 -99zM568 389h-1c-61 0 -107 -65 -139 -101c61 -75 93 -103 143 -103c57 0 88 55 88 99c0 61 -37 105 -91 105z" />
    <glyph glyph-name="integral" unicode="&#x222b;" horiz-adv-x="394" 
d="M372 855l-14 -85c-9 4 -21 8 -35 8c-19 0 -37 -7 -50 -25c-21 -28 -27 -85 -27 -170c0 -163 14 -304 14 -483c0 -96 -14 -162 -36 -201c-27 -52 -79 -72 -127 -72c-32 0 -62 8 -77 16l16 89c9 -4 24 -10 43 -10c16 0 33 5 44 20c17 24 27 66 27 157
c0 182 -15 325 -15 496c0 117 17 181 60 226c28 32 73 46 116 46c25 0 49 -6 61 -12z" />
    <glyph glyph-name="approxequal" unicode="&#x2248;" horiz-adv-x="549" 
d="M465 452l44 -40c-31 -60 -78 -103 -135 -103c-40 0 -67 12 -112 40c-29 18 -54 33 -86 33c-44 0 -69 -36 -93 -72l-45 41c29 58 83 102 144 102c49 0 81 -23 106 -37c36 -21 56 -36 87 -36c38 0 63 29 90 72zM465 266l44 -40c-31 -59 -77 -103 -135 -103
c-40 0 -68 14 -112 40c-30 19 -54 34 -86 34c-45 0 -69 -36 -93 -73l-45 41c29 58 83 102 144 102c49 0 81 -22 106 -36c31 -18 55 -37 87 -37c39 0 62 29 90 72z" />
    <glyph glyph-name="notequal" unicode="&#x2260;" horiz-adv-x="549" 
d="M403 514l-39 -89h136v-72h-163l-60 -136h223v-72h-250l-50 -114l-57 23l40 91h-135v72h163l59 136h-222v72h249l49 112z" />
    <glyph glyph-name="lessequal" unicode="&#x2264;" horiz-adv-x="549" 
d="M498 100l-445 223v78l445 223v-84l-373 -176v-3l373 -177v-84zM502 -12h-453v74h453v-74z" />
    <glyph glyph-name="greaterequal" unicode="&#x2265;" horiz-adv-x="549" 
d="M55 624l445 -223v-78l-445 -223v84l372 177v2l-372 177v84zM500 -12h-450v74h450v-74z" />
    <glyph glyph-name="lozenge" unicode="&#x25ca;" horiz-adv-x="590" 
d="M540 350l-198 -399h-100l-192 399l198 400h99zM430 347l-114 241c-7 19 -15 43 -19 60h-3c-5 -18 -11 -40 -19 -60l-115 -235l115 -245c7 -20 14 -43 17 -57h4c4 15 13 45 18 56z" />
    <glyph glyph-name="uni00A0" unicode="&#xa0;" horiz-adv-x="278" 
 />
    <glyph glyph-name="uni00AD" unicode="&#xad;" horiz-adv-x="407" 
d="M53 212v122h301v-122h-301z" />
    <glyph glyph-name="uni02C9" unicode="&#x2c9;" horiz-adv-x="259" 
d="M-57 616v75h373v-75h-373z" />
    <glyph glyph-name="uni03A9" unicode="&#x3a9;" horiz-adv-x="704" 
d="M173 101v3c-61 58 -122 156 -122 284c0 178 123 324 303 324c193 0 296 -167 296 -317c0 -131 -61 -234 -123 -291v-3h137v-101h-261v75c62 41 121 133 121 293c0 125 -59 240 -170 240c-107 0 -176 -104 -176 -245c0 -145 58 -249 122 -288v-75h-263v101h136z" />
    <glyph glyph-name="uni2215" unicode="&#x2215;" horiz-adv-x="167" 
d="M-166 -22l414 744h85l-412 -744h-87z" />
    <hkern u1="&#x2019;" u2="&#x2019;" k="65" />
    <hkern u1="T" u2="&#xfc;" k="46" />
    <hkern u1="T" u2="&#x161;" k="28" />
    <hkern u1="T" u2="&#xf2;" k="56" />
    <hkern u1="T" u2="&#xf6;" k="56" />
    <hkern u1="T" u2="&#xe8;" k="83" />
    <hkern u1="T" u2="&#xeb;" k="56" />
    <hkern u1="T" u2="&#xea;" k="83" />
    <hkern u1="T" u2="&#xe3;" k="56" />
    <hkern u1="T" u2="&#xe5;" k="56" />
    <hkern u1="T" u2="&#xe0;" k="56" />
    <hkern u1="T" u2="&#xe4;" k="28" />
    <hkern u1="T" u2="&#xe2;" k="56" />
    <hkern u1="V" u2="&#xf6;" k="28" />
    <hkern u1="V" u2="&#xf4;" k="41" />
    <hkern u1="V" u2="&#xee;" k="-4" />
    <hkern u1="V" u2="&#xe8;" k="28" />
    <hkern u1="V" u2="&#xeb;" k="28" />
    <hkern u1="V" u2="&#xea;" k="28" />
    <hkern u1="V" u2="&#xe3;" k="28" />
    <hkern u1="V" u2="&#xe5;" k="28" />
    <hkern u1="V" u2="&#xe0;" k="28" />
    <hkern u1="V" u2="&#xe4;" k="28" />
    <hkern u1="V" u2="&#xe2;" k="28" />
    <hkern u1="W" u2="&#xfc;" k="14" />
    <hkern u1="W" u2="&#xf6;" k="28" />
    <hkern u1="W" u2="&#xea;" k="28" />
    <hkern u1="W" u2="&#xe4;" k="28" />
    <hkern u1="Y" u2="&#xfc;" k="56" />
    <hkern u1="Y" u2="&#xf6;" k="69" />
    <hkern u1="&#x2018;" u2="&#x2018;" k="65" />
    <hkern g1="f,fi,fl"
	g2="quoteright"
	k="-18" />
    <hkern g1="f,fi,fl"
	g2="f,fi,fl,germandbls"
	k="18" />
    <hkern g1="F"
	g2="A,AE,Aacute,Acircumflex,Adieresis,Agrave,Aring,Atilde"
	k="55" />
    <hkern g1="F"
	g2="comma"
	k="129" />
    <hkern g1="F"
	g2="period"
	k="129" />
    <hkern g1="L,Lslash"
	g2="T"
	k="111" />
    <hkern g1="L,Lslash"
	g2="V"
	k="92" />
    <hkern g1="L,Lslash"
	g2="W"
	k="55" />
    <hkern g1="L,Lslash"
	g2="y,yacute,ydieresis"
	k="37" />
    <hkern g1="L,Lslash"
	g2="Y,Yacute,Ydieresis"
	k="111" />
    <hkern g1="L,Lslash"
	g2="quoteright"
	k="74" />
    <hkern g1="P"
	g2="A,AE,Aacute,Acircumflex,Adieresis,Agrave,Aring,Atilde"
	k="74" />
    <hkern g1="P"
	g2="comma"
	k="129" />
    <hkern g1="P"
	g2="period"
	k="129" />
    <hkern g1="r"
	g2="comma"
	k="92" />
    <hkern g1="r"
	g2="period"
	k="92" />
    <hkern g1="r"
	g2="c,ccedilla"
	k="18" />
    <hkern g1="r"
	g2="d,dotlessi"
	k="18" />
    <hkern g1="r"
	g2="e,eacute,ecircumflex,edieresis,egrave"
	k="18" />
    <hkern g1="r"
	g2="n,ntilde"
	k="-18" />
    <hkern g1="r"
	g2="o,oslash,oe,oacute,ocircumflex,odieresis,ograve,otilde"
	k="18" />
    <hkern g1="r"
	g2="q"
	k="18" />
    <hkern g1="r"
	g2="hyphen"
	k="55" />
    <hkern g1="R"
	g2="T"
	k="18" />
    <hkern g1="R"
	g2="V"
	k="-6" />
    <hkern g1="R"
	g2="W"
	k="-6" />
    <hkern g1="R"
	g2="Y,Yacute,Ydieresis"
	k="37" />
    <hkern g1="T"
	g2="w"
	k="111" />
    <hkern g1="T"
	g2="y,yacute,ydieresis"
	k="92" />
    <hkern g1="T"
	g2="A,AE,Aacute,Acircumflex,Adieresis,Agrave,Aring,Atilde"
	k="74" />
    <hkern g1="T"
	g2="comma"
	k="111" />
    <hkern g1="T"
	g2="period"
	k="111" />
    <hkern g1="T"
	g2="c,ccedilla"
	k="111" />
    <hkern g1="T"
	g2="e,eacute,ecircumflex,edieresis,egrave"
	k="111" />
    <hkern g1="T"
	g2="o,oslash,oe,oacute,ocircumflex,odieresis,ograve,otilde"
	k="111" />
    <hkern g1="T"
	g2="hyphen"
	k="129" />
    <hkern g1="T"
	g2="a,ae,aacute,acircumflex,adieresis,agrave,aring,atilde"
	k="111" />
    <hkern g1="T"
	g2="r"
	k="92" />
    <hkern g1="T"
	g2="s,scaron"
	k="111" />
    <hkern g1="T"
	g2="u,uacute,ucircumflex,udieresis,ugrave"
	k="92" />
    <hkern g1="T"
	g2="colon"
	k="87" />
    <hkern g1="T"
	g2="semicolon"
	k="87" />
    <hkern g1="v"
	g2="comma"
	k="55" />
    <hkern g1="v"
	g2="period"
	k="55" />
    <hkern g1="V"
	g2="y,yacute,ydieresis"
	k="18" />
    <hkern g1="V"
	g2="A,AE,Aacute,Acircumflex,Adieresis,Agrave,Aring,Atilde"
	k="46" />
    <hkern g1="V"
	g2="comma"
	k="129" />
    <hkern g1="V"
	g2="period"
	k="129" />
    <hkern g1="V"
	g2="e,eacute,ecircumflex,edieresis,egrave"
	k="55" />
    <hkern g1="V"
	g2="o,oslash,oe,oacute,ocircumflex,odieresis,ograve,otilde"
	k="55" />
    <hkern g1="V"
	g2="hyphen"
	k="55" />
    <hkern g1="V"
	g2="a,ae,aacute,acircumflex,adieresis,agrave,aring,atilde"
	k="55" />
    <hkern g1="V"
	g2="r"
	k="37" />
    <hkern g1="V"
	g2="u,uacute,ucircumflex,udieresis,ugrave"
	k="37" />
    <hkern g1="V"
	g2="colon"
	k="50" />
    <hkern g1="V"
	g2="semicolon"
	k="50" />
    <hkern g1="V"
	g2="i,iacute,icircumflex,idieresis,igrave"
	k="18" />
    <hkern g1="w"
	g2="comma"
	k="55" />
    <hkern g1="w"
	g2="period"
	k="55" />
    <hkern g1="W"
	g2="A,AE,Aacute,Acircumflex,Adieresis,Agrave,Aring,Atilde"
	k="18" />
    <hkern g1="W"
	g2="comma"
	k="74" />
    <hkern g1="W"
	g2="period"
	k="74" />
    <hkern g1="W"
	g2="e,eacute,ecircumflex,edieresis,egrave"
	k="37" />
    <hkern g1="W"
	g2="o,oslash,oe,oacute,ocircumflex,odieresis,ograve,otilde"
	k="37" />
    <hkern g1="W"
	g2="a,ae,aacute,acircumflex,adieresis,agrave,aring,atilde"
	k="37" />
    <hkern g1="W"
	g2="r"
	k="18" />
    <hkern g1="W"
	g2="u,uacute,ucircumflex,udieresis,ugrave"
	k="18" />
    <hkern g1="W"
	g2="colon"
	k="18" />
    <hkern g1="W"
	g2="semicolon"
	k="18" />
    <hkern g1="y,yacute,ydieresis"
	g2="comma"
	k="55" />
    <hkern g1="y,yacute,ydieresis"
	g2="period"
	k="55" />
    <hkern g1="Y,Yacute,Ydieresis"
	g2="v"
	k="55" />
    <hkern g1="Y,Yacute,Ydieresis"
	g2="A,AE,Aacute,Acircumflex,Adieresis,Agrave,Aring,Atilde"
	k="74" />
    <hkern g1="Y,Yacute,Ydieresis"
	g2="comma"
	k="111" />
    <hkern g1="Y,Yacute,Ydieresis"
	g2="period"
	k="111" />
    <hkern g1="Y,Yacute,Ydieresis"
	g2="e,eacute,ecircumflex,edieresis,egrave"
	k="92" />
    <hkern g1="Y,Yacute,Ydieresis"
	g2="o,oslash,oe,oacute,ocircumflex,odieresis,ograve,otilde"
	k="92" />
    <hkern g1="Y,Yacute,Ydieresis"
	g2="q"
	k="92" />
    <hkern g1="Y,Yacute,Ydieresis"
	g2="hyphen"
	k="111" />
    <hkern g1="Y,Yacute,Ydieresis"
	g2="a,ae,aacute,acircumflex,adieresis,agrave,aring,atilde"
	k="92" />
    <hkern g1="Y,Yacute,Ydieresis"
	g2="u,uacute,ucircumflex,udieresis,ugrave"
	k="74" />
    <hkern g1="Y,Yacute,Ydieresis"
	g2="colon"
	k="80" />
    <hkern g1="Y,Yacute,Ydieresis"
	g2="semicolon"
	k="68" />
    <hkern g1="Y,Yacute,Ydieresis"
	g2="i,iacute,icircumflex,idieresis,igrave"
	k="13" />
    <hkern g1="Y,Yacute,Ydieresis"
	g2="p"
	k="74" />
    <hkern g1="quoteright"
	g2="s,scaron"
	k="74" />
    <hkern g1="quoteright"
	g2="t"
	k="18" />
  </font>
</defs></svg>
